Division,WeightClassKg,Place,Name,Team,BodyweightKg,Best3SquatKg,Best3BenchKg,Best3DeadliftKg,TotalKg,Equipment,Event,Sex
Boys,51.71,1,Dylan Quintero,Burleson Centennial,51.71,127.01,68.04,147.42,342.46,Single-ply,SBD,M
Boys,51.71,2,Danny Carrillo,Waxahachie,51.26,131.54,65.77,142.88,340.19,Single-ply,SBD,M
Boys,51.71,3,Justin Moss,Burleson,48.53,120.2,65.77,122.47,308.44,Single-ply,SBD,M
Boys,51.71,4,Matthew Smith,Burleson,49.08,95.25,61.23,117.93,274.42,Single-ply,SBD,M
Boys,51.71,5,Michael Harris,Waxahachie,50.8,79.38,52.16,104.33,235.87,Single-ply,SBD,M
Boys,55.79,1,Eduardo Renteria,Burleson,55.34,117.93,72.57,165.56,356.07,Single-ply,SBD,M
Boys,55.79,2,Genbard Lumino,Midlothian,54.52,120.2,65.77,127.01,312.98,Single-ply,SBD,M
Boys,59.87,1,Titus Newsom,Joshua,59.69,149.69,72.57,142.88,365.14,Single-ply,SBD,M
Boys,59.87,2,Wyatt Achey,Midlothian,59.51,133.81,72.57,145.15,351.53,Single-ply,SBD,M
Boys,59.87,3,Julian Lopez,Midlothian,59.87,102.06,63.5,129.27,294.84,Single-ply,SBD,M
Boys,67.13,1,Ethan Haynes,Burleson,67.13,233.6,131.54,224.53,589.67,Single-ply,SBD,M
Boys,67.13,2,Jaden Basham,Waxahachie,64.59,165.56,104.33,170.1,439.98,Single-ply,SBD,M
Boys,67.13,3,Hunter Ford,Burleson Centennial,64.23,158.76,86.18,188.24,433.18,Single-ply,SBD,M
Boys,67.13,4,Dax Lott,Waxahachie,63.78,158.76,111.13,158.76,428.64,Single-ply,SBD,M
Boys,74.84,1,Quincy Johnson,Waxahachie,74.84,172.37,120.2,190.51,483.08,Single-ply,SBD,M
Boys,74.84,2,D'Tyler Mason,Waxahachie,70.49,181.44,104.33,167.83,453.59,Single-ply,SBD,M
Boys,74.84,3,Nico Keramidas,Cleburne,68.4,167.83,92.99,149.69,410.5,Single-ply,SBD,M
Boys,74.84,4,Matiyron Easley,Burleson Centennial,70.49,136.08,86.18,188.24,410.5,Single-ply,SBD,M
Boys,74.84,5,Matthew Lacy,Cleburne,69.76,136.08,113.4,158.76,408.23,Single-ply,SBD,M
Boys,74.84,6,Tucker Riker,Burleson Centennial,69.4,99.79,61.23,138.35,299.37,Single-ply,SBD,M
Boys,74.84,7,Jayson McCall,Midlothian,74.57,161.03,,,161.03,Single-ply,S,M
Boys,82.1,1,Jayton DeLeon,Midlothian,81.1,226.8,145.15,231.33,603.28,Single-ply,SBD,M
Boys,82.1,2,Wesley Free,Cleburne,78.38,208.65,131.54,158.76,498.95,Single-ply,SBD,M
Boys,82.1,3,Braxton Bailey,Cleburne,81.74,190.51,124.74,174.63,489.88,Single-ply,SBD,M
Boys,82.1,4,Jonathen Guerrero,Waxahachie,81.83,183.7,113.4,185.97,483.08,Single-ply,SBD,M
Boys,82.1,5,Jeremiah Lizarraga,Waxahachie,75.66,188.24,104.33,181.44,474,Single-ply,SBD,M
Boys,82.1,6,Ryan Walz,Burleson Centennial,79.11,124.74,83.91,136.08,344.73,Single-ply,SBD,M
Boys,82.1,7,Parker Hancook,Burleson Centennial,78.11,104.33,70.31,115.67,290.3,Single-ply,SBD,M
Boys,89.81,1,Brek Galbreath,Joshua,89.72,247.21,170.1,265.35,682.66,Single-ply,SBD,M
Boys,89.81,2,Hunter Cunningham,Burleson,86.09,229.06,142.88,247.21,619.15,Single-ply,SBD,M
Boys,89.81,3,Kenny Long,Burleson Centennial,86.91,247.21,115.67,204.12,566.99,Single-ply,SBD,M
Boys,89.81,4,Joey Rainbolt,Joshua,87.54,208.65,127.01,204.12,539.77,Single-ply,SBD,M
Boys,89.81,5,Will Mitchell,Burleson Centennial,89.27,195.04,122.47,195.04,512.56,Single-ply,SBD,M
Boys,89.81,6,Adyn Schwarzer,Burleson,87.82,181.44,108.86,204.12,494.42,Single-ply,SBD,M
Boys,89.81,7,Cail Keeling,Joshua,89.81,188.24,108.86,188.24,485.34,Single-ply,SBD,M
Boys,89.81,8,Christian Hudson,Burleson Centennial,85.82,151.95,90.72,158.76,401.43,Single-ply,SBD,M
Boys,99.79,1,Michael Kornak,Burleson Centennial,98.88,244.94,133.81,254.01,632.76,Single-ply,SBD,M
Boys,99.79,2,Justis Chaney,Joshua,97.07,210.92,158.76,226.8,596.47,Single-ply,SBD,M
Boys,99.79,3,Jt Cavender,Midlothian,96.52,204.12,122.47,226.8,553.38,Single-ply,SBD,M
Boys,99.79,4,Kaleb Tompkins,Midlothian,97.98,199.58,124.74,197.31,521.63,Single-ply,SBD,M
Boys,99.79,5,Generraro Vital,Cleburne,90.9,201.85,124.74,172.37,498.95,Single-ply,SBD,M
Boys,99.79,6,Nick Pollard,Midlothian,99.7,174.63,124.74,183.7,483.08,Single-ply,SBD,M
Boys,109.77,1,Blake Edgington,Joshua,108.68,267.62,163.29,265.35,696.26,Single-ply,SBD,M
Boys,109.77,2,Tyler Massingill,Burleson,106.41,244.94,138.35,247.21,630.49,Single-ply,SBD,M
Boys,109.77,3,Joseph Chavez,Waxahachie,107.23,242.67,158.76,226.8,628.23,Single-ply,SBD,M
Boys,109.77,4,Ryan Patino,Burleson,104.87,204.12,122.47,192.78,519.36,Single-ply,SBD,M
Boys,109.77,5,Gabe Tatum,Burleson Centennial,105.69,179.17,102.06,183.7,464.93,Single-ply,SBD,M
Boys,124.74,1,Terrence Patterson,Burleson,124.19,226.8,158.76,247.21,632.76,Single-ply,SBD,M
Boys,124.74,2,Enrique Villanueva,Cleburne,120.66,258.55,129.27,195.04,582.87,Single-ply,SBD,M
Boys,124.74,3,Tyler Meksavanh,Burleson Centennial,123.92,222.26,140.61,215.46,578.33,Single-ply,SBD,M
Boys,124.74,4,Denton Ross,Waxahachie,121.65,233.6,129.27,210.92,573.79,Single-ply,SBD,M
Boys,124.74,5,Alejandro Moreno,Waxahachie,111.31,215.46,138.35,217.72,571.53,Single-ply,SBD,M
Boys,124.74,6,Daniel Davis,Burleson Centennial,123.56,190.51,120.2,208.65,519.36,Single-ply,SBD,M
Boys,124.74,7,Griffith Peatrowsky,Burleson Centennial,122.2,156.49,90.72,183.7,430.91,Single-ply,SBD,M
Boys,124.74,8,Aaron Siddall,Burleson Centennial,118.57,131.54,70.31,165.56,367.41,Single-ply,SBD,M
Boys,124.74,9,Darryn Kindles,Burleson Centennial,116.21,217.72,131.54,,349.27,Single-ply,SB,M
Boys,124.74,DQ,Jace Lowe,Cleburne,112.04,,,,,Single-ply,SBD,M
Boys,124.74+,1,Duane Johnson,Midlothian,134.17,247.21,181.44,238.14,666.78,Single-ply,SBD,M
Boys,124.74+,2,Marshal Hodges,Midlothian,128.82,238.14,158.76,233.6,630.49,Single-ply,SBD,M
Boys,124.74+,3,Josh Rangell,Cleburne,127.46,233.6,117.93,192.78,544.31,Single-ply,SBD,M
Boys,124.74+,4,Evan Baltazer,Burleson,135.71,210.92,111.13,215.46,537.51,Single-ply,SBD,M
Boys,124.74+,5,Thomas Ray,Midlothian,160.48,197.31,117.93,190.51,505.76,Single-ply,SBD,M
