Name,WeightClassKg,Sex,Division,Best3SquatKg,Best3BenchKg,Best3DeadliftKg,TotalKg,Event,Equipment,Place
S. Mikels,44,F,Open,82.5,40,97.5,220,SBD,Single-ply,1
C. Preschel,48,F,Open,122.5,42.5,117.5,282.5,SBD,Single-ply,1
T. Pery,48,F,Open,62.5,47.5,100,210,SBD,Single-ply,2
S. Barling,48,F,Open,55,25,72.5,152.5,SBD,Single-ply,3
C. Cokefair,48,F,Open,37.5,,,,SBD,Single-ply,DQ
D. Owens,52,F,Open,85,52.5,97.5,235,SBD,Single-ply,1
R. Mattingly,52,F,Open,75,37.5,112.5,225,SBD,Single-ply,2
C. Dickey,56,F,Open,87.5,45,125,257.5,SBD,Single-ply,1
C. Heckman,60,F,Open,135,65,150,350,SBD,Single-ply,1
P. Stevenson,60,F,Open,120,52.5,135,307.5,SBD,Single-ply,2
V. Perry,60,F,Open,117.5,55,125,297.5,SBD,Single-ply,3
Y. Heiser,67.5,F,Open,110,65,110,285,SBD,Single-ply,1
R. Tanny,75,F,Open,110,52.5,125,287.5,SBD,Single-ply,1
W. Burr,52,M,Novice,,,,,SBD,Single-ply,DQ
W. Unger,56,M,Novice,122.5,67.5,147.5,337.5,SBD,Single-ply,1
T. Davis,56,M,Novice,82.5,60,102.5,245,SBD,Single-ply,2
M. Seiter,60,M,Novice,137.5,115,180,432.5,SBD,Single-ply,1
R. Heoltn,60,M,Novice,127.5,97.5,182.5,407.5,SBD,Single-ply,2
M. Grimm,60,M,Novice,70,52.5,120,242.5,SBD,Single-ply,3
R. Brenner,67.5,M,Novice,185,105,187.5,477.5,SBD,Single-ply,1
R. Graham,67.5,M,Novice,165,130,182.5,477.5,SBD,Single-ply,2
B. Drewry,67.5,M,Novice,152.5,95,192.5,440,SBD,Single-ply,3
G. Koons,67.5,M,Novice,137.5,92.5,192.5,422.5,SBD,Single-ply,4
J. Henderson,67.5,M,Novice,137.5,97.5,185,420,SBD,Single-ply,5
D. Bloydes,67.5,M,Novice,107.5,90,157.5,355,SBD,Single-ply,6
M. Rigsby,67.5,M,Novice,115,92.5,137.5,345,SBD,Single-ply,7
B. Pettibone,67.5,M,Novice,92.5,55,137.5,285,SBD,Single-ply,8
J. Heaton,75,M,Novice,192.5,112.5,207.5,512.5,SBD,Single-ply,1
G. Neff,75,M,Novice,192.5,107.5,205,505,SBD,Single-ply,2
S. Retherford,75,M,Novice,182.5,102.5,217.5,502.5,SBD,Single-ply,3
B. Skinner,75,M,Novice,182.5,115,205,502.5,SBD,Single-ply,4
G. Ball,75,M,Novice,160,122.5,215,497.5,SBD,Single-ply,5
J. Ottney,75,M,Novice,182.5,120,192.5,495,SBD,Single-ply,6
R. Chabale,75,M,Novice,150,120,195,465,SBD,Single-ply,7
P. Lewis,75,M,Novice,160,110,192.5,462.5,SBD,Single-ply,8
S. Parker,75,M,Novice,127.5,100,195,422.5,SBD,Single-ply,9
S. Davis,75,M,Novice,125,107.5,175,407.5,SBD,Single-ply,10
J. Dreskell,82.5,M,Novice,205,140,240,585,SBD,Single-ply,1
Lester Doughty,82.5,M,Novice,210,130,227.5,567.5,SBD,Single-ply,2
R. Presswood,82.5,M,Novice,215,122.5,227.5,565,SBD,Single-ply,3
J. Worman,82.5,M,Novice,192.5,147.5,215,555,SBD,Single-ply,4
M. Velom,82.5,M,Novice,205,127.5,217.5,550,SBD,Single-ply,5
D. Johnson,82.5,M,Novice,192.5,117.5,222.5,532.5,SBD,Single-ply,6
J. Adams,82.5,M,Novice,170,147.5,182.5,500,SBD,Single-ply,7
M. Rigsby,82.5,M,Novice,167.5,122.5,192.5,482.5,SBD,Single-ply,8
J. Christopher,82.5,M,Novice,147.5,117.5,210,475,SBD,Single-ply,9
W. Mann,82.5,M,Novice,165,92.5,190,447.5,SBD,Single-ply,10
T. DeLong,90,M,Novice,232.5,142.5,240,615,SBD,Single-ply,1
M. Watkins,90,M,Novice,215,165,225,605,SBD,Single-ply,2
S. Israel,90,M,Novice,200,147.5,242.5,590,SBD,Single-ply,3
D. Harrison,90,M,Novice,230,132.5,210,572.5,SBD,Single-ply,4
T. Shreder,90,M,Novice,207.5,122.5,227.5,557.5,SBD,Single-ply,5
T. Reynolds,90,M,Novice,192.5,127.5,217.5,537.5,SBD,Single-ply,6
M. Marr,90,M,Novice,147.5,175,205,527.5,SBD,Single-ply,7
J. White,90,M,Novice,170,122.5,227.5,520,SBD,Single-ply,8
M. Herring,90,M,Novice,185,110,210,505,SBD,Single-ply,9
T. Meinberg,100,M,Novice,222.5,170,270,662.5,SBD,Single-ply,1
C. Carroll,100,M,Novice,245,167.5,237.5,650,SBD,Single-ply,2
J. Spicer,100,M,Novice,225,155,252.5,632.5,SBD,Single-ply,3
T. Dreschel,100,M,Novice,235,145,240,620,SBD,Single-ply,4
L. Caporalette,100,M,Novice,217.5,142.5,247.5,607.5,SBD,Single-ply,5
R. Price,100,M,Novice,215,135,210,560,SBD,Single-ply,6
A. Lalcom,100,M,Novice,170,137.5,250,557.5,SBD,Single-ply,7
F. Finney,100,M,Novice,205,145,205,555,SBD,Single-ply,8
V. Imhoff,100,M,Novice,205,125,222.5,552.5,SBD,Single-ply,9
L. Brunner,100,M,Novice,182.5,142.5,215,540,SBD,Single-ply,10
E. Lytle,100,M,Novice,165,100,157.5,422.5,SBD,Single-ply,11
J. Statton,100,M,Novice,102.5,192.5,102.5,397.5,SBD,Single-ply,12
C. Longo,110,M,Novice,275,172.5,280,727.5,SBD,Single-ply,1
J. Schipper,110,M,Novice,250,187.5,235,672.5,SBD,Single-ply,2
W. Wadsworth,110,M,Novice,227.5,152.5,250,630,SBD,Single-ply,3
F. Prete,110,M,Novice,210,137.5,272.5,620,SBD,Single-ply,4
J. Williams,110,M,Novice,200,170,230,600,SBD,Single-ply,5
P. Miles,110,M,Novice,210,147.5,215,572.5,SBD,Single-ply,6
K. Noffsinger,110,M,Novice,195,102.5,230,527.5,SBD,Single-ply,7
W. Unger,56,M,Open,122.5,67.5,147.5,337.5,SBD,Single-ply,1
Frank Navarre,60,M,Open,175,125,190,490,SBD,Single-ply,1
R. Holt,60,M,Open,127.5,97.5,182.5,407.5,SBD,Single-ply,2
M. Wader,67.5,M,Open,182.5,115,225,522.5,SBD,Single-ply,1
D. Engle,67.5,M,Open,170,135,215,520,SBD,Single-ply,2
B. Drewry,67.5,M,Open,152.5,95,192.5,440,SBD,Single-ply,3
D. Eckelman,67.5,M,Open,112.5,67.5,157.5,337.5,SBD,Single-ply,4
John Topsoglou,75,M,Open,275,65,297.5,637.5,SBD,Single-ply,1
T. Riedel,75,M,Open,232.5,122.5,252.5,607.5,SBD,Single-ply,2
E. Burkett,75,M,Open,215,132.5,227.5,575,SBD,Single-ply,3
R. Kahl,75,M,Open,205,137.5,230,572.5,SBD,Single-ply,4
R. Taylor,75,M,Open,200,130,220,550,SBD,Single-ply,5
S. Rector,75,M,Open,187.5,140,215,542.5,SBD,Single-ply,6
J. Heaton,75,M,Open,192.5,112.5,207.5,512.5,SBD,Single-ply,7
G. Nett,75,M,Open,192.5,107.5,205,505,SBD,Single-ply,8
S. Parker,75,M,Open,127.5,100,195,422.5,SBD,Single-ply,9
C. Bulloch,82.5,M,Open,237.5,135,275,647.5,SBD,Single-ply,1
J. Coby,82.5,M,Open,227.5,152.5,255,635,SBD,Single-ply,2
F. Barosky,82.5,M,Open,205,140,250,595,SBD,Single-ply,3
T. Pacifico,82.5,M,Open,245,117.5,227.5,590,SBD,Single-ply,4
R. Watkins,82.5,M,Open,227.5,120,240,587.5,SBD,Single-ply,5
J. Driskill,82.5,M,Open,205,140,240,585,SBD,Single-ply,6
R. Presswood,82.5,M,Open,215,122.5,227.5,565,SBD,Single-ply,7
J. Wells,82.5,M,Open,215,165,182.5,562.5,SBD,Single-ply,8
J. Warman,82.5,M,Open,192.5,147.5,215,555,SBD,Single-ply,9
W. Mann,82.5,M,Open,165,92.5,190,447.5,SBD,Single-ply,10
M. Capasso,90,M,Open,295,180,320,795,SBD,Single-ply,1
M. Watkins,90,M,Open,250,130,265,645,SBD,Single-ply,2
J. Conner,90,M,Open,227.5,145,230,602.5,SBD,Single-ply,3
Jack Sideris,100,M,Open,362.5,225,322.5,910,SBD,Single-ply,1
J. Betzel,100,M,Open,315,202.5,315,832.5,SBD,Single-ply,2
Gary Burch,100,M,Open,297.5,195,275,767.5,SBD,Single-ply,3
B. Russel,100,M,Open,275,160,322.5,757.5,SBD,Single-ply,4
T. Kunkel,100,M,Open,290,150,305,745,SBD,Single-ply,5
L. Coporalette,100,M,Open,217.5,142.5,247.5,607.5,SBD,Single-ply,6
Dave Schneider,110,M,Open,377.5,200,370,947.5,SBD,Single-ply,1
Mark Chaillet,110,M,Open,350,215,365,930,SBD,Single-ply,2
T. Chompson,110,M,Open,320,197.5,320,837.5,SBD,Single-ply,3
C. Longo,110,M,Open,275,172.5,280,727.5,SBD,Single-ply,4
Dave Waddington,125,M,Open,377.5,222.5,332.5,932.5,SBD,Single-ply,1
T. Martin,125,M,Open,342.5,220,300,862.5,SBD,Single-ply,2
J. Bruch,125,M,Open,280,172.5,317.5,770,SBD,Single-ply,3
K. Akins,125+,M,Open,302.5,227.5,315,845,SBD,Single-ply,1
