Name,CyrillicName,WeightClassKg,Tested,Event,Equipment,Sex,Division,BirthDate,BodyweightKg,Squat1Kg,Squat2Kg,Squat3Kg,Best3SquatKg,Squat4Kg,Bench1Kg,Bench2Kg,Bench3Kg,Best3BenchKg,Bench4Kg,Deadlift1Kg,Deadlift2Kg,Deadlift3Kg,Best3DeadliftKg,Deadlift4Kg,TotalKg,Place
Natalya Blinkova,Наталья Блинкова,52,Yes,D,Single-ply,F,O,1991-03-20,52,,,,,,,,,,,142.5,147.5,-165,147.5,,147.5,1
Irina Konoreva,Ирина Конорева,60,Yes,D,Single-ply,F,O,1988-01-29,59.85,,,,,,,,,,,135,142.5,-162.5,142.5,,142.5,2
Roman Korshunov,Роман Коршунов,67.5,Yes,D,Single-ply,M,O,1980-09-03,66.6,,,,,,,,,,,135,-150,150,150,,150,1
Vladimir Kulakov,Владимир Кулаков,75,Yes,D,Single-ply,M,O,1955-12-24,75,,,,,,,,,,,120,,,120,,120,1
Vladimir Kulakov,Владимир Кулаков,75,Yes,D,Single-ply,M,M (55 - 59),1955-12-24,75,,,,,,,,,,,120,,,120,,120,1
Vladislav Sannikov,Владислав Санников,82.5,Yes,D,Single-ply,M,M (70 - 74),1938-05-16,79.1,,,,,,,,,,,120,130,137.5,137.5,,137.5,1
Sergey Larionov,Сергей Ларионов,90,Yes,D,Single-ply,M,O,1975-05-14,89.9,,,,,,,,,,,-255,255,260,260,,260,2
Ivan Avramenko,Иван Авраменко,100,Yes,D,Single-ply,M,O,1988-03-24,96.6,,,,,,,,,,,235,255,-262.5,255,,255,2
Viktoriya Yultsova,Виктория Юльцова,44,Yes,B,Raw,F,T (13-15),2002-04-06,40,,,,,,32.5,35,37.5,37.5,,,,,,,37.5,1
Yulia Medvedeva,Юлия Медведева,44,Yes,B,Raw,F,T (13-15),2002-02-27,40,,,,,,20,-22.5,,20,,,,,,,20,2
Liliya Volkova,Лилия Волкова,44,Yes,B,Raw,F,O,1979-09-22,43.95,,,,,,32.5,37.5,-40,37.5,,,,,,,37.5,2
Yuliya Syomina,Юлия Сёмина,48,Yes,B,Raw,F,T (16-17),1994-12-11,47.7,,,,,,40,45,-47.5,45,,,,,,,45,1
Natalya Marieva,Наталья Мариева,48,Yes,B,Raw,F,M (40 - 44),1968-11-04,47.2,,,,,,52.5,-55,-55,52.5,,,,,,,52.5,1
Natalya Blinkova,Наталья Блинкова,52,Yes,B,Raw,F,J (20 - 23),1991-03-20,52,,,,,,62.5,-67.5,67.5,67.5,,,,,,,67.5,1
Galina Popova,Галина Попова,52,Yes,B,Raw,F,J (20 - 23),1991-10-19,52,,,,,,45,47.5,50,50,,,,,,,50,2
Ekaterina Konovalova,Екатерина Коновалова,52,Yes,B,Raw,F,O,1986-05-04,52,,,,,,67.5,70,-72.5,70,,,,,,,70,1
Anna Vinogradova,Анна Виноградова,52,Yes,B,Raw,F,O,1985-10-09,51.65,,,,,,-57.5,-57.5,57.5,57.5,,,,,,,57.5,2
Lyudmila Mikhalyova,Людмила Михалёва,52,Yes,B,Raw,F,O,1979-12-15,51.9,,,,,,45,50,-52.5,50,,,,,,,50,3
Ekaterina Ilinskaya,Екатерина Ильинская,56,Yes,B,Raw,F,J (20 - 23),1988-12-04,54.75,,,,,,-52.5,55,57.5,57.5,,,,,,,57.5,1
Aleksandra Sovkova,Александра Совкова,56,Yes,B,Raw,F,J (20 - 23),1988-11-25,56,,,,,,47.5,50,-55,50,,,,,,,50,2
Elena Vyazovetskova,Елена Вязовецкова,56,Yes,B,Raw,F,J (20 - 23),1989-08-22,55,,,,,,37.5,40,-42.5,40,,,,,,,40,3
Yuliya Tarasova,Юлия Тарасова,56,Yes,B,Raw,F,O,1973-09-12,56,,,,,,70,72.5,75,75,,,,,,,75,1
Nadezhda Vlasova,Надежда Власова,56,Yes,B,Raw,F,O,1982-01-24,55.05,,,,,,62.5,-67.5,67.5,67.5,,,,,,,67.5,2
Ekaterina Cherdakova,Екатерина Чердакова,56,Yes,B,Raw,F,O,1983-08-24,52.9,,,,,,57.5,62.5,-65,62.5,,,,,,,62.5,3
Svetlana Kladovshchikova,Светлана Кладовщикова,56,Yes,B,Raw,F,O,1982-04-18,55,,,,,,50,55,-57.5,55,,,,,,,55,4
Nataliya Zagrebina,Наталия Загребина,56,Yes,B,Raw,F,O,1977-10-29,56,,,,,,55,-60,-62.5,55,,,,,,,55,5
Anastasiya Mayboroda,Анастасия Майборода,56,Yes,B,Raw,F,O,1987-10-28,55.4,,,,,,-42.5,45,-50,45,,,,,,,45,6
Elena Dymova,Елена Дымова,56,Yes,B,Raw,F,M (40 - 44),1971-12-04,54.75,,,,,,47.5,-55,-55,47.5,,,,,,,47.5,1
Galina Isaykina,Галина Исайкина,56,Yes,B,Raw,F,M (45 - 49),1967-03-18,54.2,,,,,,42.5,45,-47.5,45,,,,,,,45,1
Olga Timoshchenko,Ольга Тимощенко,60,Yes,B,Raw,F,O,1985-12-12,59.6,,,,,,52.5,-55,-55,52.5,,,,,,,52.5,1
Mariyam Bidzhieva,Мариям Биджиева,60,Yes,B,Raw,F,O,1982-12-23,56.55,,,,,,45,50,-57.5,50,,,,,,,50,2
Galina Kondrateva,Галина Кондратьева,60,Yes,B,Raw,F,M (60 - 64),1952-02-06,58.2,,,,,,42.5,45,-47.5,45,,,,,,,45,1
Yuliya Shvedova-Viardo,Юлия Шведова-Виардо,75,Yes,B,Raw,F,O,1984-09-07,69.9,,,,,,82.5,87.5,90,90,-92.5,,,,,,90,1
Svetlana Sotnikova,Светлана Сотникова,75,Yes,B,Raw,F,O,1983-01-30,72.65,,,,,,65,70,72.5,72.5,,,,,,,72.5,2
Elena Galkina,Елена Галкина,75,Yes,B,Raw,F,O,1978-08-14,72.1,,,,,,60,62.5,-65,62.5,,,,,,,62.5,3
Nina Biryukova,Нина Бирюкова,75,Yes,B,Raw,F,M (40 - 44),1971-06-05,75,,,,,,72.5,77.5,80,80,,,,,,,80,1
Yaroslava Polyanina,Ярослава Полянина,90+,Yes,B,Raw,F,J (20 - 23),1988-10-04,94.8,,,,,,50,52.5,55,55,,,,,,,55,1
Erin Shel-Fetengof,Эрин Шель-Фетенгоф,90+,Yes,B,Raw,F,O,1983-05-01,112.3,,,,,,110,115,-120,115,,,,,,,115,1
Vladislav Shchetinkin,Владислав Щетинкин,52,Yes,B,Raw,M,T (13-15),1997-07-11,51.45,,,,,,-65,-70,-70,,,,,,,,,DQ
Kirill Dmitriev,Кирилл Дмитриев,52,Yes,B,Raw,M,O,1981-04-20,50.7,,,,,,77.5,82.5,-85,82.5,,,,,,,82.5,1
Sergey Strelnikov,Сергей Стрельников,56,Yes,B,Raw,M,O,1986-01-02,55.95,,,,,,-72.5,80,-90,80,,,,,,,80,1
Ivan Timofeev,Иван Тимофеев,60,Yes,B,Raw,M,T (13-15),1996-09-05,59.95,,,,,,-77.5,-80,80,80,,,,,,,80,1
Vyacheslav Meshkov,Вячеслав Мешков,60,Yes,B,Raw,M,T (16-17),1995-07-25,57,,,,,,90,-95,95,95,,,,,,,95,1
Bogdan Lolin,Богдан Лолин,60,Yes,B,Raw,M,T (16-17),1995-12-25,58.95,,,,,,-97.5,-102.5,-102.5,,,,,,,,,DQ
Andrey Zhdanov,Андрей Жданов,60,Yes,B,Raw,M,T (18 - 19),1992-07-30,59.15,,,,,,-90,-90,-90,,,,,,,,,DQ
Vitaliy Penkov,Виталий Пеньков,60,Yes,B,Raw,M,J (20 - 23),1992-04-23,58.55,,,,,,-70,70,77.5,77.5,,,,,,,77.5,1
Sergey Karaziya,Сергей Каразия,60,Yes,B,Raw,M,O,1987-11-30,59,,,,,,147.5,152.5,-155,152.5,,,,,,,152.5,1
Aleksey Shchipanov,Алексей Щипанов,60,Yes,B,Raw,M,O,1980-06-04,59.8,,,,,,112.5,115,117.5,117.5,,,,,,,117.5,2
Igor Smirnov,Игорь Смирнов,60,Yes,B,Raw,M,O,1974-02-21,59.8,,,,,,-110,112.5,-120,112.5,,,,,,,112.5,3
Roman Kobyshev,Роман Кобышев,60,Yes,B,Raw,M,O,1986-09-30,56.75,,,,,,97.5,107.5,-112.5,107.5,,,,,,,107.5,4
Vladislav Kostenko,Владислав Костенко,67.5,Yes,B,Raw,M,T (13-15),1998-09-22,63.1,,,,,,-75,-75,-75,,,,,,,,,DQ
Timur Vasilchenko,Тимур Васильченко,67.5,Yes,B,Raw,M,T (16-17),1995-12-07,62.15,,,,,,-97.5,97.5,-102.5,97.5,,,,,,,97.5,1
Roman Zhirnov,Роман Жирнов,67.5,Yes,B,Raw,M,T (16-17),1995-09-01,65.15,,,,,,90,-92.5,-92.5,90,,,,,,,90,2
Denis Simanovskiy,Денис Симановский,67.5,Yes,B,Raw,M,T (18 - 19),1993-07-05,64.7,,,,,,-115,-115,-115,,,,,,,,,DQ
Pavel Kurenkov,Павел Куренков,67.5,Yes,B,Raw,M,T (18 - 19),1992-06-11,66.75,,,,,,-107.5,-107.5,-107.5,,,,,,,,,DQ
Evgeniy Zhitomirskiy,Евгений Житомирский,67.5,Yes,B,Raw,M,J (20 - 23),1992-04-11,63.75,,,,,,132.5,135.5,137.5,137.5,-142.5,,,,,,137.5,1
Mikhail Sizov,Михаил Сизов,67.5,Yes,B,Raw,M,J (20 - 23),1989-04-20,66.9,,,,,,125,135,137.5,137.5,,,,,,,137.5,2
Nikita Samokhvalov,Никита Самохвалов,67.5,Yes,B,Raw,M,J (20 - 23),1988-08-11,62.65,,,,,,-122.5,122.5,127.5,127.5,,,,,,,127.5,3
Maksim Ibragimov,Максим Ибрагимов,67.5,Yes,B,Raw,M,J (20 - 23),1989-04-30,67.2,,,,,,-115,122.5,125,125,,,,,,,125,4
Roman Khalaydzhi,Роман Халайджи,67.5,Yes,B,Raw,M,J (20 - 23),1990-05-14,67.2,,,,,,115,120,-125,120,,,,,,,120,5
Sergey Ivanov,Сергей Иванов,67.5,Yes,B,Raw,M,J (20 - 23),1989-04-28,66.45,,,,,,107.5,112.5,-117.5,112.5,,,,,,,112.5,6
Maksim Rudakov,Максим Рудаков,67.5,Yes,B,Raw,M,J (20 - 23),1991-03-12,65.95,,,,,,105,110,-112.5,110,,,,,,,110,7
Viktor Mychko,Виктор Мычко,67.5,Yes,B,Raw,M,O,1984-10-04,67.5,,,,,,140,145,150,150,152.5,,,,,,150,1
Sergey Galitskiy,Сергей Галицкий,67.5,Yes,B,Raw,M,O,1987-03-12,66.2,,,,,,137.5,142.5,-150,142.5,,,,,,,142.5,2
Maksim Lyubyatinskiy,Максим Любятинский,67.5,Yes,B,Raw,M,O,1985-12-10,67.3,,,,,,-142.5,142.5,-150,142.5,,,,,,,142.5,3
Maksim Ibraev,Максим Ибраев,67.5,Yes,B,Raw,M,O,1987-09-29,66.7,,,,,,130,-132.5,132.5,132.5,,,,,,,132.5,4
Vadim Krasnov,Вадим Краснов,67.5,Yes,B,Raw,M,O,1978-05-23,65,,,,,,125,130,-135,130,,,,,,,130,5
Andrey Zhilin,Андрей Жилин,67.5,Yes,B,Raw,M,O,1980-04-05,67.1,,,,,,120,125,-127.5,125,,,,,,,125,6
Aleksey Lazarev,Алексей Лазарев,67.5,Yes,B,Raw,M,O,1987-02-12,66.25,,,,,,105,107.5,110,110,,,,,,,110,7
Nikolay Prokaev,Николай Прокаев,67.5,Yes,B,Raw,M,O,1987-06-17,63.45,,,,,,90,100,-107.5,100,,,,,,,100,8
Artem Bezzubkin,Артем Беззубкин,67.5,Yes,B,Raw,M,O,1994-09-06,66.8,,,,,,90,100,-107.5,100,,,,,,,100,9
Roman Petrakov,Роман Петраков,67.5,Yes,B,Raw,M,O,1981-06-13,67.3,,,,,,-135,-140,-140,,,,,,,,,DQ
Dmitriy Bykovskiy,Дмитрий Быковский,67.5,Yes,B,Raw,M,O,1987-07-09,67.5,,,,,,-115,-125,,,,,,,,,,DQ
Aleksey Shalunov,Алексей Шалунов,67.5,Yes,B,Raw,M,M (40 - 44),1969-07-24,66.25,,,,,,107.5,112.5,-115,112.5,,,,,,,112.5,1
Sergey Nefyodov,Сергей Нефёдов,67.5,Yes,B,Raw,M,M (45 - 49),1966-04-04,65.25,,,,,,-110,115,-117.5,115,,,,,,,115,1
Georgiy Dubrovin,Георгий Дубровин,75,Yes,B,Raw,M,T (13-15),1997-11-12,68.5,,,,,,100,-105,105,105,,,,,,,105,1
Ivan Shtoda,Иван Штода,75,Yes,B,Raw,M,T (13-15),1997-01-29,73.55,,,,,,-72.5,-77.5,-77.5,,,,,,,,,DQ
Maksim Maleev,Максим Малеев,75,Yes,B,Raw,M,T (16-17),1994-10-22,69.45,,,,,,-117.5,-117.5,117.5,117.5,,,,,,,117.5,1
Kirill Lukyanov,Кирилл Лукьянов,75,Yes,B,Raw,M,T (16-17),1995-03-03,71.2,,,,,,80,-85,-85,80,,,,,,,80,2
Vladimir Yushin,Владимир Юшин,75,Yes,B,Raw,M,T (18 - 19),1993-06-16,69.4,,,,,,92.5,97.5,-100,97.5,,,,,,,97.5,1
Ilya Lefterov,Илья Лефтеров,75,Yes,B,Raw,M,T (18 - 19),1993-07-28,74.1,,,,,,95,-105,-105,95,,,,,,,95,2
Sergey Denisov,Сергей Денисов,75,Yes,B,Raw,M,J (20 - 23),1988-10-25,70.5,,,,,,155,-160,-160,155,,,,,,,155,1
Sergey Samsonov,Сергей Самсонов,75,Yes,B,Raw,M,J (20 - 23),1989-01-27,73.7,,,,,,135,155,-157.5,155,,,,,,,155,2
Artem Alekseev,Артем Алексеев,75,Yes,B,Raw,M,J (20 - 23),1990-06-29,69.6,,,,,,135,-140,-140,135,,,,,,,135,4
Vladimir Glyuza,Владимир Глюза,75,Yes,B,Raw,M,J (20 - 23),1990-12-17,74,,,,,,117.5,135,,135,,,,,,,135,5
Daur Khmelev,Даур Хмелев,75,Yes,B,Raw,M,J (20 - 23),1988-11-07,74.55,,,,,,120,135,-137.5,135,,,,,,,135,6
Vladimir Yusimov,Владимир Юсимов,75,Yes,B,Raw,M,J (20 - 23),1991-03-28,74.55,,,,,,130,135,-137.5,135,,,,,,,135,7
Sergey Shchukin,Сергей Щукин,75,Yes,B,Raw,M,J (20 - 23),1988-12-01,70.85,,,,,,130,-135,-135,130,,,,,,,130,8
Stanislav Konin,Станислав Конин,75,Yes,B,Raw,M,J (20 - 23),1988-11-19,73.95,,,,,,117.5,122.5,-125,122.5,,,,,,,122.5,11
Sergey Parshikov,Сергей Паршиков,75,Yes,B,Raw,M,J (20 - 23),1990-10-03,74.45,,,,,,105,117.5,-120,117.5,,,,,,,117.5,12
Egor Lintvaryov,Егор Линтварёв,75,Yes,B,Raw,M,J (20 - 23),1990-04-19,72.4,,,,,,-115,115,-117.5,115,,,,,,,115,13
Igor Pyltsin,Игорь Пыльцин,75,Yes,B,Raw,M,J (20 - 23),1992-02-25,74.25,,,,,,-117.5,-117.5,-117.5,,,,,,,,,DQ
Andrey Razumov,Андрей Разумов,75,Yes,B,Raw,M,O,1984-11-29,73.65,,,,,,145,155,160,160,,,,,,,160,2
Andrey Petrov,Андрей Петров,75,Yes,B,Raw,M,O,1979-10-14,74.1,,,,,,140,145,150,150,,,,,,,150,6
Aleksey Roslovets,Алексей Рословец,75,Yes,B,Raw,M,O,1977-09-23,74.45,,,,,,140,145,-147.5,145,,,,,,,145,7
Denis Agafonov,Денис Агафонов,75,Yes,B,Raw,M,O,1978-07-30,73.15,,,,,,135,142.5,-145,142.5,,,,,,,142.5,8
Aleksandr Sereda,Александр Середа,75,Yes,B,Raw,M,O,1988-02-19,71.05,,,,,,140,-145,,140,,,,,,,140,9
Vadim Shamsutdinov,Вадим Шамсутдинов,75,Yes,B,Raw,M,O,1987-01-01,74.4,,,,,,135,140,,140,,,,,,,140,10
Vladimir Shamsutdinov,Владимир Шамсутдинов,75,Yes,B,Raw,M,O,1987-01-01,69.95,,,,,,135,-145,-147.5,135,,,,,,,135,12
Pervin Ismailov,Первин Исмаилов,75,Yes,B,Raw,M,O,1986-04-19,71.85,,,,,,117.5,125,135,135,,,,,,,135,13
Sergey Nikitchenko,Сергей Никитченко,75,Yes,B,Raw,M,O,1978-09-10,73.25,,,,,,130,-135,135,135,,,,,,,135,14
Oleg Malinovskiy,Олег Малиновский,75,Yes,B,Raw,M,O,1986-09-17,73.5,,,,,,117.5,122.5,127.5,127.5,,,,,,,127.5,15
Anton Gorshkov,Антон Горшков,75,Yes,B,Raw,M,O,1988-03-25,69.45,,,,,,117.5,122.5,125,125,,,,,,,125,16
Sergey Tsoy,Сергей Цой,75,Yes,B,Raw,M,O,1987-09-18,74.1,,,,,,125,-130,,125,,,,,,,125,17
Sergey Bazyuk,Сергей Базюк,75,Yes,B,Raw,M,O,1985-11-05,72.95,,,,,,-115,115,120,120,,,,,,,120,18
Artyom Taran,Артём Таран,75,Yes,B,Raw,M,O,1985-01-29,73.15,,,,,,117.5,120,-122.5,120,,,,,,,120,19
Sergey Lyashchenko,Сергей Лященко,75,Yes,B,Raw,M,O,1986-04-14,69.9,,,,,,100,117.5,-120,117.5,,,,,,,117.5,20
Stepan Abasov,Степан Абасов,75,Yes,B,Raw,M,O,1985-11-29,73.5,,,,,,117.5,-125,-125,117.5,,,,,,,117.5,21
Aleksey Vatomov,Алексей Ватомов,75,Yes,B,Raw,M,O,1984-01-04,74.85,,,,,,112.5,-117.5,-117.5,112.5,,,,,,,112.5,22
Viktor Markitantov,Виктор Маркитантов,75,Yes,B,Raw,M,O,1988-05-07,68.1,,,,,,95,100,-105,100,,,,,,,100,23
Semen Shalaev,Семен Шалаев,75,Yes,B,Raw,M,O,1989-05-01,73.3,,,,,,90,-95,-100,90,,,,,,,90,24
Sergey Zuykov,Сергей Зуйков,75,Yes,B,Raw,M,M (40 - 44),1970-03-10,72.5,,,,,,-140,140,150,150,,,,,,,150,2
Yuriy Volkov,Юрий Волков,75,Yes,B,Raw,M,M (40 - 44),1972-04-01,75,,,,,,115,117.5,120,120,,,,,,,120,3
Gennadiy Nesterov,Геннадий Нестеров,75,Yes,B,Raw,M,M (40 - 44),1970-06-04,72.2,,,,,,100,-107.5,-115,100,,,,,,,100,4
Sergey Polikarpov,Сергей Поликарпов,75,Yes,B,Raw,M,M (45 - 49),1965-03-27,72.9,,,,,,105,-107.5,107.5,107.5,,,,,,,107.5,1
Vladimir Kulakov,Владимир Кулаков,75,Yes,B,Raw,M,M (55 - 59),1955-12-24,75,,,,,,92.5,97.5,100,100,,,,,,,100,1
Aleksandr Boldinov,Александр Болдинов,82.5,Yes,B,Raw,M,T (18 - 19),1992-10-17,78.95,,,,,,-140,140,-145,140,,,,,,,140,2
Artem Kozlov,Артем Козлов,82.5,Yes,B,Raw,M,T (18 - 19),1994-05-04,81.3,,,,,,-110,-110,-110,,,,,,,,,DQ
Roman Miroshnichenko,Роман Мирошниченко,82.5,Yes,B,Raw,M,T (18 - 19),1994-05-02,82.15,,,,,,-127.5,-130,,,,,,,,,,DQ
Kirill Ovchinnikov,Кирилл Овчинников,82.5,Yes,B,Raw,M,J (20 - 23),1989-06-01,80.8,,,,,,145,155,-162.5,155,,,,,,,155,1
Evgeniy Guryanov,Евгений Гурьянов,82.5,Yes,B,Raw,M,J (20 - 23),1989-02-11,79.95,,,,,,140,145,150,150,,,,,,,150,3
Dmitriy Shvetsov,Дмитрий Швецов,82.5,Yes,B,Raw,M,J (20 - 23),1988-12-14,80,,,,,,145,-150,-150,145,,,,,,,145,4
Artyom Chizhevskiy,Артём Чижевский,82.5,Yes,B,Raw,M,J (20 - 23),1988-08-04,82.5,,,,,,130,-140,-145,130,,,,,,,130,5
Dmitriy Pavlov,Дмитрий Павлов,82.5,Yes,B,Raw,M,J (20 - 23),1991-11-15,79.3,,,,,,127.5,-130,-130,127.5,,,,,,,127.5,6
Anton Machekhin,Антон Мачехин,82.5,Yes,B,Raw,M,J (20 - 23),1991-06-25,80.95,,,,,,120,-127.5,127.5,127.5,,,,,,,127.5,7
Solis Lopes,Солис Лопес,82.5,Yes,B,Raw,M,J (20 - 23),1990-12-06,81.25,,,,,,127.5,-132.5,-135,127.5,,,,,,,127.5,8
Evgeniy Mereutsa,Евгений Мереуца,82.5,Yes,B,Raw,M,J (20 - 23),1990-07-19,79.4,,,,,,112.5,-117.5,-117.5,112.5,,,,,,,112.5,9
Vyacheslav Surov,Вячеслав Суров,82.5,Yes,B,Raw,M,J (20 - 23),1990-06-30,82.4,,,,,,100,105,112.5,112.5,,,,,,,112.5,10
Aleksandr Dormidontov,Александр Дормидонтов,82.5,Yes,B,Raw,M,J (20 - 23),1989-04-21,79.9,,,,,,87.5,92.5,-95,92.5,,,,,,,92.5,11
Evgeniy Shirokov,Евгений Широков,82.5,Yes,B,Raw,M,J (20 - 23),1989-10-09,78.35,,,,,,-145,-145,-145,,,,,,,,,DQ
Vladimir Shchegolkov,Владимир Щегольков,82.5,Yes,B,Raw,M,O,1973-01-22,80.5,,,,,,160,167.5,172.5,172.5,,,,,,,172.5,2
Aleksandr Drosin,Александр Дросин,82.5,Yes,B,Raw,M,O,1982-02-21,81.3,,,,,,165,170,-175,170,,,,,,,170,3
Denis Nemchinov,Денис Немчинов,82.5,Yes,B,Raw,M,O,1987-11-09,80.9,,,,,,-160,160,167.5,167.5,,,,,,,167.5,5
Aleksandr Olisov,Александр Олисов,82.5,Yes,B,Raw,M,O,1982-06-19,81.4,,,,,,152.5,155,157.5,157.5,,,,,,,157.5,6
Roman Malysh,Роман Малыш,82.5,Yes,B,Raw,M,O,1975-09-22,81.05,,,,,,145,150,152.5,152.5,,,,,,,152.5,8
Vyacheslav Novikov,Вячеслав Новиков,82.5,Yes,B,Raw,M,O,1985-11-01,81.2,,,,,,140,145,150,150,,,,,,,150,9
Ilya Fisenko,Илья Фисенко,82.5,Yes,B,Raw,M,O,1987-03-01,79.95,,,,,,-145,-145,145,145,,,,,,,145,11
Marat Bakayan,Марат Бакаян,82.5,Yes,B,Raw,M,O,1983-01-01,81.1,,,,,,127.5,135,145,145,,,,,,,145,12
Aleksey Davydov,Алексей Давыдов,82.5,Yes,B,Raw,M,O,1984-09-15,78.9,,,,,,125,-130,130,130,,,,,,,130,13
Viktor Arapov,Виктор Арапов,82.5,Yes,B,Raw,M,O,1987-02-17,80.85,,,,,,130,-137.5,-145,130,,,,,,,130,14
Sergey Komkov,Сергей Комков,82.5,Yes,B,Raw,M,O,1987-06-12,80.55,,,,,,120,-125,125,125,,,,,,,125,16
Ayvaz Shafigullin,Айваз Шафигуллин,82.5,Yes,B,Raw,M,O,1983-12-01,78,,,,,,-120,-127.5,-127.5,,,,,,,,,DQ
Grigoriy Kirdyashkin,Григорий Кирдяшкин,82.5,Yes,B,Raw,M,O,1988-05-07,78.9,,,,,,-120,-127.5,-127.5,,,,,,,,,DQ
Evgeniy Marchenkov,Евгений Марченков,82.5,Yes,B,Raw,M,O,1987-02-28,81.85,,,,,,-127.5,-130,-130,,,,,,,,,DQ
Ilya Timofeev,Илья Тимофеев,82.5,Yes,B,Raw,M,M (40 - 44),1970-01-05,81.05,,,,,,135,-145,-145,135,,,,,,,135,2
Andrey Gilyov,Андрей Гилёв,82.5,Yes,B,Raw,M,M (40 - 44),1967-07-11,77.05,,,,,,100,105,-110,105,,,,,,,105,3
Vladimir Kobets,Владимир Кобец,82.5,Yes,B,Raw,M,M (45 - 49),1966-07-26,77.9,,,,,,107.5,110,-112.5,110,,,,,,,110,1
Anatoliy Fokin,Анатолий Фокин,82.5,Yes,B,Raw,M,M (50 - 54),1962-03-01,78.2,,,,,,-125,127.5,-130,127.5,,,,,,,127.5,1
Igor Kovalev,Игорь Ковалев,82.5,Yes,B,Raw,M,M (55 - 59),1957-04-08,77.45,,,,,,140,147.5,-150,147.5,,,,,,,147.5,1
Evgeniy Zhurkin,Евгений Журкин,82.5,Yes,B,Raw,M,M (65 - 69),1945-02-13,81.75,,,,,,85,90,-95,90,,,,,,,90,1
Vladislav Sannikov,Владислав Санников,82.5,Yes,B,Raw,M,M (70 - 74),1938-05-16,79.95,,,,,,85,90,92.5,92.5,,,,,,,92.5,1
Nikolay Shunkin,Николай Шункин,82.5,Yes,B,Raw,M,M (80up),1931-12-01,79.7,,,,,,97.5,-102.5,-102.5,97.5,,,,,,,97.5,1
Anton Egorov,Антон Егоров,90,Yes,B,Raw,M,T (16-17),1996-04-07,90,,,,,,102.5,-107.5,-107.5,102.5,,,,,,,102.5,1
Andrey Zyabrin,Андрей Зябрин,90,Yes,B,Raw,M,T (18 - 19),1994-04-13,89.8,,,,,,162.5,-167.5,-167.5,162.5,,,,,,,162.5,1
Ivan Akimkin,Иван Акимкин,90,Yes,B,Raw,M,J (20 - 23),1988-11-23,84.5,,,,,,180,185,-190.5,185,,,,,,,185,1
Yuriy Chistyakov,Юрий Чистяков,90,Yes,B,Raw,M,J (20 - 23),1988-11-12,89.7,,,,,,-160,160,-162.5,160,,,,,,,160,2
Igor Natsibulin,Игорь Нацибулин,90,Yes,B,Raw,M,J (20 - 23),1991-01-24,90,,,,,,145,152.5,160,160,,,,,,,160,3
Ilya Agapov,Илья Агапов,90,Yes,B,Raw,M,J (20 - 23),1992-05-17,90,,,,,,-147.5,147.5,152.5,152.5,,,,,,,152.5,4
Aleksey Trofimov,Алексей Трофимов,90,Yes,B,Raw,M,J (20 - 23),1989-07-24,86.65,,,,,,132.5,137.5,142.5,142.5,,,,,,,142.5,5
Dmitriy Komkov,Дмитрий Комков,90,Yes,B,Raw,M,J (20 - 23),1987-08-25,88.1,,,,,,132.5,-135,-140,132.5,,,,,,,132.5,6
Mikhail Yakimenko,Михаил Якименко,90,Yes,B,Raw,M,J (20 - 23),1989-11-23,89.65,,,,,,-127.5,132.5,-140,132.5,,,,,,,132.5,7
Aleksandr Grigorev,Александр Григорьев,90,Yes,B,Raw,M,J (20 - 23),1991-04-19,87.95,,,,,,100,-110,-112.5,100,,,,,,,100,9
Vladimir Konchakov,Владимир Кончаков,90,Yes,B,Raw,M,O,1973-05-25,90,,,,,,185,192.5,195,195,,,,,,,195,3
Aleksey Kotov,Алексей Котов,90,Yes,B,Raw,M,O,1974-01-04,88.6,,,,,,175,185,-187.5,185,,,,,,,185,7
Andrey Grigorev,Андрей Григорьев,90,Yes,B,Raw,M,O,1975-03-05,89,,,,,,162.5,170,175,175,,,,,,,175,9
Sergey Sharov,Сергей Шаров,90,Yes,B,Raw,M,O,1987-07-04,89.9,,,,,,152.5,165,-175,165,,,,,,,165,10
Andrey Bagaev,Андрей Багаев,90,Yes,B,Raw,M,O,1974-07-12,86.65,,,,,,152.5,-162.5,162.5,162.5,,,,,,,162.5,11
Evgeniy Mikhaylov,Евгений Михайлов,90,Yes,B,Raw,M,O,1984-06-21,87.9,,,,,,155,-160,-160,155,,,,,,,155,12
Yuriy Nikolaev,Юрий Николаев,90,Yes,B,Raw,M,O,1981-05-02,85.4,,,,,,140,-152.5,152.5,152.5,,,,,,,152.5,13
Aleksey Nikolaev,Алексей Николаев,90,Yes,B,Raw,M,O,1984-11-17,87.15,,,,,,132.5,142.5,152.5,152.5,,,,,,,152.5,14
Anton Tyurin,Антон Тюрин,90,Yes,B,Raw,M,O,1982-09-04,88.6,,,,,,-135,135,152.5,152.5,,,,,,,152.5,15
Denis Yankin,Денис Янкин,90,Yes,B,Raw,M,O,1974-08-21,88.8,,,,,,140,152.5,-165,152.5,,,,,,,152.5,16
Ilya Lednev,Илья Леднев,90,Yes,B,Raw,M,O,1972-07-26,90,,,,,,152.5,-165,-165,152.5,,,,,,,152.5,17
Konstantin Semov,Константин Семов,90,Yes,B,Raw,M,O,1978-08-06,88.6,,,,,,145,-152.5,-152.5,145,,,,,,,145,18
Denis Mantsurov,Денис Манцуров,90,Yes,B,Raw,M,O,1972-08-12,87.85,,,,,,140,-155,-155,140,,,,,,,140,19
Vladimir Danilov,Владимир Данилов,90,Yes,B,Raw,M,O,1976-05-18,89,,,,,,135,-140,140,140,,,,,,,140,20
Dmitriy Zhukov,Дмитрий Жуков,90,Yes,B,Raw,M,O,1976-12-06,89.9,,,,,,137.5,-145,-145,137.5,,,,,,,137.5,21
Dmitriy Vasilev,Дмитрий Васильев,90,Yes,B,Raw,M,O,1984-02-21,87.3,,,,,,135,-152.5,-152.5,135,,,,,,,135,22
Vladimir Satsevich,Владимир Сацевич,90,Yes,B,Raw,M,O,1988-05-06,88,,,,,,-120,132.5,-152.5,132.5,,,,,,,132.5,23
Aleksandr Nazarenko,Александр Назаренко,90,Yes,B,Raw,M,O,1978-01-18,88.05,,,,,,-132.5,132.5,-135,132.5,,,,,,,132.5,24
Igor Kopylov,Игорь Копылов,90,Yes,B,Raw,M,O,1979-10-08,88.4,,,,,,125,132.5,-137.5,132.5,,,,,,,132.5,25
Yan Zhurkin,Ян Журкин,90,Yes,B,Raw,M,O,1985-11-05,89.25,,,,,,132.5,-137.5,-140,132.5,,,,,,,132.5,26
Sergey Zazhigalin,Сергей Зажигалин,90,Yes,B,Raw,M,O,1984-02-01,89.25,,,,,,132.5,-152.5,,132.5,,,,,,,132.5,27
Aleksey Borodulya,Алексей Бородуля,90,Yes,B,Raw,M,O,1977-10-24,89.35,,,,,,125,132.5,-135,132.5,,,,,,,132.5,28
Konstantin Ushnurtsev,Константин Ушнурцев,90,Yes,B,Raw,M,O,1986-11-28,89.75,,,,,,120,132.5,-140,132.5,,,,,,,132.5,29
Maksim Buyanov,Максим Буянов,90,Yes,B,Raw,M,O,1983-07-04,88.05,,,,,,-127.5,127.5,-132.5,127.5,,,,,,,127.5,30
Mikhail Chistyakov,Михаил Чистяков,90,Yes,B,Raw,M,O,1984-05-10,88.25,,,,,,-122.5,-125,125,125,,,,,,,125,31
Maksim Katkov,Максим Катков,90,Yes,B,Raw,M,O,1987-05-01,87.1,,,,,,92.5,-107.5,-107.5,92.5,,,,,,,92.5,32
Aleksey Kozhukhovskiy,Алексей Кожуховский,90,Yes,B,Raw,M,O,1985-07-01,85,,,,,,-125,-127.5,-132.5,,,,,,,,,DQ
Nikolay Karakcheev,Николай Каракчеев,90,Yes,B,Raw,M,O,1974-06-18,87.4,,,,,,-175,-175,-175,,,,,,,,,DQ
Dmitriy Zotkin,Дмитрий Зоткин,90,Yes,B,Raw,M,O,1983-08-21,88.55,,,,,,-127.5,-132.5,-132.5,,,,,,,,,DQ
Aleksey Barmykov,Алексей Бармыков,90,Yes,B,Raw,M,O,1980-01-15,89.25,,,,,,-120,-120,-120,,,,,,,,,DQ
Dmitriy Barkov,Дмитрий Барков,90,Yes,B,Raw,M,O,1984-06-01,89.45,,,,,,-160,-160,-165,,,,,,,,,DQ
Sergey Yarochkin,Сергей Ярочкин,90,Yes,B,Raw,M,M (40 - 44),1971-01-11,85.55,,,,,,145,150,155,155,,,,,,,155,1
Konstantin Pchelintsev,Константин Пчелинцев,90,Yes,B,Raw,M,M (40 - 44),1967-10-05,86.85,,,,,,-145,152.5,-165,152.5,,,,,,,152.5,2
Igor Maruchin,Игорь Маручин,90,Yes,B,Raw,M,M (45 - 49),1967-05-14,87.2,,,,,,152.5,-165,165,165,,,,,,,165,1
Eduard Vladimirov,Эдуард Владимиров,90,Yes,B,Raw,M,M (45 - 49),1966-05-14,88.55,,,,,,122.5,-127.5,127.5,127.5,,,,,,,127.5,3
Aleksandr Chepurnoy,Александр Чепурной,90,Yes,B,Raw,M,M (45 - 49),1964-07-19,89.15,,,,,,120,125,-130,125,,,,,,,125,4
Andrey Yurkov,Андрей Юрков,90,Yes,B,Raw,M,M (50 - 54),1961-09-24,86.35,,,,,,147.5,152.5,155,155,,,,,,,155,1
Andrey Salov,Андрей Салов,90,Yes,B,Raw,M,M (50 - 54),1959-10-18,88.35,,,,,,140,150,155,155,,,,,,,155,2
Vyacheslav Stanchak,Вячеслав Станчак,90,Yes,B,Raw,M,M (55 - 59),1952-08-08,83.45,,,,,,145,147.5,-150,147.5,,,,,,,147.5,1
Aleksandr Alymov,Александр Алымов,90,Yes,B,Raw,M,M (55 - 59),1956-09-22,87.5,,,,,,110,130,-150,130,,,,,,,130,3
Vyacheslav Pyatakhin,Вячеслав Пятахин,90,Yes,B,Raw,M,M (55 - 59),1952-06-20,85.3,,,,,,110,-117.5,-120,110,,,,,,,110,4
Sergey Goncharov,Сергей Гончаров,90,Yes,B,Raw,M,M (60 - 64),1952-04-22,88.35,,,,,,125,-130,132.5,132.5,,,,,,,132.5,1
Ildar Yagudin,Ильдар Ягудин,100,Yes,B,Raw,M,T (18 - 19),1994-04-24,93.75,,,,,,115,130,-140,130,,,,,,,130,1
Dmitriy Kirsanov,Дмитрий Кирсанов,100,Yes,B,Raw,M,J (20 - 23),1988-11-15,93.1,,,,,,155,165,170,170,,,,,,,170,3
Igor Sigulya,Игорь Сигуля,100,Yes,B,Raw,M,J (20 - 23),1990-01-27,97.3,,,,,,160,165,-170,165,,,,,,,165,4
Oleg Borodin,Олег Бородин,100,Yes,B,Raw,M,J (20 - 23),1990-04-21,97.6,,,,,,140,150,-155,150,,,,,,,150,5
Anton Epikhin,Антон Епихин,100,Yes,B,Raw,M,J (20 - 23),1988-10-11,93.3,,,,,,140,145,-150,145,,,,,,,145,6
Egor Konovalov,Егор Коновалов,100,Yes,B,Raw,M,J (20 - 23),1991-09-24,97.8,,,,,,135,140,-142.5,140,,,,,,,140,7
Anatoliy Makarov,Анатолий Макаров,100,Yes,B,Raw,M,J (20 - 23),1988-11-04,91.3,,,,,,-140,-140,-140,,,,,,,,,DQ
Andrey Kukhnevskiy,Андрей Кухневский,100,Yes,B,Raw,M,O,1981-11-30,96.4,,,,,,200,210,215.5,215.5,,,,,,,215,4
Pavel Milovanov,Павел Милованов,100,Yes,B,Raw,M,O,1977-10-05,100,,,,,,192.5,-200,-200,192.5,,,,,,,192.5,9
Vasiliy Synkov,Василий Сынков,100,Yes,B,Raw,M,O,1972-09-07,94.05,,,,,,165,175,-185,175,,,,,,,175,14
Vladimir Koryagin,Владимир Корягин,100,Yes,B,Raw,M,O,1982-09-02,93.8,,,,,,170,-185,-185,170,,,,,,,170,15
Aleksandr Aleksev,Александр Алексев,100,Yes,B,Raw,M,O,1981-09-02,99.95,,,,,,140,162.5,170,170,,,,,,,170,17
Evgeniy Eremin,Евгений Еремин,100,Yes,B,Raw,M,O,1984-06-14,95.1,,,,,,140,-162.5,165,165,,,,,,,165,18
Ivan Basikhin,Иван Басихин,100,Yes,B,Raw,M,O,1984-06-29,98.9,,,,,,160,-165,-167.5,160,,,,,,,160,22
Denis Demb,Денис Демб,100,Yes,B,Raw,M,O,1979-07-02,98.1,,,,,,-145,152.5,157.5,157.5,,,,,,,157.5,23
Aleksey Pustovoytov,Алексей Пустовойтов,100,Yes,B,Raw,M,O,1984-07-31,96.65,,,,,,145,155,-162.5,155,,,,,,,155,24
Sergey Rybkin,Сергей Рыбкин,100,Yes,B,Raw,M,O,1981-07-20,98.15,,,,,,140,147.5,152.5,152.5,,,,,,,152.5,25
Aleksandr Kochetkov,Александр Кочетков,100,Yes,B,Raw,M,O,1976-08-04,98.15,,,,,,135,145,152.5,152.5,,,,,,,152.5,26
Aleksandr Kuzin,Александр Кузин,100,Yes,B,Raw,M,O,1980-07-12,100,,,,,,150,-162.5,-162.5,150,,,,,,,150,27
Semen Borkin,Семен Борькин,100,Yes,B,Raw,M,O,1981-11-12,96.6,,,,,,-130,140,147.5,147.5,,,,,,,147.5,28
Vladislav Savitskiy,Владислав Савицкий,100,Yes,B,Raw,M,O,1976-03-24,95.35,,,,,,140,145,-147.5,145,,,,,,,145,29
Sergey Odintsov,Сергей Одинцов,100,Yes,B,Raw,M,O,1974-12-21,98.9,,,,,,-145,145,-162.5,145,,,,,,,145,30
Dmitriy Khalyutin,Дмитрий Халютин,100,Yes,B,Raw,M,O,1984-03-25,93.4,,,,,,130,140,142.5,142.5,,,,,,,142.5,31
Roman Romanenko,Роман Романенко,100,Yes,B,Raw,M,O,1983-02-11,98.6,,,,,,140,142.5,-145,142.5,,,,,,,142.5,32
Vladimir Golovachev,Владимир Головачев,100,Yes,B,Raw,M,O,1979-03-30,91.05,,,,,,140,-150,,140,,,,,,,140,33
Nikita Khramov,Никита Храмов,100,Yes,B,Raw,M,O,1981-07-14,96,,,,,,140,-152.5,-162.5,140,,,,,,,140,34
Nikita Tulyakov,Никита Туляков,100,Yes,B,Raw,M,O,1988-02-23,96.05,,,,,,125,127.5,130,130,,,,,,,130,35
Sergey Gershtanskiy,Сергей Герштанский,100,Yes,B,Raw,M,O,1974-04-06,97.1,,,,,,130,-140,-140,130,,,,,,,130,36
Mikhail Zakharov,Михаил Захаров,100,Yes,B,Raw,M,O,1977-05-01,97.2,,,,,,-125,130,-140,130,,,,,,,130,37
Sergey Timchenko,Сергей Тимченко,100,Yes,B,Raw,M,O,1979-12-23,95.3,,,,,,-165,-165,-165,,,,,,,,,DQ
Roman Usachev,Роман Усачев,100,Yes,B,Raw,M,O,1992-09-28,95.6,,,,,,-142.5,,,,,,,,,,,DQ
Pavel Samsonov,Павел Самсонов,100,Yes,B,Raw,M,O,1972-12-08,96.6,,,,,,-140,-140,-140,,,,,,,,,DQ
Igor Kaminskiy,Игорь Каминский,100,Yes,B,Raw,M,O,1976-06-26,97.65,,,,,,-140,,-140,,,,,,,,,DQ
Yuriy Verchenko,Юрий Верченко,100,Yes,B,Raw,M,M (40 - 44),1969-03-23,99.35,,,,,,-150,150,-155,150,,,,,,,150,2
Mikhail Chepurnoy,Михаил Чепурной,100,Yes,B,Raw,M,M (40 - 44),1970-02-26,96.9,,,,,,130,140,-145,140,,,,,,,140,3
Aleksandr Pastushenko,Александр Пастушенко,100,Yes,B,Raw,M,M (45 - 49),1966-10-30,91.85,,,,,,162.5,165,170,170,,,,,,,170,1
Aleksandr Mishustin,Александр Мишустин,100,Yes,B,Raw,M,M (45 - 49),1964-11-25,96.9,,,,,,135,-145,-145,135,,,,,,,135,4
Boris Astafev,Борис Астафьев,100,Yes,B,Raw,M,M (50 - 54),1960-10-31,93.1,,,,,,150,-155,162.5,162.5,,,,,,,162.5,1
Evgeniy Panin,Евгений Панин,100,Yes,B,Raw,M,M (55 - 59),1955-05-16,99.6,,,,,,145,-152.5,-155,145,,,,,,,145,2
Daniil Savik,Даниил Савик,110,Yes,B,Raw,M,T (18 - 19),1992-12-18,107.5,,,,,,-160,-160,-160,,,,,,,,,DQ
Egor Kuznetsov,Егор Кузнецов,110,Yes,B,Raw,M,J (20 - 23),1991-05-22,107.65,,,,,,-190,,,,,,,,,,,DQ
Denis Grebnev,Денис Гребнев,110,Yes,B,Raw,M,O,1986-04-12,102.75,,,,,,-230,-230,230,230,,,,,,,230,1
Aleksandr Kuznetsov,Александр Кузнецов,110,Yes,B,Raw,M,O,1979-06-20,107.65,,,,,,195,205,210,210,,,,,,,210,6
Ruslan Pustovoy,Руслан Пустовой,110,Yes,B,Raw,M,O,1979-08-28,109.5,,,,,,185,197.5,-207.5,197.5,,,,,,,197.5,8
Vladimir Moshkovskiy,Владимир Мошковский,110,Yes,B,Raw,M,O,1973-02-01,108.3,,,,,,185,-190,-190,185,,,,,,,185,12
Nikita Anisimov,Никита Анисимов,110,Yes,B,Raw,M,O,1988-05-13,107,,,,,,172.5,180,182.5,182.5,,,,,,,182.5,13
Andrey Shubin,Андрей Шубин,110,Yes,B,Raw,M,O,1974-01-26,108.1,,,,,,147.5,167.5,175,175,,,,,,,175,15
Aleksandr Gorshkov,Александр Горшков,110,Yes,B,Raw,M,O,1979-03-01,107.7,,,,,,160,167.5,-175,167.5,,,,,,,167.5,16
Arsen Gazzaev,Арсен Газзаев,110,Yes,B,Raw,M,O,1973-06-10,109.85,,,,,,165,167.5,-172.5,167.5,,,,,,,167.5,17
Anton Epifanov,Антон Епифанов,110,Yes,B,Raw,M,O,1985-02-05,109.25,,,,,,147.5,155,-167.5,155,,,,,,,155,18
Aleksey Belash,Алексей Белаш,110,Yes,B,Raw,M,O,1982-03-31,104.4,,,,,,150,-170,-170,150,,,,,,,150,19
Kirill Zinyuk,Кирилл Зинюк,110,Yes,B,Raw,M,O,1982-02-13,105,,,,,,130,140,-147.5,140,,,,,,,140,20
Dmitriy Mukhin,Дмитрий Мухин,110,Yes,B,Raw,M,O,1983-06-28,107.8,,,,,,-190,-195,-195,,,,,,,,,DQ
Dmitriy Penkin,Дмитрий Пенкин,110,Yes,B,Raw,M,M (40 - 44),1970-12-11,110,,,,,,175,185,-192.5,185,,,,,,,185,2
Sergey Studenikin,Сергей Студеникин,110,Yes,B,Raw,M,M (40 - 44),1972-03-15,107.9,,,,,,147.5,167.5,170,170,,,,,,,170,3
Aleksey Kladovshchikov,Алексей Кладовщиков,110,Yes,B,Raw,M,M (40 - 44),1969-03-07,105.6,,,,,,147.5,152.5,-157.5,152.5,,,,,,,152.5,5
Kirill Ovchinnikov,Кирилл Овчинников,110,Yes,B,Raw,M,M (40 - 44),1970-02-07,107.3,,,,,,135,147.5,150,150,,,,,,,150,6
Svyatoslav Kotik,Святослав Котик,110,Yes,B,Raw,M,M (40 - 44),1972-01-14,106.8,,,,,,145,-150,-152.5,145,,,,,,,145,7
Pavel Mysov,Павел Мысов,110,Yes,B,Raw,M,M (45 - 49),1967-05-19,104.25,,,,,,155,160,167.5,167.5,,,,,,,167.5,2
Igor Solomichev,Игорь Соломичев,110,Yes,B,Raw,M,M (45 - 49),1967-01-27,100.4,,,,,,135,142.5,-147.5,142.5,,,,,,,142.5,3
Aleksey Styopyshev,Алексей Стёпышев,110,Yes,B,Raw,M,M (45 - 49),1963-05-10,100.15,,,,,,130,132.5,137.5,137.5,,,,,,,137.5,4
Vladimir Shtoda,Владимир Штода,110,Yes,B,Raw,M,M (45 - 49),1966-04-24,107.7,,,,,,120,-125,-125,120,,,,,,,120,5
Yuriy Shantsyn,Юрий Шанцын,110,Yes,B,Raw,M,M (60 - 64),1949-02-21,108.4,,,,,,130,135,-137.5,135,,,,,,,135,1
Valeriy Orlov,Валерий Орлов,110,Yes,B,Raw,M,M (60 - 64),1950-10-27,106.45,,,,,,-112.5,-112.5,112.5,112.5,,,,,,,112.5,2
Yuriy Gordyakov,Юрий Гордяков,125,Yes,B,Raw,M,O,1976-04-27,117,,,,,,210,215,-220,215,,,,,,,215,6
Anton Vildanov,Антон Вильданов,125,Yes,B,Raw,M,O,1980-02-14,118.3,,,,,,202.5,210,-217.5,210,,,,,,,210,7
Aleksey Rudko,Алексей Рудько,125,Yes,B,Raw,M,O,1973-10-27,115.45,,,,,,190,200,-210,200,,,,,,,200,9
Igor Golovanov,Игорь Голованов,125,Yes,B,Raw,M,O,1983-11-04,121,,,,,,175,185,-190,185,,,,,,,185,11
Aleksandr Malyshev,Александр Малышев,125,Yes,B,Raw,M,O,1981-02-27,121.9,,,,,,165,172.5,177.5,177.5,,,,,,,177.5,12
Andrey Goryachev,Андрей Горячев,125,Yes,B,Raw,M,O,1986-04-05,114.2,,,,,,152.5,160,165,165,,,,,,,165,13
Sergey Rykov,Сергей Рыков,125,Yes,B,Raw,M,O,1965-08-26,115.9,,,,,,155,165,-175,165,,,,,,,165,14
Sultan Ibragimov,Султан Ибрагимов,125,Yes,B,Raw,M,O,1987-08-11,117.4,,,,,,-195,-195,-195,,,,,,,,,DQ
Ilya Gridnev,Илья Гриднев,125,Yes,B,Raw,M,O,1976-06-01,120.3,,,,,,-190,-190,,,,,,,,,,DQ
Denis Favorskiy,Денис Фаворский,125,Yes,B,Raw,M,M (40 - 44),1971-07-16,112.5,,,,,,140,150,155,155,,,,,,,155,3
Oleg Butenko,Олег Бутенко,125,Yes,B,Raw,M,M (40 - 44),1971-01-01,121.95,,,,,,152.5,,,152.5,,,,,,,152.5,4
Denis Ogloblin,Денис Оглоблин,125,Yes,B,Raw,M,M (45 - 49),1967-05-12,118.7,,,,,,192.5,-200,-200,192.5,,,,,,,192.5,1
Roman Chuba,Роман Чуба,125,Yes,B,Raw,M,M (55 - 59),1954-05-01,115.35,,,,,,155,160,165,165,,,,,,,165,1
Viktor Senkin,Виктор Сенькин,125,Yes,B,Raw,M,M (55 - 59),1955-09-20,124.15,,,,,,150,155,-160,155,,,,,,,155,2
Sergey Kananadze,Сергей Кананадзе,140,Yes,B,Raw,M,O,1979-07-15,133.35,,,,,,182.5,-185,185,185,,,,,,,185,6
Boris Trofimov,Борис Трофимов,140,Yes,B,Raw,M,M (40 - 44),1972-03-21,138.2,,,,,,200,-205,-207.5,200,,,,,,,200,2
Roman Marachev,Роман Марачев,140+,Yes,B,Raw,M,O,1978-05-16,140.8,,,,,,202.5,210,-212.5,210,,,,,,,210,3
Roman Mishurenkov,Роман Мишуренков,140+,Yes,B,Raw,M,O,1982-02-16,141.1,,,,,,190,195,200,200,,,,,,,200,4
Stanislav Karpov,Станислав Карпов,140+,Yes,B,Raw,M,O,1971-04-07,147.3,,,,,,187.5,,,187.5,,,,,,,187.5,5
Stanislav Karpov,Станислав Карпов,140+,Yes,B,Raw,M,M (40 - 44),1971-04-07,147.3,,,,,,-177.5,177.5,187.5,187.5,,,,,,,187.5,2
Mariya Pustovit,Мария Пустовит,56,Yes,B,Multi-ply,F,O,1985-07-30,55,,,,,,-82.5,-82.5,85,85,,,,,,,85,1
Nataliya Zagrebina,Наталия Загребина,56,Yes,B,Multi-ply,F,O,1977-10-29,56,,,,,,65,-75,-75,65,,,,,,,65,2
Irina Konoreva,Ирина Конорева,60,Yes,B,Multi-ply,F,O,1988-01-29,59.85,,,,,,-80,80,-92.5,80,,,,,,,80,2
Dmitriy Boldin,Дмитрий Болдин,52,Yes,B,Multi-ply,M,T (13-15),1998-03-29,41.9,,,,,,45,50,-52.5,50,,,,,,,50,1
Aleksandr Fyodorov,Александр Фёдоров,60,Yes,B,Multi-ply,M,O,1976-10-14,59.75,,,,,,132.5,-138,-138,132.5,,,,,,,132.5,1
Aleksandr Dzhusoev,Александр Джусоев,67.5,Yes,B,Multi-ply,M,T (16-17),1994-06-23,66,,,,,,110,-115,-115,110,,,,,,,110,1
Miron Kim,Мирон Ким,67.5,Yes,B,Multi-ply,M,M (70 - 74),1941-08-05,65.9,,,,,,100,-110,-110,100,,,,,,,100,1
Vyacheslav Romanov,Вячеслав Романов,75,Yes,B,Multi-ply,M,J (20 - 23),1990-12-04,73.2,,,,,,-150,150,-160,150,,,,,,,150,2
Maksim Popov,Максим Попов,75,Yes,B,Multi-ply,M,J (20 - 23),1991-05-18,74.1,,,,,,140,-147.5,-147.5,140,,,,,,,140,3
Aleksey Emelyanov,Алексей Емельянов,75,Yes,B,Multi-ply,M,O,1983-02-25,71.7,,,,,,165,-172.5,172.5,172.5,,,,,,,172.5,2
Dmitriy Korneev,Дмитрий Корнеев,75,Yes,B,Multi-ply,M,O,1987-02-15,74.45,,,,,,152.5,160,-165,160,,,,,,,160,3
Aleksandr Karelin,Александр Карелин,82.5,Yes,B,Multi-ply,M,T (18 - 19),1993-12-11,81.3,,,,,,130,-140,-140,130,,,,,,,130,1
Yuriy Tarbonov,Юрий Тарбонов,82.5,Yes,B,Multi-ply,M,O,1987-11-26,81.9,,,,,,195,-200,-200,195,,,,,,,195,1
Denis Dobryanskiy,Денис Добрянский,82.5,Yes,B,Multi-ply,M,O,1977-12-06,82.5,,,,,,-190,192.5,-207.5,192.5,,,,,,,192.5,2
Konstantin Dremenkov,Константин Дременков,82.5,Yes,B,Multi-ply,M,O,1966-07-21,80.3,,,,,,175,-187.5,-187.5,175,,,,,,,175,3
Yuriy Volkov,Юрий Волков,82.5,Yes,B,Multi-ply,M,M (40 - 44),1972-04-01,77.2,,,,,,110,120,130,130,,,,,,,130,1
Konstantin Dremenkov,Константин Дременков,82.5,Yes,B,Multi-ply,M,M (45 - 49),1966-07-21,80.3,,,,,,180,-187.5,187.5,187.5,,,,,,,187.5,2
Vladislav Sannikov,Владислав Санников,82.5,Yes,B,Multi-ply,M,M (70 - 74),1938-05-16,79.1,,,,,,90,95,97.5,97.5,,,,,,,97.5,1
Evgeniy Pivovarov,Евгений Пивоваров,90,Yes,B,Multi-ply,M,J (20 - 23),1988-09-01,86.2,,,,,,180,190,200,200,,,,,,,200,1
Yaroslav Plekh,Ярослав Плех,90,Yes,B,Multi-ply,M,J (20 - 23),1990-06-04,85.85,,,,,,-165,165,172.5,172.5,,,,,,,172.5,2
Nikita Zotov,Никита Зотов,90,Yes,B,Multi-ply,M,J (20 - 23),1989-07-26,84,,,,,,155,-170,-175,155,,,,,,,155,3
Denis Piklyaev,Денис Пикляев,90,Yes,B,Multi-ply,M,O,1981-11-14,88.9,,,,,,190,205,215,215,,,,,,,215,3
Igor Eremkin,Игорь Еремкин,90,Yes,B,Multi-ply,M,O,1973-08-31,86.9,,,,,,192.5,205,-215,205,,,,,,,205,4
Anton Sosunov,Антон Сосунов,90,Yes,B,Multi-ply,M,O,1980-12-14,89,,,,,,155,-162.5,-162.5,155,,,,,,,155,5
Igor Sirotkin,Игорь Сироткин,90,Yes,B,Multi-ply,M,M (40 - 44),1970-07-29,89.15,,,,,,175,-185,185,185,,,,,,,185,1
Vasiliy Synkov,Василий Сынков,100,Yes,B,Multi-ply,M,O,1972-09-07,94.05,,,,,,215,230,235,235,,,,,,,235,3
Nikolay Arguchintsev,Николай Аргучинцев,100,Yes,B,Multi-ply,M,M (40 - 44),1968-10-22,97.5,,,,,,190,200,-210,200,,,,,,,200,2
Valeriy Akentyev,Валерий Акентьев,100,Yes,B,Multi-ply,M,M (50 - 54),1958-03-13,98.7,,,,,,-205,205,-230,205,,,,,,,205,1
Vladimir Poletaev,Владимир Полетаев,110,Yes,B,Multi-ply,M,O,1972-10-19,109.1,,,,,,270,-292.5,-292.5,270,,,,,,,270,2
Nikolay Emelyanov,Николай Емельянов,110,Yes,B,Multi-ply,M,O,1979-08-30,105.7,,,,,,210,217.5,225,225,,,,,,,225,3
Aleksey Ventsov,Алексей Венцов,110,Yes,B,Multi-ply,M,O,1981-04-22,110,,,,,,225,-235,-245,225,,,,,,,225,4
Pavel Chidingov,Павел Чидингов,110,Yes,B,Multi-ply,M,M (40 - 44),1969-07-02,103.3,,,,,,-210,-210,-210,,,,,,,,,DQ
Aleksey Voronkov,Алексей Воронков,125,Yes,B,Multi-ply,M,J (20 - 23),1989-03-13,117.8,,,,,,240,-250,-250,240,,,,,,,240,2
Igor Simanovskiy,Игорь Симановский,125,Yes,B,Multi-ply,M,M (45 - 49),1965-03-28,113.6,,,,,,-240,240,-250,240,,,,,,,240,1
Vasiliy Filatov,Василий Филатов,140,Yes,B,Multi-ply,M,O,1986-09-29,130.9,,,,,,-265,-265,-265,,,,,,,,,DQ
Anatoliy Kalinin,Анатолий Калинин,140,Yes,B,Multi-ply,M,M (45 - 49),1965-08-15,125.1,,,,,,150,160,-170,160,,,,,,,160,1
Pavel Zaytsev,Павел Зайцев,75,No,D,Raw,M,J (20 - 23),1989-08-30,69,,,,,,,,,,,160,175,-187.5,175,,175,3
Sergey Pridachin,Сергей Придачин,75,No,D,Raw,M,O,1984-06-09,73.8,,,,,,,,,,,130,-140,140,140,,140,6
Evgeniy Gorshkov,Евгений Горшков,82.5,No,D,Raw,M,O,1981-11-13,81.8,,,,,,,,,,,250,260,-265,260,,260,1
Aleksey Koshuba,Алексей Кошуба,82.5,No,D,Raw,M,O,1980-10-09,82,,,,,,,,,,,235,245,-262.5,245,,245,3
Sergey Sokolovskiy,Сергей Соколовский,90,No,D,Raw,M,O,1976-08-03,88.3,,,,,,,,,,,265,285,305,305,,305,1
Andrey Latushkin,Андрей Латушкин,90,No,D,Raw,M,O,1976-08-12,88.4,,,,,,,,,,,240,255,265,265,,265,2
Dmitriy Zaytsev,Дмитрий Зайцев,90,No,D,Raw,M,O,1981-04-01,88.5,,,,,,,,,,,175,185,192.5,192.5,,192.5,7
Aleksey Zhirnov,Алексей Жирнов,100,No,D,Raw,M,O,1981-08-26,94.95,,,,,,,,,,,300,315,330,330,,330,1
Pavel Papenkov,Павел Папенков,100,No,D,Raw,M,O,1980-02-28,99.1,,,,,,,,,,,262.5,-272.5,-277.5,262.5,,262.5,4
Ivan Rabotkin,Иван Работкин,100,No,D,Raw,M,O,1980-03-23,98.5,,,,,,,,,,,205,210,215,215,,215,5
Sergey Vatolin,Сергій Ватолін,100,No,D,Raw,M,O,1985-02-26,93.55,,,,,,,,,,,-190,,,,,,DQ
Marat Savosin,Марат Савосин,110,No,D,Raw,M,J (20 - 23),1990-10-23,102.2,,,,,,,,,,,240,255,-265,255,,255,1
Yuriy Dementev,Юрий Дементьев,110,No,D,Raw,M,O,1983-05-26,107.3,,,,,,,,,,,280,290,297.5,297.5,,297.5,3
Artem Kobanov,Артем Кобанов,110,No,D,Raw,M,O,1992-01-10,106.3,,,,,,,,,,,285,292.5,-302.5,292.5,,292.5,4
Aleksandr Teterin,Александр Тетерин,110,No,D,Raw,M,O,1974-11-15,102.2,,,,,,,,,,,220,230,240,240,,240,5
Renat Akhmetov,Ренат Ахметов,110,No,D,Raw,M,M (50 - 54),1961-05-20,107.9,,,,,,,,,,,290,305,315,315,,315,1
Valentina Kharina,Валентина Харина,67.5,No,SBD,Wraps,F,O,1977-12-24,67.1,130,140,150,150,,110,-120,-125,110,,140,155,170,170,180,430,1
Artem Kireev,Артем Киреев,52,No,SBD,Wraps,M,T (13-15),1998-11-20,45.25,45,52.5,55,55,,30,35,-40,35,,65,75,77.5,77.5,,167.5,1
Igor Zverev,Игорь Зверев,60,No,SBD,Wraps,M,T (13-15),1997-07-18,58.4,70,82.5,-85,82.5,,50,57.5,60,60,,100,110,-120,110,,252.5,1
Sergey Kolosov,Сергей Колосов,75,No,SBD,Wraps,M,T (18 - 19),1993-10-08,73.8,160,170,177.5,177.5,,115,122.5,-127.5,122.5,,222.5,235,-242.5,235,,535,1
Pavel Zaytsev,Павел Зайцев,75,No,SBD,Wraps,M,J (20 - 23),1989-08-30,68.8,-130,-135,-135,,,,,,,,,,,,,,DQ
Aleksandr Sadovnikov,Александр Садовников,75,No,SBD,Wraps,M,O,1983-01-25,74.7,182.5,192.5,195,195,,122.5,-127.5,-127.5,122.5,,235,250,260,260,,577.5,1
Aleksandr Pechenin,Александр Печенин,75,No,SBD,Wraps,M,M (50 - 54),1961-04-19,69.1,135,150,,150,,120,125,-130,125,,135,150,160,160,,435,1
Danila Pavlyuk,Данила Павлюк,82.5,No,SBD,Wraps,M,T (16-17),1995-07-14,75.05,90,102.5,112.5,112.5,117.5,80,87.5,-92.5,87.5,,145,155,-162.5,155,,355,1
Ragim Balakshiev,Рагим Балакшиев,82.5,No,SBD,Wraps,M,J (20 - 23),1990-06-17,80.3,175,185,192.5,192.5,,125,135,142.5,142.5,,225,235,,235,,570,1
Vitaliy Egorov,Виталий Егоров,82.5,No,SBD,Wraps,M,O,1979-04-07,80.25,210,220,230,230,,135,145,150,150,,230,250,-260,250,,630,1
Evgeniy Gorshkov,Евгений Горшков,82.5,No,SBD,Wraps,M,O,1981-11-13,81.8,-200,205,210,210,,125,130,135,135,,-250,260,270,270,,615,2
Aleksey Koshuba,Алексей Кошуба,82.5,No,SBD,Wraps,M,O,1980-10-09,82,190,200,210,210,,130,-135,135,135,,250,260,-270,260,,605,4
Roman Durnov,Роман Дурнов,82.5,No,SBD,Wraps,M,O,1986-09-23,80.85,200,-210,-210,200,,-150,150,-155,150,,210,220,-255,220,,570,6
Vyacheslav Nikadimov,Вячеслав Никадимов,82.5,No,SBD,Wraps,M,O,1987-05-05,82.15,190,200,-210,200,,-150,150,-160,150,,-200,200,220,220,,570,7
Aleksandr Kozin,Александр Козин,82.5,No,SBD,Wraps,M,O,1973-12-01,79.8,190,195,-200,195,,-130,130,135,135,,-220,222.5,227.5,227.5,,557.5,9
Konstantin Massalin,Константин Массалин,82.5,No,SBD,Wraps,M,O,1983-04-26,80.1,185,192.5,197.5,197.5,,130,-135,135,135,,185,192.5,-197.5,192.5,,525,11
Vladimir Tarbonov,Владимир Тарбонов,82.5,No,SBD,Wraps,M,M (55 - 59),1954-11-01,81.3,-160,-160,160,160,,95,-103,-103,95,,180,-202.5,-202.5,180,,435,1
Ilya Nikitin,Илья Никитин,90,No,SBD,Wraps,M,T (13-15),1996-10-01,83.2,-150,150,-160,150,,120,-125,,120,,170,180,-185,180,,450,1
Emil Zeynalov,Эмиль Зейналов,90,No,SBD,Wraps,M,T (16-17),1994-09-10,89.2,220,-230,-230,220,,140,150,155,155,,240,260,-272.5,260,,635,1
Murad Kyazymov,Мурад Кязымов,90,No,SBD,Wraps,M,T (18 - 19),1993-03-10,87.6,90,-95,-97.5,90,,-120,-120,120,120,,-140,-140,140,140,,350,2
Pavel Sheludko,Павел Шелудько,90,No,SBD,Wraps,M,J (20 - 23),1989-10-24,88.45,205,220,230,230,,160,175,182.5,182.5,,245,-260,260,260,,672.5,1
Dmitriy Maleev,Дмитрий Малеев,90,No,SBD,Wraps,M,J (20 - 23),1990-02-06,86.7,200,-210,210,210,,165,172.5,177.5,177.5,,-240,245,-260,245,,632.5,2
Sergey Lukyanov,Сергей Лукьянов,90,No,SBD,Wraps,M,O,1986-06-02,90,220,235,245,245,,150,165,180,180,,280,300,-320,300,,725,2
Aleksey Bazhenov,Алексей Баженов,90,No,SBD,Wraps,M,O,1977-11-01,88.6,230,240,245,245,,175,182.5,187.5,187.5,,262.5,272.5,-292.5,272.5,,705,3
Nikolay Sarafanov,Николай Сарафанов,90,No,SBD,Wraps,M,O,1983-11-16,90,-220,220,225,225,,175,185,190,190,,235,245,-250,245,,660,4
Denis Kormilov,Денис Кормилов,90,No,SBD,Wraps,M,O,1976-09-15,87.45,225,240,,240,,165,-175,-175,165,,230,240,-255,240,,645,5
Dmitriy Melikhov,Дмитрий Мелихов,90,No,SBD,Wraps,M,O,1979-09-19,88.8,202.5,212.5,217.5,217.5,,142.5,147.5,-150,147.5,,220,232.5,-242.5,232.5,,597.5,10
Aleksandr Tsvetkov,Александр Цветков,90,No,SBD,Wraps,M,O,1957-04-10,90,213,,,213,,121,,,121,,246,,,246,,580,11
Andrey Latushkin,Андрей Латушкин,90,No,SBD,Wraps,M,O,1976-08-12,88.4,220,-230,-230,220,,-145,-150,-150,,,,,,,,,DQ
Vladimir Oleksenko,Владимир Олексенко,90,No,SBD,Wraps,M,M (40 - 44),1971-11-12,88.3,-190,190,200,200,,-160,165,-170,165,,240,250,255,255,,620,1
Vitaliy Kulikov,Виталий Куликов,90,No,SBD,Wraps,M,M (40 - 44),1971-01-11,88.2,-160,165,-175,165,,-125,-125,125,125,,190,200,210,210,,500,2
Aleksandr Tsvetkov,Александр Цветков,90,No,SBD,Wraps,M,M (55 - 59),1957-04-10,90,200,210,213,213,,-110,115,121,121,,220,240,246,246,,580,1
Aleksandr Zagorodnikov,Александр Загородников,100,No,SBD,Wraps,M,J (20 - 23),1989-04-27,95.6,230,240,-247.5,240,,162.5,170,172.5,172.5,,265,275,280,280,,692.5,1
Aleksey Agarzaev,Алексей Агарзаев,100,No,SBD,Wraps,M,J (20 - 23),1990-06-21,98.6,-200,200,210,210,,150,160,-170,160,,250,260,-265,260,,630,2
Sergey Rumyantsev,Сергей Румянцев,100,No,SBD,Wraps,M,J (20 - 23),1990-08-14,93.8,210,-220,-220,210,,-140,140,150,150,,190,-200,,190,,550,4
Vitaliy Bobrov,Виталий Бобров,100,No,SBD,Wraps,M,O,1980-01-01,99.1,280,300,320.5,320.5,,205,215,-222.5,215,,290,310,325,325,,860,1
Sergey Rumyantsev,Сергей Румянцев,100,No,SBD,Wraps,M,O,1965-08-28,92.85,255,,,255,,200,,,200,,290,,,290,,745,2
Viktor Kalugin,Виктор Калугин,100,No,SBD,Wraps,M,O,1978-05-22,93.6,-240,-240,240,240,,170,-177.5,,170,,310,325,-335,325,,735,3
Ilya Ushkov,Илья Ушков,100,No,SBD,Wraps,M,O,1975-06-23,97.1,250,260,-267.5,260,,160,170,-177.5,170,,260,270,-280,270,,700,4
Aleksandr Gudoshnikov,Александр Гудошников,100,No,SBD,Wraps,M,O,1987-05-07,93.5,-210,210,220,220,,160,170,-180,170,,240,260,-280,260,,650,6
Roman Artamonov,Роман Артамонов,100,No,SBD,Wraps,M,O,1974-07-01,98.5,210,220,,220,,165,172.5,177.5,177.5,,-230,230,240,240,,637.5,8
Anton Yashchuk,Антон Ящук,100,No,SBD,Wraps,M,O,1980-12-20,97.1,-180,200,210,210,,-150,-155,155,155,,200,230,250,250,,615,11
Aleksey Popov,Алексей Попов,100,No,SBD,Wraps,M,O,1968-12-13,99,-240,-245,-250,,,,,,,,,,,,,,DQ
Sergey Rumyantsev,Сергей Румянцев,100,No,SBD,Wraps,M,M (45 - 49),1965-08-28,92.85,250,255,,255,,190,200,,200,,290,,,290,,745,1
Sergey Kuznetsov,Сергей Кузнецов,100,No,SBD,Wraps,M,M (45 - 49),1965-06-12,99.1,180,190,-195,190,,-130,-130,130,130,,190,200,210,210,,530,2
Nikolay Borisov,Николай Борисов,100,No,SBD,Wraps,M,M (50 - 54),1962-01-05,91.9,155,160,165,165,,-100,-105,110,110,,170,190,200,200,,475,1
Roman Denikaev,Роман Деникаев,100,No,SBD,Wraps,M,M (55 - 59),1955-06-06,98,-120,130,150,150,,-110,-110,115,115,,-150,160,-170,160,,425,1
Ivan Zevyakin,Иван Зевякин,110,No,SBD,Wraps,M,J (20 - 23),1988-06-28,107,-270,290,295,295,,180,190,-195,190,,290,305,315,315,,800,1
Vitaliy Mashkevich,Виталий Машкевич,110,No,SBD,Wraps,M,J (20 - 23),1989-08-18,108.4,202.5,215,-227.5,215,,165,-175,-175,165,,200,215,225,225,,605,2
Marat Savosin,Марат Савосин,110,No,SBD,Wraps,M,J (20 - 23),1990-10-23,102.3,-210,,,,,,,,,,,,,,,,DQ
Denis Rodyakin,Денис Родякин,110,No,SBD,Wraps,M,O,1988-03-30,104.7,280,302.5,-315,302.5,,180,185,-187.5,185,,290,310,-330,310,,797.5,2
Artem Kobanov,Артем Кобанов,110,No,SBD,Wraps,M,O,1992-01-10,105.1,260,275,-282.5,275,,180,192.5,202.5,202.5,205,-275,275,-302.5,275,,752.5,3
Semen Aliev,Семен Алиев,110,No,SBD,Wraps,M,O,1987-08-13,107.7,200,207.5,-212.5,207.5,,140,150,,150,,230,242.5,252.5,252.5,,610,8
Gennadiy Margolin,Геннадий Марголин,110,No,SBD,Wraps,M,O,1981-09-15,110,190,-200,-210,190,,120,130,-135,130,,170,185,195,195,,515,11
Aleksandr Teterin,Александр Тетерин,110,No,SBD,Wraps,M,O,1974-11-15,102,140,150,160,160,,100,-107.5,107.5,107.5,,210,230,242.5,242.5,,510,12
Ilya Samoylov,Илья Самойлов,110,No,SBD,Wraps,M,O,1983-12-25,105.3,220,225,-232.5,225,,-180,-185,-185,,,,,,,,,DQ
Dmitriy Kiselev,Дмитрий Киселев,110,No,SBD,Wraps,M,M (40 - 44),1972-04-05,106.25,140,150,160,160,,140,152.5,160,160,,220,235,247.5,247.5,,567.5,1
Arkadiy Latsogin,Аркадий Лацогин,110,No,SBD,Wraps,M,M (45 - 49),1963-05-25,104.3,210,230,240,240,,150,165,172.5,172.5,,190,225,-240,225,,637.5,1
Renat Akhmetov,Ренат Ахметов,110,No,SBD,Wraps,M,M (50 - 54),1961-05-20,109,220,240,250,250,,160,170,175,175,,275,300,310,310,,735,1
Ilya Shaburov,Илья Шабуров,125,No,SBD,Wraps,M,J (20 - 23),1990-05-15,123.6,-230,230,240,240,,190,-202.5,202.5,202.5,,290,300,-310,300,,742.5,1
Sergey Daragan,Сергей Дараган,125,No,SBD,Wraps,M,O,1978-11-12,124.5,240,260,270,270,,180,190,200,200,,320,340,350,350,,820,1
Yakov Berman,Яков Берман,125,No,SBD,Wraps,M,O,1972-06-22,111.45,230,245,260,260,,200,210,-220,210,,280,300,-310,300,,770,2
Dmitriy Smirnov,Дмитрий Смирнов,125,No,SBD,Wraps,M,O,1978-11-18,120.3,250,260,-265,260,,190,197.5,-202.5,197.5,,270,285,295,295,,752.5,5
Igor Karpunin,Игорь Карпунин,125,No,SBD,Wraps,M,O,1978-05-19,124.3,240,-260,-260,240,,-185,190,200,200,,240,265,-290,265,,705,6
Aleksey Oleshko,Алексей Олешко,125,No,SBD,Wraps,M,O,1980-06-03,112.4,180,200,220,220,,180,-190,192.5,192.5,,215,225,-242.5,225,,637.5,8
Valeriy Fedotov,Валерий Федотов,125,No,SBD,Wraps,M,M (50 - 54),1961-06-22,118.8,200,-210,210,210,,152.5,162.5,-172.5,162.5,,200,210,220,220,,592.5,1
Aleksandr Volkov,Александр Волков,140,No,SBD,Wraps,M,O,1975-02-17,126.6,275,285,290,290,,180,-190,190,190,,285,295,,295,,775,1
Kirill Aleskovskiy,Кирилл Алесковский,140,No,SBD,Wraps,M,O,1974-06-19,137.5,210,,,210,,150,-160,160,160,,225,235,245,245,,615,3
Aleksandr Burlakov,Александр Бурлаков,140,No,SBD,Wraps,M,M (50 - 54),1959-01-07,128.4,200,210,220,220,,165,180,-190,180,,215,230,240,240,,640,1
Dmitriy Antipov,Дмитрий Антипов,140+,No,SBD,Wraps,M,O,1979-07-02,179.4,-270,282.5,295,295,,180,192.5,200,200,,272.5,-287.5,290,290,,785,1
Roza Ovechkina,Роза Овечкина,52,No,SBD,Multi-ply,F,O,1980-06-24,52,130,140,-150,140,,-70,70,75,75,,120,130,135,135,,350,1
Světlana Veselova,Светлана Веселова,56,No,SBD,Multi-ply,F,O,1987-09-19,55.7,90,-100,100,100,,-50,50,-60,50,,90,100,110,110,,260,2
Yulia Medvedeva,Юлия Медведева,75,No,SBD,Multi-ply,F,O,1979-07-08,73.1,-240,-240,240,240,,165,-183.5,-183.5,165,,-210,210,,210,,615,1
Alisaman Abasov,Алисаман Абасов,82.5,No,SBD,Multi-ply,M,J (20 - 23),1988-07-25,81.6,260,270,285,285,,-180,-180,180,180,,250,260,-270,260,,725,1
Dmitriy Osipov,Дмитрий Осипов,82.5,No,SBD,Multi-ply,M,O,1987-05-31,81.4,-270,-280,-280,,,,,,,,-260,,,,,,DQ
Sergey Khazarov,Сергей Хазаров,90,No,SBD,Multi-ply,M,T (16-17),1994-09-20,85.85,-175,-175,-190,,,,,,,,,,,,,,DQ
Ilya Sementsov,Илья Семенцов,90,No,SBD,Multi-ply,M,J (20 - 23),1990-01-20,86.3,210,220,230,230,,-140,-140,140,140,,220,235,-250,235,,605,3
Dmitriy Duskryadchenko,Дмитрий Дускрядченко,90,No,SBD,Multi-ply,M,J (20 - 23),1991-12-01,90,220,230,240,240,,-170,-170,-170,,,,,,,,,DQ
Valeriy Kozlovskiy,Валерий Козловский,90,No,SBD,Multi-ply,M,O,1982-10-08,89.2,250,-265,-265,250,,-190,190,200,200,,220,-240,-240,220,,670,1
Dmitriy Zaytsev,Дмитрий Зайцев,90,No,SBD,Multi-ply,M,O,1981-04-01,88.5,182.5,190,,190,,142.5,150,157.5,157.5,,167.5,180,190,190,,537.5,3
Aleksey Kurkov,Алексей Курков,100,No,SBD,Multi-ply,M,O,1976-03-29,99.85,230,-245,245,245,,155,165,-170,165,,215,235,245,245,,655,2
Sergey Mironov,Сергей Миронов,100,No,SBD,Multi-ply,M,O,1987-07-18,92.7,-290,,,,,,,,,,-290,,,,,,DQ
Oleg Pastukhov,Олег Пастухов,100,No,SBD,Multi-ply,M,M (40 - 44),1970-08-07,97.1,-280,280,290,290,,-175,175,-180,175,,270,280,-290,280,,745,1
Aleksandr Krovikov,Александр Кровиков,100,No,SBD,Multi-ply,M,M (50 - 54),1961-09-26,95.35,200,210,220,220,,150,160,-170,160,,210,250,-270,250,,630,1
Nikolay Yashin,Николай Яшин,110,No,SBD,Multi-ply,M,T (16-17),1995-12-19,105.9,160,180,200,200,,140,-160,-160,140,,140,160,180,180,,520,1
Pavel Sudakov,Павел Судаков,110,No,SBD,Multi-ply,M,J (20 - 23),1991-07-12,100.25,230,255,,255,,200,-205,205,205,207.5,250,275,-300,275,,735,1
Mikhail Tsatsulin,Михаил Цацулин,110,No,SBD,Multi-ply,M,O,1988-01-13,106.3,360,-375,375,375,,260,-270,-270,260,,-330,330,365,365,,1000,1
Vladimir Svinarchuk,Владимир Свинарчук,110,No,SBD,Multi-ply,M,O,1983-08-30,106.45,280,290,,290,,260,-270,270,270,,250,265,-275,265,,825,3
Ilya Sidelnikov,Илья Сидельников,110,No,SBD,Multi-ply,M,O,1984-03-17,104.1,-320,-330,-330,,,,,,,,-300,,,,,,DQ
Vadim Pavlyuk,Вадим Павлюк,110,No,SBD,Multi-ply,M,M (45 - 49),1966-01-02,107.15,270,285,-300,285,,180,192.5,-202.5,192.5,,220,235,,235,,712.5,1
Vitaliy Makagonov,Виталий Макагонов,125,No,SBD,Multi-ply,M,O,1964-02-03,113,315,,,315,,235,,,235,,265,,,265,,815,1
Igor Potapov,Игорь Потапов,125,No,SBD,Multi-ply,M,O,1987-06-26,115.05,210,240,270,270,,160,180,-190,180,,210,240,255,255,,705,4
Sergey Kirilin,Сергей Кирилин,125,No,SBD,Multi-ply,M,O,1985-10-12,112.5,270,-280,290,290,,-220,-220,-225,,,,,,,,,DQ
Vitaliy Makagonov,Виталий Макагонов,125,No,SBD,Multi-ply,M,M (45 - 49),1964-02-03,113,280,300,315,315,,220,-240,-240,220,,250,260,265,265,,800,1
Marina Medvedeva,Марина Медведева,60,No,D,Single-ply,F,O,1974-09-05,57.9,,,,,,,,,,,150,160,170,170,,170,1
Yulia Medvedeva,Юлия Медведева,82.5,No,D,Single-ply,F,O,1979-07-08,77.3,,,,,,,,,,,,,,,,,DQ
Vasiliy Tsvetkov,Василий Цветков,82.5,No,D,Single-ply,M,O,1981-07-05,76.45,,,,,,,,,,,245,260,275,275,,275,1
Maksim Tomchin,Максим Томчин,82.5,No,D,Single-ply,M,O,1980-11-13,81.45,,,,,,,,,,,140,160,180,180,,180,2
Sergey Sokolovskiy,Сергей Соколовский,90,No,D,Single-ply,M,O,1976-08-03,88.3,,,,,,,,,,,300,310,-320,310,,310,1
Dmitriy Zaytsev,Дмитрий Зайцев,90,No,D,Single-ply,M,O,1981-04-01,88.9,,,,,,,,,,,,,,,,,DQ
Yuriy Ustinov,Юрий Устинов,100,No,D,Single-ply,M,O,1975-05-10,96,,,,,,,,,,,260,280,302.5,302.5,,302.5,1
Sergey Vatolin,Сергій Ватолін,100,No,D,Single-ply,M,O,1985-02-26,93.55,,,,,,,,,,,-200,200,-240,200,,200,3
Ilya Luchnikov,Илья Лучников,110,No,D,Single-ply,M,O,1974-03-11,108.9,,,,,,,,,,,290,315,-325,315,,315,1
Aleksandr Evsyutkin,Александр Евсюткин,110,No,D,Single-ply,M,O,1988-03-07,102.1,,,,,,,,,,,200,215,230,230,,230,2
Elena Sorokina,Елена Сорокина,44,No,B,Raw,F,O,1985-04-29,42,,,,,,55,-60,-60,55,,,,,,,55,1
Nikolay Zastupaev,Николай Заступаев,52,No,B,Raw,M,O,1984-03-31,40,,,,,,65,70,-72.5,70,,,,,,,70,2
Yuriy Klochkov,Юрий Клочков,56,No,B,Raw,M,M (70 - 74),1942-01-16,54.5,,,,,,70,75,80,80,-82.5,,,,,,80,1
Roman Shchekleev,Роман Щеклеев,75,No,B,Raw,M,J (20 - 23),1989-08-27,72.6,,,,,,135,145,-160,145,,,,,,,145,3
Aleksandr Tishunin,Александр Тишунин,75,No,B,Raw,M,J (20 - 23),1989-10-16,73.6,,,,,,112.5,117.5,125,125,,,,,,,125,9
Dmitriy Ivankov,Дмитрий Иванков,75,No,B,Raw,M,J (20 - 23),1989-06-08,74.8,,,,,,-125,125,-130,125,,,,,,,125,10
Dmitriy Kukharenko,Дмитрий Кухаренко,75,No,B,Raw,M,O,1969-01-22,74.7,,,,,,172.5,,,172.5,,,,,,,172.5,1
Ivan Karangin,Иван Карангин,75,No,B,Raw,M,O,1985-09-17,74.8,,,,,,150,157.5,-165,157.5,,,,,,,157.5,3
Konstantin Zhigulin,Константин Жигулин,75,No,B,Raw,M,O,1987-10-03,75,,,,,,145,155,-162.5,155,,,,,,,155,4
Aleksandr Koryavko,Александр Корявко,75,No,B,Raw,M,O,1982-09-01,74.6,,,,,,145,152.5,-160,152.5,,,,,,,152.5,5
Nikolay Petrokovich,Николай Петрокович,75,No,B,Raw,M,O,1979-08-17,75,,,,,,-140,140,-145,140,,,,,,,140,11
Dmitriy Kukharenko,Дмитрий Кухаренко,75,No,B,Raw,M,M (40 - 44),1969-01-22,74.7,,,,,,160,167.5,172.5,172.5,-175,,,,,,172.5,1
Nikolay Ionov,Николай Ионов,75,No,B,Raw,M,M (60 - 64),1949-05-20,71.9,,,,,,80,90,100,100,,,,,,,100,1
Yuriy Chepets,Юрий Чепец,75,No,B,Raw,M,M (65 - 69),1943-04-19,74.9,,,,,,127.5,132.5,137.5,137.5,,,,,,,137.5,1
Mikhail Yashin,Михаил Яшин,82.5,No,B,Raw,M,T (16-17),1994-11-05,79.4,,,,,,110,-117.5,120,120,,,,,,,120,1
Andrey Zakharov,Андрей Захаров,82.5,No,B,Raw,M,T (18 - 19),1992-12-11,82.5,,,,,,135,145,150,150,,,,,,,150,1
Andrey Putyatin,Андрей Путятин,82.5,No,B,Raw,M,J (20 - 23),1991-06-20,81.1,,,,,,140,150,155,155,,,,,,,155,2
Aleksey Khvatov,Алексей Хватов,82.5,No,B,Raw,M,O,1968-10-08,81.3,,,,,,190,197.5,200,200,,,,,,,200,1
Grigoriy Denisov,Григорий Денисов,82.5,No,B,Raw,M,O,1981-08-30,81.9,,,,,,160,170,-172.5,170,,,,,,,170,4
Vyacheslav Khorev,Вячеслав Хорев,82.5,No,B,Raw,M,O,1976-12-27,82.5,,,,,,155,-160,-160,155,,,,,,,155,7
Rinat Sultanov,Ринат Султанов,82.5,No,B,Raw,M,O,1984-09-24,81.9,,,,,,140,-147.5,147.5,147.5,,,,,,,147.5,10
Grigoriy Skuba,Григорий Скуба,82.5,No,B,Raw,M,O,1978-10-25,80.1,,,,,,125,-135,-135,125,,,,,,,125,15
Konstantin Gausman,Константин Гаусман,82.5,No,B,Raw,M,O,1973-10-15,79.7,,,,,,-200,,,,,,,,,,,DQ
Grigoriy Bondarev,Григорий Бондарев,82.5,No,B,Raw,M,M (40 - 44),1971-08-10,79,,,,,,135,-147.5,-147.5,135,,,,,,,135,1
Valeriy Andriyanov,Валерий Андриянов,82.5,No,B,Raw,M,M (40 - 44),1968-08-12,82,,,,,,-197.5,-197.5,-197.5,,,,,,,,,DQ
Vasiliy Vologdin,Василий Вологдин,90,No,B,Raw,M,J (20 - 23),1988-12-12,89.5,,,,,,130,-145,-150,130,,,,,,,130,8
Aleksey Blintsov,Алексей Блинцов,90,No,B,Raw,M,O,1980-03-13,84.2,,,,,,185,195,-200,195,,,,,,,195,1
Sergey Popov,Сергей Попов,90,No,B,Raw,M,O,1974-05-31,88.8,,,,,,195,-200,-200,195,,,,,,,195,2
Nikolay Sarafanov,Николай Сарафанов,90,No,B,Raw,M,O,1983-11-16,89.4,,,,,,175,185,192.5,192.5,,,,,,,192.5,4
Artem Arkhipov,Артем Архипов,90,No,B,Raw,M,O,1982-03-24,83.3,,,,,,180,185,-190,185,,,,,,,185,5
Aleksandr Belskikh,Александр Бельских,90,No,B,Raw,M,O,1987-12-13,86,,,,,,185,-195,-195,185,,,,,,,185,6
Maksim Isachenko,Максим Исаченко,90,No,B,Raw,M,O,1985-10-07,89,,,,,,170,180,-185,180,,,,,,,180,8
Timur Danilin,Тимур Данилин,90,No,B,Raw,M,O,1978-07-17,85.7,,,,,,-175,-180,-190,,,,,,,,,DQ
Valeriy Smirnov,Валерий Смирнов,90,No,B,Raw,M,O,1980-08-09,87.1,,,,,,-180,-180,-180,,,,,,,,,DQ
Oleg Nikolaev,Олег Николаев,90,No,B,Raw,M,O,1989-06-20,88.9,,,,,,-190,-190,-190,,,,,,,,,DQ
Aleksey Melnikov,Алексей Мельников,90,No,B,Raw,M,O,1987-10-22,89.4,,,,,,-157.5,-157.5,,,,,,,,,,DQ
Vladimir Fateev,Владимир Фатеев,90,No,B,Raw,M,M (45 - 49),1964-08-01,84,,,,,,150,155,-160,155,,,,,,,155,2
Suren Kochumyan,Сурен Кочумян,90,No,B,Raw,M,M (50 - 54),1960-06-24,86.8,,,,,,117.5,120,122.5,122.5,,,,,,,122.5,3
Aleksandr Vdovushkin,Александр Вдовушкин,90,No,B,Raw,M,M (55 - 59),1956-11-04,88,,,,,,125,135,140,140,,,,,,,140,2
Anton Bogdanov,Антон Богданов,100,No,B,Raw,M,J (20 - 23),1988-07-12,97.2,,,,,,185,190,-195,190,,,,,,,190,1
Vsevolod Ryazanov,Всеволод Рязанов,100,No,B,Raw,M,J (20 - 23),1990-08-11,96.7,,,,,,180,-190,,180,,,,,,,180,2
Yuriy Belkov,Юрий Бельков,100,No,B,Raw,M,O,1987-01-05,98.65,,,,,,210,220,-225,220,,,,,,,220,1
Roman Koryabkin,Роман Корябкин,100,No,B,Raw,M,O,1979-04-30,99.3,,,,,,200,220,-225,220,,,,,,,220,2
Vadim Rezvykh,Вадим Резвых,100,No,B,Raw,M,O,1987-10-09,91.9,,,,,,205,215,-225,215,,,,,,,215,3
Aleksandr Pagin,Александр Пагин,100,No,B,Raw,M,O,1978-04-26,96.8,,,,,,200,-205,205,205,,,,,,,205,5
Nikolay Alyshev,Николай Алышев,100,No,B,Raw,M,O,1985-10-14,97.9,,,,,,185,195,200,200,,,,,,,200,6
Roman Anpilogov,Роман Анпилогов,100,No,B,Raw,M,O,1980-07-14,99.9,,,,,,200,-205,-207.5,200,,,,,,,200,7
Sergey Prudnikov,Сергей Прудников,100,No,B,Raw,M,O,1981-03-31,100,,,,,,195,200,-205,200,,,,,,,200,8
Vladimir Zavyalov,Владимир Завьялов,100,No,B,Raw,M,O,1983-12-08,93.7,,,,,,180,-190,190,190,,,,,,,190,10
Denis Plotnikov,Денис Плотников,100,No,B,Raw,M,O,1978-03-27,97.8,,,,,,180,-190,190,190,,,,,,,190,11
Nikolay Burmistrov,Николай Бурмистров,100,No,B,Raw,M,O,1980-01-22,99.9,,,,,,-185,190,,190,,,,,,,190,12
Dmitriy Nosov,Дмитрий Носов,100,No,B,Raw,M,O,1971-03-14,97.2,,,,,,180,-190,-190,180,,,,,,,180,13
Evgeniy Fedosov,Евгений Федосов,100,No,B,Raw,M,O,1981-07-09,96.1,,,,,,-170,170,-190,170,,,,,,,170,16
Alberto Rakhmanov,Альберто Рахманов,100,No,B,Raw,M,O,1986-12-27,97,,,,,,165,-180,-180,165,,,,,,,165,19
Andrey Maksimkin,Андрей Максимкин,100,No,B,Raw,M,O,1973-05-25,100,,,,,,165,-175,,165,,,,,,,165,20
Petr Sharkov,Петр Шарков,100,No,B,Raw,M,O,1983-04-29,95.9,,,,,,160,-170,-170,160,,,,,,,160,21
Igor Shinov,Игорь Шинов,100,No,B,Raw,M,M (40 - 44),1970-06-17,97.2,,,,,,165,175,-180,175,,,,,,,175,1
Aleksandr Dmitriev,Александр Дмитриев,100,No,B,Raw,M,M (45 - 49),1964-08-01,97.8,,,,,,150,160,165,165,,,,,,,165,2
Evgeniy Uskov,Евгений Усков,100,No,B,Raw,M,M (45 - 49),1964-01-18,97.9,,,,,,145,150,155,155,,,,,,,155,3
Vitaliy Ponomarev,Виталий Пономарев,100,No,B,Raw,M,M (55 - 59),1957-02-17,96.1,,,,,,180,190,-200,190,,,,,,,190,1
Aleksey Belosludtsev,Алексей Белослудцев,110,No,B,Raw,M,J (20 - 23),1988-10-19,105.2,,,,,,180,190,200,200,-205.5,,,,,,200,1
Sergey Sladkovskiy,Сергей Сладковский,110,No,B,Raw,M,O,1974-09-15,105.9,,,,,,220,227.5,-232.5,227.5,,,,,,,227.5,2
Sergey Ponomarev,Сергей Пономарев,110,No,B,Raw,M,O,1982-03-05,107.5,,,,,,-225,225,-232.5,225,,,,,,,225,3
Aleksandr Kazmin,Александр Казьмин,110,No,B,Raw,M,O,1977-04-05,108.1,,,,,,205,215,217.5,217.5,,,,,,,217.5,4
Dmitriy Semenin,Дмитрий Семенин,110,No,B,Raw,M,O,1983-12-09,108.6,,,,,,207.5,212.5,-220,212.5,,,,,,,212.5,5
Aleksandr Abazov,Александр Абазов,110,No,B,Raw,M,O,1984-07-10,110,,,,,,200,-205,205,205,,,,,,,205,7
Evgeniy Spirkin,Евгений Спиркин,110,No,B,Raw,M,O,1987-11-14,110,,,,,,-195,-195,195,195,,,,,,,195,9
Vadim Maslennikov,Вадим Масленников,110,No,B,Raw,M,O,1985-08-18,107.5,,,,,,190,-197.5,-197.5,190,,,,,,,190,10
Dmitriy Starovoytov,Дмитрий Старовойтов,110,No,B,Raw,M,O,1977-08-02,108,,,,,,-185,185,-197.5,185,,,,,,,185,11
Roman Efimov,Роман Ефимов,110,No,B,Raw,M,O,1975-02-09,108.8,,,,,,172.5,180,-185,180,,,,,,,180,14
Igor Lipachev,Игорь Липачев,110,No,B,Raw,M,M (40 - 44),1968-04-07,104.2,,,,,,210,217.5,-227.5,217.5,,,,,,,217.5,1
Vladimir Omelkov,Владимир Омельков,110,No,B,Raw,M,M (40 - 44),1970-05-10,103.6,,,,,,-160,160,-170,160,,,,,,,160,4
Mikhail Petrov,Михаил Петров,110,No,B,Raw,M,M (45 - 49),1963-04-30,104.8,,,,,,190,-200,-200,190,,,,,,,190,1
Renat Akhmetov,Ренат Ахметов,110,No,B,Raw,M,M (50 - 54),1961-05-20,107.9,,,,,,160,-170,170,170,,,,,,,170,1
Roman Knishchuk,Роман Книщук,125,No,B,Raw,M,O,1975-11-22,116.3,,,,,,225,240,245,245,,,,,,,245,1
Roman Strelkov,Роман Стрелков,125,No,B,Raw,M,O,1969-08-25,121.4,,,,,,230,237.5,-240,237.5,,,,,,,237.5,2
Aleksandr Borodin,Александр Бородин,125,No,B,Raw,M,O,1976-04-18,121.4,,,,,,220,230,-235,230,,,,,,,230,3
Anton Matveev,Антон Матвеев,125,No,B,Raw,M,O,1971-05-18,117.8,,,,,,220,-232.5,-235,220,,,,,,,220,4
Sergey Zimin,Сергей Зимин,125,No,B,Raw,M,O,1972-02-14,123.6,,,,,,217.5,,,217.5,,,,,,,217.5,5
Yuriy Romanov,Юрій Романов,125,No,B,Raw,M,O,1983-01-08,119.3,,,,,,200,-210,210,210,,,,,,,210,8
Evgeniy Vasilev,Евгений Васильев,125,No,B,Raw,M,O,1982-04-09,121.1,,,,,,200,-210,-212.5,200,,,,,,,200,10
Sergey Zimin,Сергей Зимин,125,No,B,Raw,M,M (40 - 44),1972-02-14,123.6,,,,,,210,217.5,-222.5,217.5,,,,,,,217.5,1
Dmitry Shvedov-Viardo,Дмитрий Шведов-Виардо,125,No,B,Raw,M,M (40 - 44),1968-07-01,117.9,,,,,,180,190,-192.5,190,,,,,,,190,2
Aleksandr Dorokhov,Александр Дорохов,125,No,B,Raw,M,M (40 - 44),1968-05-07,122.9,,,,,,-170,-170,-170,,,,,,,,,DQ
Aleksey Chernysh,Алексей Черныш,125,No,B,Raw,M,M (45 - 49),1967-05-10,110.5,,,,,,175,-185,190,190,,,,,,,190,2
Andrey Fayustov,Андрей Фаюстов,125,No,B,Raw,M,M (50 - 54),1961-12-12,116.5,,,,,,190,200,207.5,207.5,,,,,,,207.5,1
Mikhail Nikolaev,Михаил Николаев,125,No,B,Raw,M,M (50 - 54),1961-05-27,121.2,,,,,,207.5,-215,-215,207.5,,,,,,,207.5,2
Evgeniy Dmitriev,Евгений Дмитриев,125,No,B,Raw,M,M (70 - 74),1940-08-18,118.8,,,,,,-140,-140,140,140,,,,,,,140,1
Bogdan Kozak,Богдан Козак,140,No,B,Raw,M,O,1984-04-05,126.8,,,,,,240,250,-255,250,,,,,,,250,1
Igor Lomov,Игорь Ломов,140,No,B,Raw,M,O,1970-10-29,134,,,,,,230,,,230,,,,,,,230,2
Sergey Kolesnichenko,Сергей Колесниченко,140,No,B,Raw,M,O,1979-11-19,129.1,,,,,,220,-227.5,-227.5,220,,,,,,,220,3
Aleksey Shishov,Алексей Шишов,140,No,B,Raw,M,O,1973-03-21,132,,,,,,200,-210,210,210,,,,,,,210,4
Dmitriy Kuleshov,Дмитрий Кулешов,140,No,B,Raw,M,O,1977-06-17,126.2,,,,,,190,-200,-200,190,,,,,,,190,5
Igor Lomov,Игорь Ломов,140,No,B,Raw,M,M (40 - 44),1970-10-29,134,,,,,,-230,-230,230,230,,,,,,,230,1
Roman Polyakov,Роман Поляков,140+,No,B,Raw,M,O,1975-10-30,177.3,,,,,,260,280,290,290,,,,,,,290,1
Sergey Kushchev,Сергей Кущев,140+,No,B,Raw,M,O,1967-10-21,144.55,,,,,,252.5,,,252.5,,,,,,,252.5,2
Sergey Kushchev,Сергей Кущев,140+,No,B,Raw,M,M (40 - 44),1967-10-21,144.55,,,,,,-240,240,252.5,252.5,-265,,,,,,252.5,1
Marina Medvedeva,Марина Медведева,60,No,B,Multi-ply,F,O,1974-09-05,57.9,,,,,,100,110,-115,110,,,,,,,110,1
Elena Sheverdina,Елена Шевердина,75,No,B,Multi-ply,F,M (40 - 44),1968-02-14,74.8,,,,,,167.5,-172.5,175,175,182.5,,,,,,175,1
Sergey Sverbilov,Сергей Свербилов,67.5,No,B,Multi-ply,M,J (20 - 23),1988-09-02,62,,,,,,117.5,-122.5,-122.5,117.5,,,,,,,117.5,1
Stanislav Bykov,Станислав Быков,75,No,B,Multi-ply,M,J (20 - 23),1989-10-26,75,,,,,,160,170,-180,170,,,,,,,170,1
Konstantin Zhigulin,Константин Жигулин,75,No,B,Multi-ply,M,O,1987-10-03,75,,,,,,-180,180,-190,180,,,,,,,180,1
Bogdan Gutsalo,Богдан Гуцало,82.5,No,B,Multi-ply,M,O,1981-06-10,82.1,,,,,,-160,-160,160,160,,,,,,,160,4
Igor Kuimov,Игорь Куимов,82.5,No,B,Multi-ply,M,M (45 - 49),1962-07-28,80.5,,,,,,215,-225,-232.5,215,,,,,,,215,1
Artur Nigmatullin,Артур Нигматуллин,90,No,B,Multi-ply,M,T (16-17),1994-07-17,88.45,,,,,,180,190,200,200,,,,,,,200,1
Igor Kalita,Игорь Калита,90,No,B,Multi-ply,M,O,1982-06-23,90,,,,,,245,250,-255,250,,,,,,,250,1
Pavel Leonov,Павел Леонов,90,No,B,Multi-ply,M,O,1983-11-08,85.6,,,,,,-210,220,-230,220,,,,,,,220,2
Anton Bogdanov,Антон Богданов,100,No,B,Multi-ply,M,J (20 - 23),1988-07-12,97.2,,,,,,-185,,,,,,,,,,,DQ
Emin Galib Ogly Mamedov,Емин Галиб Оглы Мамедов,100,No,B,Multi-ply,M,O,1974-08-31,98.3,,,,,,300,310,320,320,,,,,,,320,1
Roman Anpilogov,Роман Анпилогов,100,No,B,Multi-ply,M,O,1980-07-14,99.9,,,,,,270,280,-295,280,,,,,,,280,2
Sergey Rukavishnikov,Сергей Рукавишников,100,No,B,Multi-ply,M,O,1988-04-17,99.6,,,,,,-245,-245,-245,,,,,,,,,DQ
Grigoriy Lysov,Григорий Лысов,100,No,B,Multi-ply,M,O,1976-03-23,99.6,,,,,,,,,,,,,,,,,DQ
Mikhail Shchegolkov,Михаил Щегольков,100,No,B,Multi-ply,M,M (40 - 44),1972-04-17,95,,,,,,250,260,-270,260,,,,,,,260,1
Yaroslav Golubev,Ярослав Голубев,110,No,B,Multi-ply,M,O,1980-02-02,108.5,,,,,,280,290,-300,290,,,,,,,290,1
Mikhail Royanov,Михаил Роянов,110,No,B,Multi-ply,M,O,1977-03-04,103,,,,,,180,-195,197.5,197.5,,,,,,,197.5,5
Sergey Permyakov,Сергей Пермяков,110,No,B,Multi-ply,M,O,1983-09-09,104,,,,,,-290,-290,-295,,,,,,,,,DQ
Sergey Gromov,Сергей Громов,110,No,B,Multi-ply,M,M (45 - 49),1966-09-02,106,,,,,,-260,260,270,270,,,,,,,270,1
Sergey Mavrenkov,Сергей Мавренков,110,No,B,Multi-ply,M,M (45 - 49),1966-11-05,101,,,,,,180,195,-200,195,,,,,,,195,2
Roman Brekhov,Роман Брехов,125,No,B,Multi-ply,M,J (20 - 23),1990-02-24,112.2,,,,,,250,-260,-260,250,,,,,,,250,1
Viktor Naydenov,Виктор Найденов,125,No,B,Multi-ply,M,O,1987-01-25,122.8,,,,,,380,-400,407.5,407.5,,,,,,,407.5,1
Dmitriy Gorbachev,Дмитрий Горбачев,125,No,B,Multi-ply,M,O,1970-03-06,112.7,,,,,,315,,,315,,,,,,,315,2
Roman Zalutskiy,Роман Залуцкий,125,No,B,Multi-ply,M,O,1979-01-31,124.1,,,,,,275,285,-300,285,,,,,,,285,3
Roman Brekhov,Роман Брехов,125,No,B,Multi-ply,M,O,1990-02-24,112.2,,,,,,250,,,250,,,,,,,250,4
Arseniy Novikov,Арсений Новиков,125,No,B,Multi-ply,M,O,1986-02-03,112.9,,,,,,195,205,-215,205,,,,,,,205,5
Dmitriy Gorbachev,Дмитрий Горбачев,125,No,B,Multi-ply,M,M (40 - 44),1970-03-06,112.7,,,,,,-315,-315,315,315,,,,,,,315,1
Dmitry Shvedov-Viardo,Дмитрий Шведов-Виардо,125,No,B,Multi-ply,M,M (40 - 44),1968-07-01,117.9,,,,,,210,215,220,220,,,,,,,220,2
Mikhail Nikolaev,Михаил Николаев,125,No,B,Multi-ply,M,M (50 - 54),1961-05-27,121.2,,,,,,240,250,-260,250,,,,,,,250,1
Yuriy Kholodov,Юрий Холодов,140,No,B,Multi-ply,M,O,1982-01-07,137.9,,,,,,285,295,302.5,302.5,,,,,,,302.5,1
Vladimir Shmyrin,Владимир Шмырин,140,No,B,Multi-ply,M,O,1984-05-13,131.1,,,,,,-275,-280,-280,,,,,,,,,DQ
Natalya Konchakova,Наталья Кончакова,52,Yes,D,Raw,F,O,1977-08-14,50.3,,,,,,,,,,,115,122.5,127.5,127.5,,127.5,1
Olga Churilova,Ольга Чурилова,52,Yes,D,Raw,F,O,1977-10-29,51.7,,,,,,,,,,,-115,115,,115,,115,2
Elizaveta Golumbovskaya,Елизавета Голумбовская,56,Yes,D,Raw,F,J (20 - 23),1989-11-27,55.1,,,,,,,,,,,80,92.5,-105,92.5,,92.5,1
Mariya Yultsova,Мария Юльцова,56,Yes,D,Raw,F,O,1982-09-13,56,,,,,,,,,,,122.5,-130,-130,122.5,,122.5,1
Anastasiya Mayboroda,Анастасия Майборода,56,Yes,D,Raw,F,O,1987-10-28,55.4,,,,,,,,,,,65,72.5,-80,72.5,,72.5,2
Elena Bugakova,Елена Бугакова,67.5,Yes,D,Raw,F,O,1985-01-14,66,,,,,,,,,,,-110,110,117.5,117.5,,117.5,1
Elizaveta Sprogis,Елизавета Спрогис,82.5,Yes,D,Raw,F,O,1977-08-24,76.4,,,,,,,,,,,140,150,155,155,,155,1
Irina Borisova,Ирина Борисова,82.5,Yes,D,Raw,F,O,1987-09-01,77.5,,,,,,,,,,,120,130,-140,130,,130,2
Aleksandr Semenov,Александр Семенов,56,Yes,D,Raw,M,O,1972-08-05,54.4,,,,,,,,,,,100,120,125,125,,125,1
Ivan Kyurkchu,Иван Кюркчу,60,Yes,D,Raw,M,J (20 - 23),1989-08-16,57.5,,,,,,,,,,,160,172.5,-180,172.5,,172.5,1
Vitaliy Penkov,Виталий Пеньков,60,Yes,D,Raw,M,J (20 - 23),1992-04-23,58.6,,,,,,,,,,,100,120,-130,120,,120,2
Ivan Klorku,Иван Клорку,60,Yes,D,Raw,M,J (20 - 23),1989-08-16,57.5,,,,,,,,,,,,,,,,,DQ
Sergey Pustomolotov,Сергей Пустомолотов,60,Yes,D,Raw,M,O,1979-11-29,60,,,,,,,,,,,112.5,122.5,132.5,132.5,,132.5,1
Ilya Serov,Илья Серов,67.5,Yes,D,Raw,M,T (16-17),1995-11-03,64.9,,,,,,,,,,,155,165,175,175,,175,1
Roman Postnikov,Роман Постников,67.5,Yes,D,Raw,M,T (18 - 19),1992-11-18,66.3,,,,,,,,,,,205,217.5,-225,217.5,,217.5,1
Kirill Cherepanov,Кирилл Черепанов,67.5,Yes,D,Raw,M,J (20 - 23),1991-10-23,65.8,,,,,,,,,,,130,165,175,175,,175,1
Roman Khalaydzhi,Роман Халайджи,67.5,Yes,D,Raw,M,J (20 - 23),1990-05-14,67.1,,,,,,,,,,,-160,165,175,175,,175,2
Georgiy Dubrovin,Георгий Дубровин,75,Yes,D,Raw,M,T (13-15),1997-11-12,70.05,,,,,,,,,,,-160,170,177.5,177.5,,177.5,1
Ilya Filin,Илья Филин,75,Yes,D,Raw,M,J (20 - 23),1988-08-16,72.3,,,,,,,,,,,-205,-205,205,205,,205,1
Farid Musazade,Фарид Мусазаде,75,Yes,D,Raw,M,J (20 - 23),1989-06-20,74.3,,,,,,,,,,,150,177.5,-185,177.5,,177.5,2
Ruzel Khabibullin,Рузель Хабибуллин,75,Yes,D,Raw,M,O,1983-12-08,74.65,,,,,,,,,,,205,240,265,265,,265,1
Nikolay Balugin,Николай Балугин,75,Yes,D,Raw,M,O,1987-07-24,74.3,,,,,,,,,,,-215,215,220,220,,220,2
Pervin Ismailov,Первин Исмаилов,75,Yes,D,Raw,M,O,1986-04-19,73,,,,,,,,,,,-205,-210,210,210,,210,3
Sergey Tsoy,Сергей Цой,75,Yes,D,Raw,M,O,1987-09-18,74.1,,,,,,,,,,,170,185,195,195,,195,4
Aleksey Levashov,Алексей Левашов,75,Yes,D,Raw,M,O,1978-08-19,71.05,,,,,,,,,,,160,170,177.5,177.5,,177.5,5
Vladimir Kulakov,Владимир Кулаков,75,Yes,D,Raw,M,M (55 - 59),1955-12-24,75,,,,,,,,,,,120,127.5,,127.5,,127.5,1
Kirill Starostin,Кирилл Старостин,82.5,Yes,D,Raw,M,T (16-17),1996-04-09,80,,,,,,,,,,,142.5,-152.5,-162.5,142.5,,142.5,1
Aleksey Chichkanov,Алексей Чичканов,82.5,Yes,D,Raw,M,T (18 - 19),1992-07-23,80.6,,,,,,,,,,,170,185,-195,185,,185,1
Sergey Semchenko,Сергей Семченко,82.5,Yes,D,Raw,M,T (18 - 19),1993-06-09,79.7,,,,,,,,,,,127.5,150,162.5,162.5,,162.5,2
Evgeniy Bulakhtin,Евгений Булахтин,82.5,Yes,D,Raw,M,J (20 - 23),1992-05-10,78.7,,,,,,,,,,,235,245,-262.5,245,,245,1
Denis Khayrullin,Денис Хайруллин,82.5,Yes,D,Raw,M,J (20 - 23),1990-12-16,81.9,,,,,,,,,,,190,215,220,220,,220,2
Mikhail Charov,Михаил Чаров,82.5,Yes,D,Raw,M,J (20 - 23),1989-02-01,76.3,,,,,,,,,,,-185,190,-200,190,,190,3
Timofey Moskalev,Тимофей Москалев,82.5,Yes,D,Raw,M,J (20 - 23),1992-02-09,81.65,,,,,,,,,,,185,-200,,185,,185,4
Nikolay Ustinov,Николай Устинов,82.5,Yes,D,Raw,M,O,1980-06-04,80.55,,,,,,,,,,,-230,-245,245,245,,245,2
Andrey Chernyshov,Андрей Чернышов,82.5,Yes,D,Raw,M,O,1975-03-06,79.1,,,,,,,,,,,210,222.5,-227.5,222.5,,222.5,4
Ivan Beskaravaynyy,Иван Бескаравайный,82.5,Yes,D,Raw,M,O,1981-08-30,81.3,,,,,,,,,,,215,-230,-230,215,,215,5
Konstantin Yashin,Константин Яшин,82.5,Yes,D,Raw,M,O,1987-07-12,80.5,,,,,,,,,,,200,-220,-220,200,,200,6
Yuriy Kubyshkin,Юрий Кубышкин,82.5,Yes,D,Raw,M,O,1984-04-02,82.3,,,,,,,,,,,185,195,-200,195,,195,7
Anatoliy Rylov,Анатолий Рылов,82.5,Yes,D,Raw,M,O,1986-06-27,80.5,,,,,,,,,,,177.5,185,192.5,192.5,,192.5,8
Andrey Zhuravlyov,Андрей Журавлёв,82.5,Yes,D,Raw,M,O,1978-07-26,81.3,,,,,,,,,,,-185,185,-215,185,,185,9
Alexey Romanov,Алексей Романов,82.5,Yes,D,Raw,M,O,1986-02-05,79.5,,,,,,,,,,,-175,175,-185,175,,175,10
Aleksey Pavlov,Алексей Павлов,82.5,Yes,D,Raw,M,M (40 - 44),1970-10-28,82.05,,,,,,,,,,,215,225,-230,225,,225,1
Vadim Zhilin,Вадим Жилин,82.5,Yes,D,Raw,M,M (40 - 44),1968-08-23,81.8,,,,,,,,,,,165,175,-185,175,,175,2
Evgeniy Zhurkin,Евгений Журкин,82.5,Yes,D,Raw,M,M (65 - 69),1945-02-13,81.3,,,,,,,,,,,130,140,145,145,,145,1
Vladislav Sannikov,Владислав Санников,82.5,Yes,D,Raw,M,M (70 - 74),1938-05-16,79.1,,,,,,,,,,,125,130,,130,,130,1
Maksim Matros,Максим Матрос,90,Yes,D,Raw,M,T (18 - 19),1992-08-22,86.6,,,,,,,,,,,235,255,265,265,,265,1
Anton Dolgirev,Антон Долгирев,90,Yes,D,Raw,M,J (20 - 23),1992-01-13,85.9,,,,,,,,,,,225,230,240,240,,240,1
Vasiliy Kopev,Василий Копьев,90,Yes,D,Raw,M,J (20 - 23),1991-02-08,83.35,,,,,,,,,,,175,185,195,195,,195,2
Aleksandr Krivov,Александр Кривов,90,Yes,D,Raw,M,J (20 - 23),1988-06-27,86,,,,,,,,,,,160,170,-187.5,170,,170,3
Vladimir Orlov,Владимир Орлов,90,Yes,D,Raw,M,O,1977-11-07,87.7,,,,,,,,,,,245,-255,255,255,,255,3
Sergey Larionov,Сергей Ларионов,90,Yes,D,Raw,M,O,1975-05-14,89.9,,,,,,,,,,,245,255,-260,255,,255,4
Aleksandr Shukalov,Александр Шукалов,90,Yes,D,Raw,M,O,1985-02-12,85.6,,,,,,,,,,,-237.5,245,-255,245,,245,5
Aleksandr Drozdov,Александр Дроздов,90,Yes,D,Raw,M,O,1980-02-09,86.8,,,,,,,,,,,-210,-210,210,210,,210,6
Anton Morozov,Антон Морозов,90,Yes,D,Raw,M,O,1989-07-11,86,,,,,,,,,,,-175,180,-190,180,,180,8
Maksim Katkov,Максим Катков,90,Yes,D,Raw,M,O,1987-05-01,86.6,,,,,,,,,,,155,170,-180,170,,170,9
Dmitriy Gorelikov,Дмитрий Гореликов,90,Yes,D,Raw,M,M (40 - 44),1968-06-23,83.9,,,,,,,,,,,195,205,215,215,,215,1
Anatoliy Terekhov,Анатолий Терехов,90,Yes,D,Raw,M,M (40 - 44),1971-03-20,88.75,,,,,,,,,,,185,195,200,200,,200,2
Mikhail Aleksakov,Михаил Алексаков,90,Yes,D,Raw,M,M (55 - 59),1954-12-04,89.3,,,,,,,,,,,170,180,185,185,,185,1
Aleksandr Nemchinov,Александр Немчинов,90,Yes,D,Raw,M,M (60 - 64),1951-11-10,88.55,,,,,,,,,,,-255,255,,255,,255,1
Sergey Gramotkin,Сергей Грамоткин,90,Yes,D,Raw,M,M (60 - 64),1952-05-23,89.95,,,,,,,,,,,160,-170,-180,160,,160,2
Evgeniy Misak,Евгений Мисак,100,Yes,D,Raw,M,T (16-17),1995-04-28,91.5,,,,,,,,,,,160,177.5,,177.5,,177.5,1
Mikhail Dubrovin,Михаил Дубровин,100,Yes,D,Raw,M,O,1977-07-29,98.65,,,,,,,,,,,270,280,-290,280,,280,2
Dmitriy Kurinov,Дмитрий Куринов,100,Yes,D,Raw,M,O,1974-04-08,95.1,,,,,,,,,,,-267.5,267.5,-272.5,267.5,,267.5,3
Pavel Samsonov,Павел Самсонов,100,Yes,D,Raw,M,O,1972-12-08,96.6,,,,,,,,,,,-202.5,202.5,-212.5,202.5,,202.5,6
Nikita Tulyakov,Никита Туляков,100,Yes,D,Raw,M,O,1988-02-23,97,,,,,,,,,,,177.5,185,192.5,192.5,,192.5,7
Aleksey Ventsov,Алексей Венцов,110,Yes,D,Raw,M,O,1981-04-22,110,,,,,,,,,,,290,312.5,322.5,322.5,,322.5,1
Konstantin Morozov,Константин Морозов,110,Yes,D,Raw,M,O,1984-10-23,102.3,,,,,,,,,,,312.5,-320,-320,312.5,,312.5,2
Sergey Povstanyuk,Сергей Повстанюк,110,Yes,D,Raw,M,O,1985-07-24,107.7,,,,,,,,,,,210,220,-225,220,,220,6
Aleksandr Titov,Александр Титов,110,Yes,D,Raw,M,O,1977-09-03,106.7,,,,,,,,,,,200,210,215,215,,215,7
Aleksey Belash,Алексей Белаш,110,Yes,D,Raw,M,O,1982-03-31,106.4,,,,,,,,,,,200,210,-220,210,,210,8
Anton Chistyukhin,Антон Чистюхин,110,Yes,D,Raw,M,O,1975-10-03,107.9,,,,,,,,,,,190,200,207.5,207.5,,207.5,9
Valeriy Sytnikov,Валерий Сытников,110,Yes,D,Raw,M,M (40 - 44),1970-02-28,110,,,,,,,,,,,215,230,-240,230,,230,1
Aleksandr Tsygankov,Александр Цыганков,110,Yes,D,Raw,M,M (45 - 49),1965-07-05,104.4,,,,,,,,,,,250,-275,275,275,,275,1
Yuriy Shantsyn,Юрий Шанцын,110,Yes,D,Raw,M,M (60 - 64),1949-02-21,108.4,,,,,,,,,,,180,190,-205,190,,190,1
Valeriy Orlov,Валерий Орлов,110,Yes,D,Raw,M,M (60 - 64),1950-10-27,106.9,,,,,,,,,,,100,110,120,120,,120,2
Konstantin Agureev,Константин Агуреев,125,Yes,D,Raw,M,O,1975-02-06,120.7,,,,,,,,,,,250,260,270,270,,270,1
Andrey Shmorgun,Андрей Шморгун,125,Yes,D,Raw,M,O,1984-11-20,118.5,,,,,,,,,,,250,260,-270,260,,260,2
Stanislav Averyanov,Станислав Аверьянов,125,Yes,D,Raw,M,O,1986-12-15,116,,,,,,,,,,,190,215,-230,215,,215,3
Sergey Zefirov,Сергей Зефиров,125,Yes,D,Raw,M,M (40 - 44),1971-10-24,118.15,,,,,,,,,,,230,247.5,-250,247.5,,247.5,1
Pavel Mishin,Павел Мишин,140,Yes,D,Raw,M,O,1973-07-04,132.65,,,,,,,,,,,-255,255,275,275,,275,1
Sergey Kananadze,Сергей Кананадзе,140,Yes,D,Raw,M,O,1979-07-15,132.8,,,,,,,,,,,-240,-240,-240,,,,DQ
Natalya Konchakova,Наталья Кончакова,48,Yes,SBD,Wraps,F,O,1977-08-14,48,-90,-92.5,92.5,92.5,98,45,50,-55,50,,110,117.5,122.5,122.5,,265,1
Ekaterina Baykova,Екатерина Байкова,52,Yes,SBD,Wraps,F,O,1988-05-05,51.05,75,80,85,85,,45,-50,50,50,,90,105,110,110,,245,1
Polina Babakova,Полина Бабакова,52,Yes,SBD,Wraps,F,O,1987-06-03,49.9,85,92.5,-97.5,92.5,,45,-50,-50,45,,95,-102.5,102.5,102.5,,240,2
Irina Karpova,Ирина Карпова,56,Yes,SBD,Wraps,F,J (20 - 23),1989-12-01,55.5,70,77.5,82.5,82.5,,45,50,-52.5,50,,70,75,80,80,,212.5,1
Mariya Yultsova,Мария Юльцова,56,Yes,SBD,Wraps,F,O,1982-09-13,56,75,77.5,80,80,,52.5,55,-57.5,55,,115,122.5,,122.5,,257.5,1
Irina Lapshova,Ирина Лапшова,56,Yes,SBD,Wraps,F,M (45 - 49),1964-03-13,53.4,65,-70,70,70,,55,60,-62.5,60,,80,87.5,92.5,92.5,,222.5,1
Yuliya Borisova,Юлия Борисова,60,Yes,SBD,Wraps,F,J (20 - 23),1989-11-16,56.1,95,100,-105,100,,60,65,-67.5,65,,115,125,135,135,,300,1
Yuliya Borisova,Юлия Борисова,60,Yes,SBD,Wraps,F,O,1989-11-16,56.1,95,100,-105,100,,60,65,-67.5,65,,115,125,135,135,,300,1
Natalya Korolevskaya,Наталья Королевская,60,Yes,SBD,Wraps,F,O,1976-03-22,60,-70,75,80,80,,45,-50,-50,45,,90,100,105,105,,230,2
Olga Timoshchenko,Ольга Тимощенко,60,Yes,SBD,Wraps,F,O,1985-12-12,59.45,57.5,60,65,65,,52.5,55,-57.5,55,,90,100,-102.5,100,,220,3
Svetlana Rumyantseva,Светлана Румянцева,67.5,Yes,SBD,Wraps,F,O,1988-05-16,67.2,140,-145,-145,140,,85,92.5,95,95,,140,147.5,,147.5,,382.5,2
Elena Bugakova,Елена Бугакова,67.5,Yes,SBD,Wraps,F,O,1985-01-14,65.8,-80,-87.5,-87.5,,,,,,,,,,,,,,DQ
Tatyana Ukhlina,Татьяна Ухлина,67.5,Yes,SBD,Wraps,F,M (40 - 44),1971-07-19,62.2,115,120,125,125,,60,-65,-65,60,,-115,120,125,125,,310,1
Elena Galkina,Елена Галкина,75,Yes,SBD,Wraps,F,O,1978-08-14,72.25,72.5,77.5,82.5,82.5,,60,62.5,-65,62.5,,102.5,107.5,112.5,112.5,,257.5,1
Elena Davydova,Елена Давыдова,75,Yes,SBD,Wraps,F,O,1973-12-29,73.55,-65,65,-70,65,,47.5,-50,-50,47.5,,100,110,-120,110,,222.5,2
Alla Pugovkina,Алла Пуговкина,82.5,Yes,SBD,Wraps,F,O,1975-12-12,80.9,-120,120,-127.5,120,,82.5,-87.5,87.5,87.5,,130,-140,140,140,,347.5,1
Irina Borisova,Ирина Борисова,82.5,Yes,SBD,Wraps,F,O,1987-09-01,77.5,85,90,95,95,,-50,52.5,57.5,57.5,,115,122.5,130,130,,282.5,2
Nikolay Grachev,Николай Грачев,52,Yes,SBD,Wraps,M,M (55 - 59),1956-04-16,51.7,85,90,92.5,92.5,96,60,67.5,,67.5,,130,137.5,,137.5,,297.5,1
Sergey Volodarskiy,Сергей Володарский,60,Yes,SBD,Wraps,M,J (20 - 23),1989-08-21,57.2,135,145,150,150,,102.5,107.5,-110,107.5,,165,-175,182.5,182.5,,440,1
Aleksey Stepanov,Алексей Степанов,67.5,Yes,SBD,Wraps,M,T (16-17),1996-05-22,63.7,105,115,-120,115,,65,70,-75,70,,120,130,140,140,,325,1
Roman Postnikov,Роман Постников,67.5,Yes,SBD,Wraps,M,T (18 - 19),1992-11-18,64.9,160,170,-177.5,170,,100,-105,105,105,,205,215,221,221,-225,496,1
Dmitriy Shcherbak,Дмитрий Щербак,67.5,Yes,SBD,Wraps,M,T (18 - 19),1992-09-07,66.65,110,117.5,122.5,122.5,,-82.5,82.5,87.5,87.5,,130,140,145,145,,355,2
Maksim Shramkov,Максим Шрамков,67.5,Yes,SBD,Wraps,M,J (20 - 23),1988-12-16,66.55,-100,-105,105,105,,80,-90,90,90,,115,130,147.5,147.5,,342.5,1
Yuriy Nikitchenko,Юрий Никитченко,67.5,Yes,SBD,Wraps,M,O,1977-06-27,65,180,190,200,200,,110,115,-120,115,,180,-190,,180,,495,1
Georgiy Dubrovin,Георгий Дубровин,75,Yes,SBD,Wraps,M,T (13-15),1997-11-12,68.65,130,140,-145,140,,100,105,-110.5,105,,160,170,,170,,415,1
Viktor Chragyan,Виктор Чрагян,75,Yes,SBD,Wraps,M,T (13-15),1997-11-17,72.2,110,120,130,130,,80,92.5,-100,92.5,,140,150,-162.5,150,,372.5,2
Rinat Khusainov,Ринат Хусаинов,75,Yes,SBD,Wraps,M,T (18 - 19),1993-02-24,73.35,150,155,-165,155,,115,-120,120,120,,175,185,200,200,,475,2
Pavel Belousov,Павел Белоусов,75,Yes,SBD,Wraps,M,T (18 - 19),1994-05-24,74.05,-120,-125,127.5,127.5,,82.5,90,-95,90,,145,155,165,165,,382.5,3
Georgiy Sharangiya,Георгий Шарангия,75,Yes,SBD,Wraps,M,T (18 - 19),1992-08-31,72.25,130,135,-137.5,135,,-102.5,-102.5,-102.5,,,-162.5,,,,,,DQ
Aleksey Emelyanov,Алексей Емельянов,75,Yes,SBD,Wraps,M,O,1983-02-25,71.3,170,180,190,190,,145,147.5,150,150,,210,220,-227.5,220,,560,2
Vitaliy Gulyaev,Виталий Гуляев,75,Yes,SBD,Wraps,M,O,1977-05-27,72.8,180,190,195,195,,120,122.5,125,125,,200,210,217.5,217.5,,537.5,3
Nikolay Balugin,Николай Балугин,75,Yes,SBD,Wraps,M,O,1987-07-24,73.5,170,175,180,180,,120,125,-127.5,125,,215,222.5,227.5,227.5,,532.5,4
Pavel Shchetinin,Павел Щетинин,75,Yes,SBD,Wraps,M,O,1987-09-24,71.85,180,185,-190,185,,-125,125,127.5,127.5,,190,200,-220,200,,512.5,5
Igor Bogachev,Игорь Богачев,75,Yes,SBD,Wraps,M,O,1977-08-03,75,150,160,170,170,,125,135,-140,135,,165,175,180,180,,485,6
Ruslan Kurilekh,Руслан Курилех,75,Yes,SBD,Wraps,M,O,1983-01-04,73.85,-130,130,140,140,,105,110,115,115,,160,170,180,180,,435,7
Vladimir Kulakov,Владимир Кулаков,75,Yes,SBD,Wraps,M,M (55 - 59),1955-12-24,75,105,112.5,,112.5,,90,97.5,102.5,102.5,,125,132.5,140,140,,355,1
German Barabanov,Герман Барабанов,75,Yes,SBD,Wraps,M,M (70 - 74),1940-01-28,71.3,115,121,122.5,122.5,,90,101,-105,101,,140,155,162.5,162.5,,386,1
Aleksandr Bukharin,Александр Бухарин,82.5,Yes,SBD,Wraps,M,T (13-15),1999-02-22,75.5,100,-110,-110,100,,80,85,87.5,87.5,,100,115,120,120,,307.5,1
Aleksandr Tikhonov,Александр Тихонов,82.5,Yes,SBD,Wraps,M,T (18 - 19),1994-04-30,78.5,110,120,-125,120,,-92.5,92.5,-100,92.5,,160,170,-180,170,,382.5,1
Aleksandr Savitskiy,Александр Савицкий,82.5,Yes,SBD,Wraps,M,J (20 - 23),1990-11-09,80.7,190,197.5,-202.5,197.5,,115,125,130,130,,200,212.5,222.5,222.5,,550,2
Dmitriy Chuzhakov,Дмитрий Чужаков,82.5,Yes,SBD,Wraps,M,J (20 - 23),1989-10-10,79.7,-180,-180,180,180,,115,120,122.5,122.5,,220,230,-240,230,,532.5,3
Aleksandr Shabrov,Александр Шабров,82.5,Yes,SBD,Wraps,M,J (20 - 23),1991-02-07,76.95,185,195,-205,195,,120,-125,-125,120,,200,215,-230,215,,530,4
Anton Nelyapin,Антон Неляпин,82.5,Yes,SBD,Wraps,M,J (20 - 23),1990-03-26,81.25,-160,-160,160,160,,140,-145,-145,140,,200,210,225,225,,525,5
Aleksandr Kurtsaev,Александр Курцаев,82.5,Yes,SBD,Wraps,M,J (20 - 23),1989-03-29,80.9,170,-175,-175,170,,-115,115,-120,115,,210,-220,-220,210,,495,6
Maksim Osipov,Максим Осипов,82.5,Yes,SBD,Wraps,M,J (20 - 23),1989-06-18,82.1,145,155,160,160,,115,120,-130,120,,175,190,-200,190,,470,7
Aleksandr Brichkov,Александр Бричков,82.5,Yes,SBD,Wraps,M,J (20 - 23),1990-07-30,81.35,-150,155,-165,155,,125,130,135,135,,165,175,-185,175,,465,8
Maksim Portnov,Максим Портнов,82.5,Yes,SBD,Wraps,M,J (20 - 23),1989-07-08,80.8,140,145,-150,145,,125,-130,-130,125,,-170,170,-185,170,,440,9
Timofey Moskalev,Тимофей Москалев,82.5,Yes,SBD,Wraps,M,J (20 - 23),1992-02-09,80.4,130,140,-155,140,,100,110,-117.5,110,,185,-195,-205,185,,435,10
Nikolay Morgunov,Николай Моргунов,82.5,Yes,SBD,Wraps,M,J (20 - 23),1989-11-11,81.25,-140,140,145,145,,-90,90,-95,90,,180,190,-200,190,,425,11
Timur Tkhamokov,Тимур Тхамоков,82.5,Yes,SBD,Wraps,M,O,1982-03-04,81.95,215,225,-235,225,,140,-145,-145,140,,250,-265,-265,250,,615,3
Aleksey Kraynichuk,Алексей Крайничук,82.5,Yes,SBD,Wraps,M,O,1988-06-02,82.45,190,200,-207.5,200,,-147.5,147.5,-152.5,147.5,,232.5,245,-255,245,,592.5,5
Dmitriy Shelukhin,Дмитрий Шелухин,82.5,Yes,SBD,Wraps,M,O,1985-05-01,81.75,180,190,200,200,,130,140,145,145,,200,215,222.5,222.5,,567.5,8
Grigoriy Yudin,Григорий Юдин,82.5,Yes,SBD,Wraps,M,O,1985-06-06,78.65,205,210,-215,210,,135,-142.5,-142.5,135,,185,-192.5,,185,,530,10
Pavel Panchenko,Павел Панченко,82.5,Yes,SBD,Wraps,M,O,1981-08-24,79.25,170,180,-190,180,,125,135,-140,135,,170,185,200,200,,515,12
Aleksandr Abramov,Александр Абрамов,82.5,Yes,SBD,Wraps,M,O,1978-12-17,79.25,-160,-165,170,170,,120,125,130,130,,195,205,210,210,,510,13
Andrey Karpov,Андрей Карпов,82.5,Yes,SBD,Wraps,M,O,1985-09-12,80.05,150,157.5,160,160,,-115,115,120,120,,175,-182.5,182.5,182.5,,462.5,14
Andrey Kolchenogov,Андрей Колченогов,82.5,Yes,SBD,Wraps,M,O,1985-08-06,82.2,147.5,150,152.5,152.5,,122.5,125,-127.5,125,,170,177.5,180,180,,457.5,15
Alexey Romanov,Алексей Романов,82.5,Yes,SBD,Wraps,M,O,1986-02-05,80.15,-160,160,-175,160,,-100,110,-115,110,,-175,177.5,-190,177.5,,447.5,16
Yuriy Bonachev,Юрий Боначев,82.5,Yes,SBD,Wraps,M,O,1986-11-24,80,115,-130,135,135,,90,-110,110,110,,120,140,160,160,,405,17
Andrey Kulikov,Андрей Куликов,82.5,Yes,SBD,Wraps,M,O,1984-05-06,76.5,-150,-155,-155,,,,,,,,,,,,,,DQ
Dmitriy Timofeev,Дмитрий Тимофеев,82.5,Yes,SBD,Wraps,M,O,1987-02-21,77.8,215,220,-225,220,,-150,-150,-150,,,,,,,,,DQ
Sergey Kozlikin,Сергей Козликин,82.5,Yes,SBD,Wraps,M,O,1979-05-30,80.55,-180,-180,-180,,,,,,,,,,,,,,DQ
Nikolay Belokurov,Николай Белокуров,82.5,Yes,SBD,Wraps,M,M (55 - 59),1955-11-29,82.5,100,107.5,112.5,112.5,,77.5,82.5,85,85,,140,150,162.5,162.5,,360,2
Vyacheslav Chevordaev,Вячеслав Чевордаев,82.5,Yes,SBD,Wraps,M,M (60 - 64),1948-04-06,81.65,172.5,182.5,187.5,187.5,,92.5,-97.5,97.5,97.5,-100,205,215,222.5,222.5,225,507.5,1
Vladimir Tkachenko,Владимир Ткаченко,82.5,Yes,SBD,Wraps,M,M (65 - 69),1945-07-18,81.75,180,-190,-190,180,,102.5,-107.5,-107.5,102.5,,185,197.5,202.5,202.5,,485,1
Valeriy Antipov,Валерий Антипов,82.5,Yes,SBD,Wraps,M,M (65 - 69),1943-11-07,79.5,-110,110,117.5,117.5,,85,-90,-90,85,,-152.5,162.5,170,170,,372.5,2
Vladislav Sannikov,Владислав Санников,82.5,Yes,SBD,Wraps,M,M (70 - 74),1938-05-16,79.9,-100,100,107.5,107.5,,85,87.5,90,90,,125,130,,130,,327.5,1
Ivan Ivashkin,Иван Ивашкин,90,Yes,SBD,Wraps,M,T (16-17),1994-12-08,85.9,195,205,-215,205,,135,145,150,150,,210,230,-250,230,,585,2
Sergey Evdokimov,Сергей Евдокимов,90,Yes,SBD,Wraps,M,T (16-17),1994-10-20,86.5,90,100,110,110,,85,95,-100,95,,-135,145,152.5,152.5,,357.5,3
Dmitriy Bogdanov,Дмитрий Богданов,90,Yes,SBD,Wraps,M,T (18 - 19),1992-06-29,89,200,-215,215,215,-222.5,125,130,132.5,132.5,,-242.5,242.5,250,250,-253,597.5,1
Yuriy Kurapov,Юрий Курапов,90,Yes,SBD,Wraps,M,J (20 - 23),1990-08-29,85.7,160,175,182.5,182.5,,120,130,135,135,,210,220,225,225,,542.5,3
Dmitriy Shvedchenko,Дмитрий Шведченко,90,Yes,SBD,Wraps,M,J (20 - 23),1989-05-05,88.2,-180,180,-190,180,,130,135,-140,135,,205,215,-222.5,215,,530,4
Andrey Kocherga,Андрей Кочерга,90,Yes,SBD,Wraps,M,J (20 - 23),1991-06-29,86.1,-145,-155,155,155,,115,125,-130,125,,190,205,215,215,,495,5
Maksim Bolomozhnov,Максим Боломожнов,90,Yes,SBD,Wraps,M,J (20 - 23),1990-04-12,87.55,-180,-180,-180,,,,,,,,,,,,,,DQ
Mikhail Vasilevskiy,Михаил Василевский,90,Yes,SBD,Wraps,M,J (20 - 23),1991-01-21,88.75,-172.5,-172.5,-172.5,,,,,,,,,,,,,,DQ
Sergey Kolotvin,Сергей Колотвин,90,Yes,SBD,Wraps,M,O,1985-07-30,90,222.5,232.5,237.5,237.5,,190,200,-203,200,,275,288,293,293,-295.5,730,1
Nafal Dadashov,Нафал Дадашов,90,Yes,SBD,Wraps,M,O,1982-10-16,89,-200,210,-220,210,,160,-170,-170,160,,240,255,-260,255,,625,6
Aleksandr Shukalov,Александр Шукалов,90,Yes,SBD,Wraps,M,O,1985-02-12,85.6,217.5,-225,225,225,,127.5,132.5,135,135,,230,240,247.5,247.5,,607.5,7
Sergey Larionov,Сергей Ларионов,90,Yes,SBD,Wraps,M,O,1975-05-14,89.25,-175,-185,187.5,187.5,,135,145,150,150,,245,260,267.5,267.5,,605,8
Aleksandr Shuralev,Александр Шуралев,90,Yes,SBD,Wraps,M,O,1975-07-13,88.35,-200,200,-210,200,,-160,162.5,167.5,167.5,,220,230,-235,230,,597.5,9
Magomed Gasiev,Магомед Гасиев,90,Yes,SBD,Wraps,M,O,1983-02-14,89,175,187.5,200,200,,140,150,-162.5,150,,200,212.5,225,225,,575,12
Aleksandr Shustov,Александр Шустов,90,Yes,SBD,Wraps,M,O,1987-07-07,89.25,200,-210,-210,200,,120,125,-130,125,,210,220,230,230,,555,13
Aleksandr Silantev,Александр Силантьев,90,Yes,SBD,Wraps,M,O,1980-05-15,87.95,165,-175,180,180,,125,132.5,137.5,137.5,,200,210,220,220,,537.5,14
Ruslan Aliev,Руслан Алиев,90,Yes,SBD,Wraps,M,O,1981-01-05,88.5,160,175,180,180,,125,-135,-135,125,,175,190,-205,190,,495,15
Aleksey Vorotnikov,Алексей Воротников,90,Yes,SBD,Wraps,M,O,1980-10-08,87.9,185,-200,-200,185,,115,-125,-125,115,,-205,,,,,,DQ
Eldar Mamedov,Эльдар Мамедов,90,Yes,SBD,Wraps,M,O,1985-05-09,88.9,-200,-210,,,,,,,,,,,,,,,DQ
Zaur Soziev,Заур Созиев,90,Yes,SBD,Wraps,M,M (45 - 49),1966-01-19,89.75,230,-240,245,245,,-160,160,-165,160,,240,260,270,270,,675,1
Andrey Zakhartsev,Андрей Захарцев,90,Yes,SBD,Wraps,M,M (45 - 49),1966-04-08,87.85,180,192.5,200,200,,132.5,137.5,-140,137.5,,180,195,210,210,,547.5,2
Nikolay Dobrokhotov,Николай Доброхотов,90,Yes,SBD,Wraps,M,M (50 - 54),1957-09-04,88.95,175,185,,185,,135,142.5,-147.5,142.5,,205,220,230,230,,557.5,1
Sergey Kundus,Сергей Кундус,90,Yes,SBD,Wraps,M,M (55 - 59),1953-10-26,87.75,150,160,165,165,,115,-122.5,-122.5,115,,180,190,-200,190,,470,2
Mikhail Aleksakov,Михаил Алексаков,90,Yes,SBD,Wraps,M,M (55 - 59),1954-12-04,89.4,-115,115,-120,115,,112.5,120,122.5,122.5,,175,180,185,185,,422.5,3
Aleksandr Nemchinov,Александр Немчинов,90,Yes,SBD,Wraps,M,M (60 - 64),1951-11-10,89.5,156,160,165,165,170,120,125.5,-127.5,125.5,,183,-187.5,187.5,187.5,195,477.5,1
Evgeniy Zhurkin,Евгений Журкин,90,Yes,SBD,Wraps,M,M (65 - 69),1945-02-13,83.35,100,107.5,,107.5,,85,90,,90,,130,140,,140,,337.5,1
Evgeniy Misak,Евгений Мисак,100,Yes,SBD,Wraps,M,T (16-17),1995-04-28,91.55,140,150,-160,150,,90,95,97.5,97.5,,160,180,192.5,192.5,,440,1
Nikita Vinogradov,Никита Виноградов,100,Yes,SBD,Wraps,M,T (18 - 19),1993-06-06,94.4,185,192.5,-200,192.5,,120,127.5,-132.5,127.5,,220,235,-247.5,235,,555,1
Vladimir Muravev,Владимир Муравьев,100,Yes,SBD,Wraps,M,J (20 - 23),1990-12-20,100,200,215,220,220,,125,130,135,135,,230,250,-260,250,,605,3
Farkhod Khodzhaev,Фарход Ходжаев,100,Yes,SBD,Wraps,M,J (20 - 23),1988-07-18,94.9,-165,165,175,175,,140,-150,-150,140,,200,210,-220,210,,525,5
Egor Konovalov,Егор Коновалов,100,Yes,SBD,Wraps,M,J (20 - 23),1991-09-24,97.55,-185,-185,-185,,,,,,,,,,,,,,DQ
Konstantin Morozov,Константин Морозов,100,Yes,SBD,Wraps,M,O,1984-10-23,99.35,210,-220,-220,210,,170,180,-185,180,,300,,,300,,690,5
Aleksey Smirnov,Алексей Смирнов,100,Yes,SBD,Wraps,M,O,1977-09-20,98.25,200,210,220,220,,150,157.5,160,160,,-250,260,270,270,,650,7
Andrey Sukharev,Андрей Сухарев,100,Yes,SBD,Wraps,M,O,1974-07-22,98.5,225,232.5,237.5,237.5,,157.5,162.5,-167.5,162.5,,225,-235,235,235,,635,9
Arkadiy Denisov,Аркадий Денисов,100,Yes,SBD,Wraps,M,O,1987-06-12,98.2,215,225,230,230,,150,-155,155,155,,190,220,245,245,,630,10
Ilya Karmishin,Илья Кармишин,100,Yes,SBD,Wraps,M,O,1984-10-01,96.15,180,190,-195,190,,-155,165,-175,165,,180,195,-210,195,,550,12
Dmitriy Pavlovskiy,Дмитрий Павловский,100,Yes,SBD,Wraps,M,O,1988-02-01,95.85,175,185,195,195,,135,140,-145,140,,210,-230,-230,210,,545,13
Artem Bogdanov,Артем Богданов,100,Yes,SBD,Wraps,M,O,1983-05-08,96.9,155,165,175,175,,110,115,-120,115,,190,200,215,215,,505,14
Aleksandr Mishustin,Александр Мишустин,100,Yes,SBD,Wraps,M,M (45 - 49),1964-11-25,96.35,155,-170,170,170,,135,145,-147.5,145,,175,195,-205,195,,510,3
Dmitriy Sedov #1,Дмитрий Седов,110,Yes,SBD,Wraps,M,T (16-17),1995-05-26,104.9,-135,-140,140,140,,85,92.5,100,100,,170,185,-200,185,,425,1
Ilya Likhachev,Илья Лихачев,110,Yes,SBD,Wraps,M,J (20 - 23),1989-10-26,105.95,180,190,-200,190,,130,137.5,-142.5,137.5,,200,210,225,225,,552.5,3
Nikolai Fesaniuk,Николай Фесанюк,110,Yes,SBD,Wraps,M,O,1984-05-30,106.4,290,310,320,320,,170,180,190,190,,310,330,340,340,,850,1
Aleksandr Kablukov,Александр Каблуков,110,Yes,SBD,Wraps,M,O,1984-12-25,109.9,225,235,-245,235,,160,165,-167.5,165,,270,290,-300,290,,690,4
Valeriy Sabelnikov,Валерий Сабельников,110,Yes,SBD,Wraps,M,O,1971-08-13,107.4,230,245,-255,245,,160,170,177.5,177.5,,260,-280,-280,260,,682.5,5
Vasiliy Burnashov,Василий Бурнашов,110,Yes,SBD,Wraps,M,O,1977-11-28,103.7,220,232.5,240,240,,160,167.5,172.5,172.5,,242.5,260,-277.5,260,,672.5,6
Aleksey Koryakin,Алексей Корякин,110,Yes,SBD,Wraps,M,O,1988-04-12,104.9,210,-225,-225,210,,175,180,185,185,,210,230,-260,230,,625,7
Aleksandr Belikov,Александр Беликов,110,Yes,SBD,Wraps,M,O,1974-05-31,108.5,-200,200,205,205,,150,155,-160,155,,220,225,230,230,,590,9
Sergey Oleynikov,Сергей Олейников,110,Yes,SBD,Wraps,M,O,1981-10-01,108.05,180,185,190,190,,-150,152.5,-157.5,152.5,,200,210,220,220,,562.5,10
Yuriy Teltsov,Юрий Тельцов,110,Yes,SBD,Wraps,M,O,1982-11-11,110,-160,160,162.5,162.5,,110,-112.5,-112.5,110,,180,190,200,200,,472.5,13
Aleksandr Blinov,Александр Блинов,110,Yes,SBD,Wraps,M,O,1974-07-31,108.5,-200,,,,,-150,,,,,-220,,,,,,DQ
Svyatoslav Kotik,Святослав Котик,110,Yes,SBD,Wraps,M,M (40 - 44),1972-01-14,107.1,-200,-200,200,200,,150,-157.5,-157.5,150,,200,215,-225,215,,565,2
Aleksandr Shcherbak,Александр Щербак,110,Yes,SBD,Wraps,M,M (45 - 49),1966-11-27,108.25,185,195,202.5,202.5,,150,155,-160,155,,200,227.5,,227.5,,585,2
Egor Ermolaev,Егор Ермолаев,125,Yes,SBD,Wraps,M,T (16-17),1995-03-10,114.9,105,115,125,125,,65,75,80,80,,125,130,137.5,137.5,,342.5,1
Valentin Palchikov,Валентин Пальчиков,125,Yes,SBD,Wraps,M,J (20 - 23),1990-05-16,118.05,-215,220,-235,220,,152.5,162.5,-170,162.5,,210,-230,232.5,232.5,,615,2
Aleksandr Perov,Александр Перов,125,Yes,SBD,Wraps,M,O,1984-11-14,121.5,280,295,-300,295,,165,-175,-175,165,,290,300,-315,300,,760,3
Evgeniy Baranov,Евгений Баранов,125,Yes,SBD,Wraps,M,O,1982-07-28,118.7,250,265,280,280,,180,185,-190,185,,280,290,-300,290,,755,4
Dmitriy Krikov,Дмитрий Криков,125,Yes,SBD,Wraps,M,O,1980-09-27,124.5,220,-230,230,230,,170,175,180,180,,250,275,-285,275,,685,7
Aleksey Stepanchenko,Алексей Степанченко,125,Yes,SBD,Wraps,M,O,1988-04-23,120.3,190,205,-212.5,205,,135,142.5,147.5,147.5,,220,235,242.5,242.5,,595,9
Sergey Zefirov,Сергей Зефиров,125,Yes,SBD,Wraps,M,M (40 - 44),1971-10-24,118.75,210,225,230,230,,135,-150,152.5,152.5,,220,235,240,240,,622.5,1
Sergey Nikishin,Сергей Никишин,125,Yes,SBD,Wraps,M,M (40 - 44),1971-07-05,117.75,-210,-210,210,210,,150,160,-170,160,,210,225,-230,225,,595,2
Vladimir Chernyshov,Владимир Чернышов,125,Yes,SBD,Wraps,M,M (60 - 64),1948-09-06,117,165,180,190,190,,97.5,107.5,-112.5,107.5,,195,210,,210,,507.5,1
Aleksey Starshov-Klementev,Алексей Старшов-Клементьев,140,Yes,SBD,Wraps,M,O,1978-07-02,137.85,240,250,-262.5,250,,190,200,-207.5,200,,280,-290,290,290,,740,2
Igor Ivchenkov,Игорь Ивченков,140,Yes,SBD,Wraps,M,O,1980-04-23,128,240,250,265,265,,-200,-205,-205,,,,,,,,,DQ
Mariya Pustovit,Мария Пустовит,56,Yes,SBD,Multi-ply,F,O,1985-07-30,55,120,130,137.5,137.5,,-80,-80,82.5,82.5,,120,-130,-135,120,,340,1
Viktoriya Chumina,Виктория Чумина,67.5,Yes,SBD,Multi-ply,F,T (13-15),1998-11-11,67,130,-142.5,145,145,,65,-67.5,-67.5,65,,130,135,-140,135,,345,1
Kirill Galiev,Кирилл Галиев,67.5,Yes,SBD,Multi-ply,M,T (16-17),1994-09-25,65.95,120,140,-145,140,,60,,,60,,140,155,170,170,,370,1
Nikolay Savenkov,Николай Савенков,67.5,Yes,SBD,Multi-ply,M,T (18 - 19),1993-10-29,63.35,160,-170,170,170,,115,120,-122.5,120,,165,180,-185,180,,470,1
Aleksandr Rek,Александр Рек,67.5,Yes,SBD,Multi-ply,M,O,1987-07-13,66.95,215,230,-245.5,230,,-125,125,-130,125,,180,195,-202.5,195,,550,1
Aleksey Voloshchuk,Алексей Волощук,67.5,Yes,SBD,Multi-ply,M,O,1988-02-21,65.05,125,-135,-135,125,,-100,,,,,,,,,,,DQ
Sergey Gorbunov,Сергей Горбунов,75,Yes,SBD,Multi-ply,M,J (20 - 23),1991-11-13,74.9,190,200,-210,200,,130,135,-145,135,,220,-230,230,230,,565,1
Aleksandr Petrov,Александр Петров,75,Yes,SBD,Multi-ply,M,J (20 - 23),1990-12-27,73.4,170,190,-195,190,,130,-140,-140,130,,190,-210,215,215,,535,2
Maksim Tovstonog,Максим Товстоног,75,Yes,SBD,Multi-ply,M,O,1983-06-05,71.85,200,-220,-220,200,,155,165,-175,165,,200,220,-235,220,,585,1
Igor Filippov,Игорь Филиппов,75,Yes,SBD,Multi-ply,M,O,1984-10-05,70.85,150,165,175,175,,110,120,-130,120,,190,210,225,225,,520,2
Vladimir Kulakov,Владимир Кулаков,75,Yes,SBD,Multi-ply,M,M (55 - 59),1955-12-24,75,107.5,115,,115,,92.5,,,92.5,,125,132.5,,132.5,,340,1
Kirill Andreev,Кирилл Андреев,82.5,Yes,SBD,Multi-ply,M,T (16-17),1995-04-03,82.2,-200,200,212.5,212.5,,-130,132.5,-137.5,132.5,,215,228,-230,228,,572.5,1
Aleksandr Kozlov,Александр Козлов,82.5,Yes,SBD,Multi-ply,M,T (16-17),1994-08-28,78.1,160,167.5,172.5,172.5,,120,130,-140,130,,-195,195,-200,195,,497.5,2
Vladimir Kuvanov,Владимир Куванов,82.5,Yes,SBD,Multi-ply,M,J (20 - 23),1989-06-12,82.3,150,160,172.5,172.5,,190,-201,-201,190,,240,255,270,270,-281,632.5,2
Bakhruz Rakhmatov,Бахруз Рахматов,82.5,Yes,SBD,Multi-ply,M,J (20 - 23),1991-12-12,79.65,150,160,170,170,,100,,,100,,170,180,-190,180,,450,3
Vasiliy Fursa,Василий Фурса,82.5,Yes,SBD,Multi-ply,M,O,1979-08-05,82.05,280,-295,295,295,,170,-175,-175,170,,245,270,275,275,,740,1
Konstantin Sapunkov,Константин Сапунков,82.5,Yes,SBD,Multi-ply,M,O,1981-09-02,82.5,230,250,265,265,,180,200,-205.5,200,,225,237.5,247.5,247.5,,712.5,2
Vladislav Sannikov,Владислав Санников,82.5,Yes,SBD,Multi-ply,M,M (70 - 74),1938-05-16,79.95,100,107.5,112.5,112.5,,87.5,92.5,-97.5,92.5,,125,130,,130,,335,1
Evgeniy Pivovarov,Евгений Пивоваров,90,Yes,SBD,Multi-ply,M,J (20 - 23),1988-09-01,87.35,240,-250,255,255,,190,-200,200,200,,240,245,250,250,,705,1
Sergey Pisarev,Сергей Писарев,90,Yes,SBD,Multi-ply,M,J (20 - 23),1991-07-16,88.05,230,240,250,250,,140,-165,165,165,,220,230,-240,230,,645,2
Aleksandr Voropaev,Александр Воропаев,90,Yes,SBD,Multi-ply,M,O,1979-05-27,87.2,210,220,235,235,,120,-130,-130,120,,210,230,250,250,,605,2
Sergey Boldin,Сергей Болдин,90,Yes,SBD,Multi-ply,M,M (40 - 44),1971-05-31,86.95,165,175,-185,175,,145,150,155,155,,170,190,-195,190,,520,1
Igor Miroshnichenko,Игорь Мирошниченко,100,Yes,SBD,Multi-ply,M,J (20 - 23),1988-11-07,91.5,270,290,305,305,,190,205,210,210,,-260,260,270,270,,785,1
Bagdasar Agamalyan,Багдасар Агамалян,100,Yes,SBD,Multi-ply,M,O,1985-01-03,98.85,315,335,-350,335,,-210,210,,210,,260,275,290,290,-307.5,835,1
Roman Demin,Роман Демин,110,Yes,SBD,Multi-ply,M,O,1980-04-24,106.1,280,310,320,320,,200,-210,-210,200,,260,295,310,310,,830,2
Aleksey Dmitriev,Алексей Дмитриев,125,Yes,SBD,Multi-ply,M,O,1977-06-02,116.4,-310,310,-325,310,,-210,210,-225,210,,260,270,,270,,790,2
Pavel Shcheglov,Павел Щеглов,125,Yes,SBD,Multi-ply,M,O,1978-07-16,122.9,-312.5,-312.5,315,315,-335,215,-230,-230,215,,-240,240,-267.5,240,,770,3
