Place,Name,CyrillicName,BodyweightKg,Bench1Kg,Bench2Kg,Bench3Kg,TotalKg,WeightClassKg,Division,Sex,Event,Equipment,Tested,Squat1Kg,Squat2Kg,Squat3Kg,Deadlift1Kg,Deadlift2Kg,Deadlift3Kg,Best3SquatKg,Best3BenchKg,Best3DeadliftKg,BirthYear
1,Elizaveta Chernikova,Єлизавета Чернікова,42.5,-35,35,-37.5,35,44,Amateur Teen 13-15,F,B,Raw,Yes,,,,,,,,35,,1999
1,Nataliya Klez,Наталія Клезь,59.4,60,65,67.5,67.5,60,Amateur Teen 13-15,F,B,Raw,Yes,,,,,,,,67.5,,1998
1,Yuliya Gamurar,Юлія Гамурар,62.8,47.5,52.5,-57.5,52.5,67.5,Amateur Teen 13-15,F,B,Raw,Yes,,,,,,,,52.5,,1998
1,Mariya Zakhvatova,Марія Захватова,54.9,-40,42.5,-45,42.5,56,Amateur Teen 16-17,F,B,Raw,Yes,,,,,,,,42.5,,1995
1,Diana Korobova,Діана Коробова,58.8,47.5,52.5,-57.5,52.5,60,Amateur Teen 18-19,F,B,Raw,Yes,,,,,,,,52.5,,1994
1,Olga Grushevska,Ольга Грушевська,75,62.5,67.5,70,70,75,Amateur Juniors 20-23,F,B,Raw,Yes,,,,,,,,70,,1989
1,Irina Zadikiyan,Ірина Задікіян,41.4,27.5,-30,30,30,44,Amateur Open,F,B,Raw,Yes,,,,,,,,30,,1983
1,Anna Savon,Анна Савон,46.7,35,-37.5,37.5,37.5,48,Amateur Open,F,B,Raw,Yes,,,,,,,,37.5,,1986
2,Olena Pshenichna,Олена Пшенична,47.6,-37.5,37.5,-42.5,37.5,48,Amateur Open,F,B,Raw,Yes,,,,,,,,37.5,,1977
1,Olena Tarasova,Олена Тарасова,51.7,45,47.5,-52.5,47.5,52,Amateur Open,F,B,Raw,Yes,,,,,,,,47.5,,1984
1,Olena Lisenko,Олена Лисенко,54.5,72.5,75,-77.5,75,56,Amateur Open,F,B,Raw,Yes,,,,,,,,75,,1975
2,Marina Durova,Марина Дурова,55,67.5,72.5,-76,72.5,56,Amateur Open,F,B,Raw,Yes,,,,,,,,72.5,,1984
3,Mariya Markovich,Марія Маркович,55.8,-45,45,50,50,56,Amateur Open,F,B,Raw,Yes,,,,,,,,50,,1985
1,Tamara Goncharova,Тамара Гончарова,58.5,-42.5,42.5,47.5,47.5,60,Amateur Open,F,B,Raw,Yes,,,,,,,,47.5,,1985
2,Mariya Galiga,Марія Галига,56.3,30,-35,-35,30,60,Amateur Open,F,B,Raw,Yes,,,,,,,,30,,1981
1,Galina Rogatska,Галина Рогацька,66.3,70,-80,80,80,67.5,Amateur Open,F,B,Raw,Yes,,,,,,,,80,,1986
2,Tetyana Balashova,Тетяна Балашова,66.6,50,52.5,-55,52.5,67.5,Amateur Open,F,B,Raw,Yes,,,,,,,,52.5,,1975
1,Lidiya Gurova,Лідія Гурова,68.8,35,40,-45,40,75,Amateur Open,F,B,Raw,Yes,,,,,,,,40,,1986
1,Tetyana Dudnik,Тетяна Дудник,80.3,65,72.5,77.5,77.5,82.5,Amateur Open,F,B,Raw,Yes,,,,,,,,77.5,,1983
1,Olena Lisenko,Олена Лисенко,54.5,72.5,75,-77.5,75,56,Amateur Submasters 33-39,F,B,Raw,Yes,,,,,,,,75,,1975
1,Tetyana Balashova,Тетяна Балашова,66.6,50,52.5,-55,52.5,67.5,Amateur Submasters 33-39,F,B,Raw,Yes,,,,,,,,52.5,,1975
1,Svitlana Klochkova,Світлана Клочкова,55.3,35,37.5,-40,37.5,56,Amateur Masters 40-44,F,B,Raw,Yes,,,,,,,,37.5,,1968
1,Nataliya Penkova,Наталія Пенькова,63.8,35,-40,,35,67.5,Amateur Masters 45-49,F,B,Raw,Yes,,,,,,,,35,,1965
1,Maksim Kukovitskiy,Максим Куковицький,43.7,40,-45,-47.5,40,44,Amateur Children 11-12,M,B,Raw,Yes,,,,,,,,40,,2001
2,Mikita Krotenko,Микита Кротенко,43.8,-32.5,-32.5,32.5,32.5,44,Amateur Children 11-12,M,B,Raw,Yes,,,,,,,,32.5,,2001
1,Illya Telyukh,Ілля Телюх,44.7,40,45,-47.5,45,48,Amateur Children 11-12,M,B,Raw,Yes,,,,,,,,45,,2001
1,Maksim Shved,Максим Швед,48.6,-65,-65,65,65,52,Amateur Teen 13-15,M,B,Raw,Yes,,,,,,,,65,,1999
2,Vasil Klimuk,Василь Клімук,50.5,-55,-60,60,60,52,Amateur Teen 13-15,M,B,Raw,Yes,,,,,,,,60,,2000
1,Vladislav Romanskiy,Владислав Романський,56,67.5,-72.5,72.5,72.5,56,Amateur Teen 13-15,M,B,Raw,Yes,,,,,,,,72.5,,1997
2,Vyacheslav Penkov,Вячеслав Пеньков,53.1,55,60,-65,60,56,Amateur Teen 13-15,M,B,Raw,Yes,,,,,,,,60,,1998
3,Maksim Bezdolniy,Максим Бездольний,54.9,50,-65,-65,50,56,Amateur Teen 13-15,M,B,Raw,Yes,,,,,,,,50,,1998
1,Yaroslav Pushkar,Ярослав Пушкарь,58.8,90,-97.5,97.5,97.5,60,Amateur Teen 13-15,M,B,Raw,Yes,,,,,,,,97.5,,1997
2,Dmitro Klimuk,Дмитро Клімук,58,-75,75,-80,75,60,Amateur Teen 13-15,M,B,Raw,Yes,,,,,,,,75,,1998
3,Vladislav Ponomarenko,Владислав Пономаренко,56.2,55,60,65,65,60,Amateur Teen 13-15,M,B,Raw,Yes,,,,,,,,65,,1998
1,Dmitro Sinchuk,Дмитро Сінчук,63.1,75,80,-82.5,80,67.5,Amateur Teen 13-15,M,B,Raw,Yes,,,,,,,,80,,1997
2,Vyacheslav Chigrin,Вячеслав Чигрин,63.9,-60,60,-75,60,67.5,Amateur Teen 13-15,M,B,Raw,Yes,,,,,,,,60,,1997
DQ,Bogdan Stets,Богдан Стець,75.9,-87.5,-87.5,-87.5,,82.5,Amateur Teen 13-15,M,B,Raw,Yes,,,,,,,,,,1997
1,Aleksandr Semerenko,Александр Семеренко,56,102.5,-107.5,,102.5,56,Amateur Teen 16-17,M,B,Raw,Yes,,,,,,,,102.5,,1996
2,Evgen Vishnevskiy,Євген Вишневський,53.9,75,85,-90,85,56,Amateur Teen 16-17,M,B,Raw,Yes,,,,,,,,85,,1995
1,Dmitro Shchotka,Дмитро Щотка,60,-70,70,-75,70,60,Amateur Teen 16-17,M,B,Raw,Yes,,,,,,,,70,,1997
1,Dmitro Chadov,Дмитро Чадов,65.8,95,-100,-100,95,67.5,Amateur Teen 16-17,M,B,Raw,Yes,,,,,,,,95,,1996
2,Oleg Makarov,Олег Макаров,66.8,80,90,-97.5,90,67.5,Amateur Teen 16-17,M,B,Raw,Yes,,,,,,,,90,,1996
3,Artem Petrov,Артем Петров,64,80,85,-87.5,85,67.5,Amateur Teen 16-17,M,B,Raw,Yes,,,,,,,,85,,1996
1,Denis Nelovkin,Денис Неловкін,73.1,110,-117.5,117.5,117.5,75,Amateur Teen 16-17,M,B,Raw,Yes,,,,,,,,117.5,,1997
2,Sergiy Mirzak,Сергій Мірзак,73,90,-100,100,100,75,Amateur Teen 16-17,M,B,Raw,Yes,,,,,,,,100,,1996
3,Andriy Chudnovskiy,Андрій Чудновський,68.8,80,-85,-90,80,75,Amateur Teen 16-17,M,B,Raw,Yes,,,,,,,,80,,1996
1,Vyacheslav Yakubchak,В'ячеслав Якубчак,81.2,120,127.5,132.5,132.5,82.5,Amateur Teen 16-17,M,B,Raw,Yes,,,,,,,,132.5,,1995
2,Vladislav Skaliy,Владислав Скалій,81,110,120,-125,120,82.5,Amateur Teen 16-17,M,B,Raw,Yes,,,,,,,,120,,1995
1,Oleksiy Slyusar,Олексій Слюсар,86.1,110,-115,-115,110,90,Amateur Teen 16-17,M,B,Raw,Yes,,,,,,,,110,,1995
2,Oleksandr Stetsenko,Олександр Стеценко,86.4,90,95,,95,90,Amateur Teen 16-17,M,B,Raw,Yes,,,,,,,,95,,1996
1,Andriy Kolmikov,Андрій Колмиков,106.8,90,100,-105,100,110,Amateur Teen 16-17,M,B,Raw,Yes,,,,,,,,100,,1996
1,Mikola Yuzkov,Микола Юзьков,59.7,-102.5,107.5,-112.5,107.5,60,Amateur Teen 18-19,M,B,Raw,Yes,,,,,,,,107.5,,1994
1,Sergiy Gentsi,Сергій Генці,63.6,90,-100,-100,90,67.5,Amateur Teen 18-19,M,B,Raw,Yes,,,,,,,,90,,1994
2,Yaroslav Kalugin,Ярослав Калугін,62,70,75,-80,75,67.5,Amateur Teen 18-19,M,B,Raw,Yes,,,,,,,,75,,1994
1,Sergiy Dreshpak,Сергій Дрешпак,71.1,105,115,125,125,75,Amateur Teen 18-19,M,B,Raw,Yes,,,,,,,,125,,1994
2,Viktor Denisenko,Віктор Денісенко,73.7,110,115,-122.5,115,75,Amateur Teen 18-19,M,B,Raw,Yes,,,,,,,,115,,1993
1,Vladislav Veldyaev,Владислав Вельдяєв,82.1,-115,120,,120,82.5,Amateur Teen 18-19,M,B,Raw,Yes,,,,,,,,120,,1994
2,Dmitro Rakhubenko,Дмитро Рахубенко,80.8,95,100,102.5,102.5,82.5,Amateur Teen 18-19,M,B,Raw,Yes,,,,,,,,102.5,,1994
3,Artem Galoyan,Артем Галоян,75.7,75,80,-92.5,80,82.5,Amateur Teen 18-19,M,B,Raw,Yes,,,,,,,,80,,1994
1,Igor Tarasov,Ігор Тарасов,85.2,120,125,-130,125,90,Amateur Teen 18-19,M,B,Raw,Yes,,,,,,,,125,,1993
1,Evgen Klimenyuk,Євген Клименюк,51.1,92.5,100,102.5,102.5,52,Amateur Juniors 20-23,M,B,Raw,Yes,,,,,,,,102.5,,1989
2,Pavlo Yushkevich,Павло Юшкевич,51.9,82.5,-92.5,-92.5,82.5,52,Amateur Juniors 20-23,M,B,Raw,Yes,,,,,,,,82.5,,1992
1,Taras Grendash,Тарас Грендаш,54.8,-80,80,-92.5,80,56,Amateur Juniors 20-23,M,B,Raw,Yes,,,,,,,,80,,1990
1,Oleksandr Romanchuk,Олександр Романчук,67,115,125,-130,125,67.5,Amateur Juniors 20-23,M,B,Raw,Yes,,,,,,,,125,,1992
2,Maksim Maksachuk,Максим Максачук,65.3,110,117.5,120,120,67.5,Amateur Juniors 20-23,M,B,Raw,Yes,,,,,,,,120,,1992
3,Viktor Protsenko,Віктор Проценко,66.1,115,120,-125,120,67.5,Amateur Juniors 20-23,M,B,Raw,Yes,,,,,,,,120,,1991
4,Andriy Denisov,Андрій Денисов,65.9,105,110,115,115,67.5,Amateur Juniors 20-23,M,B,Raw,Yes,,,,,,,,115,,1989
5,Evgen Klochkov,Євген Клочков,67.3,97.5,-105,-105,97.5,67.5,Amateur Juniors 20-23,M,B,Raw,Yes,,,,,,,,97.5,,1989
6,Oleksandr Tatarchuk,Олександр Татарчук,66,-90,90,-100,90,67.5,Amateur Juniors 20-23,M,B,Raw,Yes,,,,,,,,90,,1992
1,Evgen Begalyuk,Євген Бегалюк,74.4,130,140,145,145,75,Amateur Juniors 20-23,M,B,Raw,Yes,,,,,,,,145,,1992
2,Oleksiy Podoba,Олексій Подоба,73.7,137.5,142.5,-145,142.5,75,Amateur Juniors 20-23,M,B,Raw,Yes,,,,,,,,142.5,,1989
3,Sergiy Lyashko,Сергій Ляшко,74,125,-130,132.5,132.5,75,Amateur Juniors 20-23,M,B,Raw,Yes,,,,,,,,132.5,,1990
4,Dmitro Nikolaenko,Дмитро Ніколаєнко,71.2,100,110,115,115,75,Amateur Juniors 20-23,M,B,Raw,Yes,,,,,,,,115,,1989
5,Oleksandr Maksimchuk,Олександр Максимчук,73.4,90,100,-110,100,75,Amateur Juniors 20-23,M,B,Raw,Yes,,,,,,,,100,,1991
1,Valeriy Khorechko,Валерій Хоречко,79.6,165,172.5,-175,172.5,82.5,Amateur Juniors 20-23,M,B,Raw,Yes,,,,,,,,172.5,,1992
2,Ruslan Ponyatenko,Руслан Понятенко,78,120,-132.5,132.5,132.5,82.5,Amateur Juniors 20-23,M,B,Raw,Yes,,,,,,,,132.5,,1992
3,Yuriy Umanets,Юрій Уманець,78.7,125,132.5,-135,132.5,82.5,Amateur Juniors 20-23,M,B,Raw,Yes,,,,,,,,132.5,,1992
4,Oleksiy Putintsev,Олексій Путінцев,82.5,120,-125,-125,120,82.5,Amateur Juniors 20-23,M,B,Raw,Yes,,,,,,,,120,,1992
5,Sergiy Marushkin,Сергій Марушкін,81.4,-117.5,117.5,-132.5,117.5,82.5,Amateur Juniors 20-23,M,B,Raw,Yes,,,,,,,,117.5,,1992
6,Anatoliy Malnev,Анатолій Мальнєв,81.5,115,-120,-127.5,115,82.5,Amateur Juniors 20-23,M,B,Raw,Yes,,,,,,,,115,,1990
1,Sergiy Moiseev,Сергій Моїсеєв,89.9,157.5,162.5,-167.5,162.5,90,Amateur Juniors 20-23,M,B,Raw,Yes,,,,,,,,162.5,,1990
2,Maksim Avramenko,Максим Авраменко,89.5,-135,135,-140,135,90,Amateur Juniors 20-23,M,B,Raw,Yes,,,,,,,,135,,1992
1,Oleksandr Kostenko,Олександр Костенко,92.4,170,-180,180,180,100,Amateur Juniors 20-23,M,B,Raw,Yes,,,,,,,,180,,1989
2,Maksim Kaplunivskiy,Максим Каплунівський,93.6,115,125,-130,125,100,Amateur Juniors 20-23,M,B,Raw,Yes,,,,,,,,125,,1991
1,Evgen Moiseev,Євген Моісєєв,100.4,155,162.5,-167.5,162.5,110,Amateur Juniors 20-23,M,B,Raw,Yes,,,,,,,,162.5,,1991
2,Gleb Filin,Глеб Филин,102.1,130,140,-155,140,110,Amateur Juniors 20-23,M,B,Raw,Yes,,,,,,,,140,,1989
1,Volodimir Lyashko,Володимир Ляшко,116.4,-145,145,-155,145,125,Amateur Juniors 20-23,M,B,Raw,Yes,,,,,,,,145,,1990
1,Mikita Krotenko,Микита Кротенко,43.8,-32.5,-32.5,32.5,32.5,44,Amateur Open,M,B,Raw,Yes,,,,,,,,32.5,,2001
1,Aleksandr Semerenko,Александр Семеренко,56,102.5,-107.5,,102.5,56,Amateur Open,M,B,Raw,Yes,,,,,,,,102.5,,1996
1,Sergiy Bushchak,Сергій Бущак,59.1,90,97.5,-100,97.5,60,Amateur Open,M,B,Raw,Yes,,,,,,,,97.5,,1979
1,Oleksandr Romanchuk,Олександр Романчук,67,115,125,-130,125,67.5,Amateur Open,M,B,Raw,Yes,,,,,,,,125,,1992
2,Oleg Zaporozhets,Олег Запорожець,67.1,-115,120,125,125,67.5,Amateur Open,M,B,Raw,Yes,,,,,,,,125,,1984
3,Artem Manuylenko,Артем Мануйленко,65,110,120,-125,120,67.5,Amateur Open,M,B,Raw,Yes,,,,,,,,120,,1988
4,Oleksandr Balu,Олександр Балу,67.5,120,-125,-125,120,67.5,Amateur Open,M,B,Raw,Yes,,,,,,,,120,,1985
5,Andriy Denisov,Андрій Денисов,65.9,105,110,115,115,67.5,Amateur Open,M,B,Raw,Yes,,,,,,,,115,,1989
6,Igor Vigulyarniy,Ігор Вигулярний,66.1,110,115,-120,115,67.5,Amateur Open,M,B,Raw,Yes,,,,,,,,115,,1985
7,Mikola Yurga,Микола Юрга,64.6,100,110,-115,110,67.5,Amateur Open,M,B,Raw,Yes,,,,,,,,110,,1987
1,Volodimir Veduta,Володимир Ведута,72.6,130,140,-145,140,75,Amateur Open,M,B,Raw,Yes,,,,,,,,140,,1981
2,Igor Bondarev,Ігор Бондарєв,74.3,-130,130,137.5,137.5,75,Amateur Open,M,B,Raw,Yes,,,,,,,,137.5,,1985
3,Andriy Kostyuk,Андрій Костюк,74.5,130,135,-137.5,135,75,Amateur Open,M,B,Raw,Yes,,,,,,,,135,,1986
4,Sergiy Lyashko,Сергій Ляшко,74,125,-130,132.5,132.5,75,Amateur Open,M,B,Raw,Yes,,,,,,,,132.5,,1990
5,Oleksandr Tikhonov,Олександр Тихонов,74.3,125,132.5,-135,132.5,75,Amateur Open,M,B,Raw,Yes,,,,,,,,132.5,,1982
6,Oleksandr Korshak,Олександр Коршак,74.7,120,130,-135,130,75,Amateur Open,M,B,Raw,Yes,,,,,,,,130,,1983
7,Sergiy Kazantsev,Сергій Казанцев,70,100,105,-110,105,75,Amateur Open,M,B,Raw,Yes,,,,,,,,105,,1981
DQ,Sergiy Gubanov,Сергій Губанов,72.2,-125,-125,-125,,75,Amateur Open,M,B,Raw,Yes,,,,,,,,,,1988
DQ,Igor Savin,Ігор Савін,74.4,-130,-130,-137.5,,75,Amateur Open,M,B,Raw,Yes,,,,,,,,,,1987
1,Valeriy Khorechko,Валерій Хоречко,79.6,165,172.5,-175,172.5,82.5,Amateur Open,M,B,Raw,Yes,,,,,,,,172.5,,1992
2,Francesco LoPorto,,80.3,142.5,-147.5,147.5,147.5,82.5,Amateur Open,M,B,Raw,Yes,,,,,,,,147.5,,1980
3,Viktor Matsenko,Віктор Маценко,79.8,135,140,-142.5,140,82.5,Amateur Open,M,B,Raw,Yes,,,,,,,,140,,1988
4,Igor Bronitskiy,Ігор Броницький,81.5,132.5,140,-145,140,82.5,Amateur Open,M,B,Raw,Yes,,,,,,,,140,,1987
5,Ruslan Ponyatenko,Руслан Понятенко,78,120,-132.5,132.5,132.5,82.5,Amateur Open,M,B,Raw,Yes,,,,,,,,132.5,,1992
6,Vyacheslav Zgurovskiy,Вячеслав Згуровський,82.3,125,130,132.5,132.5,82.5,Amateur Open,M,B,Raw,Yes,,,,,,,,132.5,,1985
DQ,Nikolay Smirnyy,Николай Смирный,81.9,-140,-145,-145,,82.5,Amateur Open,M,B,Raw,Yes,,,,,,,,,,1975
1,Oleg Slyusar,Олег Слюсар,89.5,170,180,185,185,90,Amateur Open,M,B,Raw,Yes,,,,,,,,185,,1972
2,Vadim Penkov,Вадим Пеньков,88.4,165,170,172.5,172.5,90,Amateur Open,M,B,Raw,Yes,,,,,,,,172.5,,1973
3,Adrian Iordan,Адриан Иордан,87.4,-170,-170,170,170,90,Amateur Open,M,B,Raw,Yes,,,,,,,,170,,1987
4,Dawid Kijewski,,87.6,145,150,157.5,157.5,90,Amateur Open,M,B,Raw,Yes,,,,,,,,157.5,,1988
5,Sergiy Bortnik,Сергій Бортник,90,145,152.5,157.5,157.5,90,Amateur Open,M,B,Raw,Yes,,,,,,,,157.5,,1983
6,Vyacheslav Bordiyanu,Вячеслав Бордіяну,84.3,150,-157.5,-157.5,150,90,Amateur Open,M,B,Raw,Yes,,,,,,,,150,,1983
7,Sergiy Velikodniy,Сергій Великодний,86.4,145,-152.5,-157.5,145,90,Amateur Open,M,B,Raw,Yes,,,,,,,,145,,1981
8,Roman Ponyatenko,Роман Понятенко,85.1,140,-157.5,-157.5,140,90,Amateur Open,M,B,Raw,Yes,,,,,,,,140,,1989
DD,Dmitro Krizhanivskiy,Дмитро Крижанівський,89.8,-170,-170,-170,,90,Amateur Open,M,B,Raw,Yes,,,,,,,,,,1985
1,Volodimir Ukhach,Володимир Ухач,98.8,170,180,185,185,100,Amateur Open,M,B,Raw,Yes,,,,,,,,185,,1960
2,Andriy Lanetskiy,Андрій Ланецький,99.4,167.5,172.5,-180,172.5,100,Amateur Open,M,B,Raw,Yes,,,,,,,,172.5,,1982
3,Oleksiy Krivets,Олексій Кривець,97.8,-160,160,-167.5,160,100,Amateur Open,M,B,Raw,Yes,,,,,,,,160,,1983
4,Oleksandr Olizarenko,Олександр Олізаренко,99.5,150,160,-167.5,160,100,Amateur Open,M,B,Raw,Yes,,,,,,,,160,,1974
5,Denis Mazur,Денис Мазур,92.4,140,147.5,-150,147.5,100,Amateur Open,M,B,Raw,Yes,,,,,,,,147.5,,1985
6,Petro Martinyuk,Петро Мартинюк,93.9,130,140,-150,140,100,Amateur Open,M,B,Raw,Yes,,,,,,,,140,,1987
DQ,Vadim Grachov,Вадим Грачов,97.7,-180,-180,-180,,100,Amateur Open,M,B,Raw,Yes,,,,,,,,,,1988
1,Genadiy Larin,Генадій Ларін,107.3,170,-175,-175,170,110,Amateur Open,M,B,Raw,Yes,,,,,,,,170,,1973
2,Volodimir Sosnov,Володимир Соснов,101.6,150,-160,160,160,110,Amateur Open,M,B,Raw,Yes,,,,,,,,160,,1982
3,Oleksandr Ageenko,Олександр Агєєнко,104.7,150,155,-157.5,155,110,Amateur Open,M,B,Raw,Yes,,,,,,,,155,,1976
DQ,Dmitro Brinzov,Дмитро Бринзов,109.1,-175,-175,-175,,110,Amateur Open,M,B,Raw,Yes,,,,,,,,,,1975
DD,Evgen Andriyashchenko,Євген Андріященко,109.9,-170,-170,-175,,110,Amateur Open,M,B,Raw,Yes,,,,,,,,,,1969
1,Oleksandr Striga,Олександр Стрига,117.8,180,190,200,200,125,Amateur Open,M,B,Raw,Yes,,,,,,,,200,,1967
1,Andriy Gorbik,Андрій Горбик,81.9,140,145,-150,145,82.5,Amateur Submasters 33-39,M,B,Raw,Yes,,,,,,,,145,,1979
DQ,Nikolay Smirnyy,Николай Смирный,81.9,-140,-145,-145,,82.5,Amateur Submasters 33-39,M,B,Raw,Yes,,,,,,,,,,1975
1,Vadim Penkov,Вадим Пеньков,88.4,165,170,172.5,172.5,90,Amateur Submasters 33-39,M,B,Raw,Yes,,,,,,,,172.5,,1973
1,Oleksandr Ageenko,Олександр Агєєнко,104.7,150,155,-157.5,155,110,Amateur Submasters 33-39,M,B,Raw,Yes,,,,,,,,155,,1976
1,Roman Stelmakh,Роман Стельмах,75,95,100,-110,100,75,Amateur Masters 40-44,M,B,Raw,Yes,,,,,,,,100,,1971
1,Oleg Slyusar,Олег Слюсар,89.5,170,180,185,185,90,Amateur Masters 40-44,M,B,Raw,Yes,,,,,,,,185,,1972
2,Igor Krikunov,Ігор Крикунов,89.5,125,-135,-135,125,90,Amateur Masters 40-44,M,B,Raw,Yes,,,,,,,,125,,1968
1,Oleksandr Tolkachev,Олександр Толкачев,97.4,150,-160,-160,150,100,Amateur Masters 40-44,M,B,Raw,Yes,,,,,,,,150,,1970
DQ,Oleksandr Shapoval,Олександр Шаповал,98.5,-162.5,-162.5,-162.5,,100,Amateur Masters 40-44,M,B,Raw,Yes,,,,,,,,,,1971
1,Dmitro Grigorev,Дмитро Григорьєв,108.4,150,-160,-160,150,110,Amateur Masters 40-44,M,B,Raw,Yes,,,,,,,,150,,1971
DD,Evgen Andriyashchenko,Євген Андріященко,109.9,-170,-170,-175,,110,Amateur Masters 40-44,M,B,Raw,Yes,,,,,,,,,,1969
1,Viktor Shulyak,Віктор Шуляк,82.5,135,140,145,145,82.5,Amateur Masters 45-49,M,B,Raw,Yes,,,,,,,,145,,1965
1,Igor Marunich,Ігор Марунич,85.7,150,160,-170,160,90,Amateur Masters 45-49,M,B,Raw,Yes,,,,,,,,160,,1967
2,Gasan Garumov,Гасан Гарумов,87.7,95,-100,-100,95,90,Amateur Masters 45-49,M,B,Raw,Yes,,,,,,,,95,,1963
1,Pavlo Laytan,Павло Лайтан,96.5,120,130,137.5,137.5,100,Amateur Masters 45-49,M,B,Raw,Yes,,,,,,,,137.5,,1963
1,Yuriy Eleva,Юрій Єлева,108.2,120,125,-130,125,110,Amateur Masters 45-49,M,B,Raw,Yes,,,,,,,,125,,1963
1,Oleksandr Striga,Олександр Стрига,117.8,180,190,200,200,125,Amateur Masters 45-49,M,B,Raw,Yes,,,,,,,,200,,1967
1,Volodimir Ukhach,Володимир Ухач,98.8,170,180,185,185,100,Amateur Masters 50-54,M,B,Raw,Yes,,,,,,,,185,,1960
1,Petro Lonyuk,Петро Лонюк,80.9,110,-115,115,115,82.5,Amateur Masters 55-59,M,B,Raw,Yes,,,,,,,,115,,1956
1,Oleksiy Panskiy,Олексій Панський,97.8,-105,105,-110,105,100,Amateur Masters 55-59,M,B,Raw,Yes,,,,,,,,105,,1956
1,Andriy Laytan,Андрій Лайтан,123.6,120,130,135,135,125,Amateur Masters 55-59,M,B,Raw,Yes,,,,,,,,135,,1957
1,Sergiy Marushkin,Сергій Марушкін,81.4,-117.5,117.5,-132.5,117.5,82.5,Amateur Military/Fire/Police,M,B,Raw,Yes,,,,,,,,117.5,,1992
1,Oleksandr Striga,Олександр Стрига,117.8,180,190,200,200,125,Amateur Military/Fire/Police,M,B,Raw,Yes,,,,,,,,200,,1967
1,Anna Konoval,Анна Коновал,54.2,-85,85,95,95,56,Amateur Open,F,B,Multi-ply,Yes,,,,,,,,95,,1984
1,Galina Rogatska,Галина Рогацька,66.3,-80,80,,80,67.5,Amateur Open,F,B,Multi-ply,Yes,,,,,,,,80,,1986
1,Svitlana Dyagileva,Світлана Дягілева,57.3,60,65,-72.5,65,60,Amateur Submasters 33-39,F,B,Multi-ply,Yes,,,,,,,,65,,1977
1,Andriy Denisov,Андрій Денисов,65.9,125,-140,-140,125,67.5,Amateur Juniors 20-23,M,B,Multi-ply,Yes,,,,,,,,125,,1989
1,Anton Popov,Антон Попов,73.5,145,-150,-150,145,75,Amateur Juniors 20-23,M,B,Multi-ply,Yes,,,,,,,,145,,1989
2,Stanislav Bazil,Станіслав Базіль,73.5,125,135,-140,135,75,Amateur Juniors 20-23,M,B,Multi-ply,Yes,,,,,,,,135,,1992
1,Gennadiy Popov,Геннадій Попов,81.9,-150,150,-165,150,82.5,Amateur Juniors 20-23,M,B,Multi-ply,Yes,,,,,,,,150,,1994
1,Artem Manuylenko,Артем Мануйленко,65,140,150,-160,150,67.5,Amateur Open,M,B,Multi-ply,Yes,,,,,,,,150,,1988
2,Andriy Denisov,Андрій Денисов,65.9,125,-140,-140,125,67.5,Amateur Open,M,B,Multi-ply,Yes,,,,,,,,125,,1989
1,Oleksiy Slyushchenko,Олексій Слющенко,74.1,170,180,-190,180,75,Amateur Open,M,B,Multi-ply,Yes,,,,,,,,180,,1984
1,Andriy Dyatlov,Андрій Дятлов,80.9,180,192.5,-205,192.5,82.5,Amateur Open,M,B,Multi-ply,Yes,,,,,,,,192.5,,1985
2,Igor Andrusik,Ігор Андрусик,81.1,150,160,165,165,82.5,Amateur Open,M,B,Multi-ply,Yes,,,,,,,,165,,1988
1,Volodimir Migas,Володимир Мигас,90,205,-215,-215,205,90,Amateur Open,M,B,Multi-ply,Yes,,,,,,,,205,,1975
2,Sergiy Makeenko,Сергій Макеєнко,87.6,-180,180,-190,180,90,Amateur Open,M,B,Multi-ply,Yes,,,,,,,,180,,1964
3,Vyacheslav Bordiyanu,Вячеслав Бордіяну,84.3,160,-177.5,-177.5,160,90,Amateur Open,M,B,Multi-ply,Yes,,,,,,,,160,,1983
4,Maksim Trokhimchuk,Максим Трохимчук,90,135,140,-145,140,90,Amateur Open,M,B,Multi-ply,Yes,,,,,,,,140,,1981
1,Denis Kovalov,Денис Ковальов,98.1,210,220,,220,100,Amateur Open,M,B,Multi-ply,Yes,,,,,,,,220,,1978
2,Sergiy Sidorchuk,Сергій Сидорчук,93.6,-180,180,190,190,100,Amateur Open,M,B,Multi-ply,Yes,,,,,,,,190,,1981
3,Denis Mazur,Денис Мазур,92.4,150,165,-190,165,100,Amateur Open,M,B,Multi-ply,Yes,,,,,,,,165,,1985
1,Volodimir Labenskiy,Володимир Лабенський,106.3,200,205,215,215,110,Amateur Open,M,B,Multi-ply,Yes,,,,,,,,215,,1983
2,Volodimir Kolyada,Володимир Коляда,108.2,205,215,-220,215,110,Amateur Open,M,B,Multi-ply,Yes,,,,,,,,215,,1983
1,Andriy Lomnitskiy,Андрій Ломницький,111.3,255,-265,-265,255,125,Amateur Open,M,B,Multi-ply,Yes,,,,,,,,255,,1980
1,Volodimir Migas,Володимир Мигас,90,205,-215,-215,205,90,Amateur Submasters 33-39,M,B,Multi-ply,Yes,,,,,,,,205,,1975
1,Sergiy Makeenko,Сергій Макеєнко,87.6,-180,180,-190,180,90,Amateur Masters 45-49,M,B,Multi-ply,Yes,,,,,,,,180,,1964
1,Andriy Dyatlov,Андрій Дятлов,80.9,180,192.5,-205,192.5,82.5,Amateur Military/Fire/Police,M,B,Multi-ply,Yes,,,,,,,,192.5,,1985
1,Alona Mazurenko,Альона Мазуренко,49.5,25,30,-32.5,30,52,Pro Teen 16-17,F,B,Raw,No,,,,,,,,30,,1996
1,Alona Mazurenko,Альона Мазуренко,49.5,25,30,-32.5,30,52,Pro Open,F,B,Raw,No,,,,,,,,30,,1996
1,Tetyana Kalugina,Тетяна Калугіна,60,95,100,-105,100,60,Pro Open,F,B,Raw,No,,,,,,,,100,,1980
1,Anna Kurkurina,Анна Куркуріна,72.9,-120,120,130,130,75,Pro Open,F,B,Raw,No,,,,,,,,130,,1966
1,Anna Kurkurina,Анна Куркуріна,72.9,-120,120,130,130,75,Pro Masters 45-49,F,B,Raw,No,,,,,,,,130,,1966
1,Lyudmila Tsvetkova,Людмила Цветкова,55,47.5,50,-55,50,56,Pro Masters 50-54,F,B,Raw,No,,,,,,,,50,,1961
1,Dmitro Bodrov,Дмитро Бодров,45.9,-25,25,30,30,48,Pro Children 11-12,M,B,Raw,No,,,,,,,,30,,2000
1,Vladislav Bondarenko,Владислав Бондаренко,38,40,45,50,50,44,Pro Teen 13-15,M,B,Raw,No,,,,,,,,50,,1999
1,Oleksiy Voznik,Олексій Вознік,49.9,-45,45,-55,45,52,Pro Teen 13-15,M,B,Raw,No,,,,,,,,45,,1997
1,Maksim Karasov,Максим Карасьов,73.7,80,85,90,90,75,Pro Teen 13-15,M,B,Raw,No,,,,,,,,90,,1997
1,Sergiy Perezhilov,Сергій Пережилов,123,90,100,105,105,125,Pro Teen 13-15,M,B,Raw,No,,,,,,,,105,,1997
1,Pavlo Kislyak,Павло Кисляк,64.2,90,-95,-95,90,67.5,Pro Teen 16-17,M,B,Raw,No,,,,,,,,90,,1995
1,Oleksandr Reva,Олександр Рева,73.3,100,105,-110,105,75,Pro Teen 16-17,M,B,Raw,No,,,,,,,,105,,1996
2,Sergiy Pavlenko,Сергій Павленко,68.1,-70,70,-80,70,75,Pro Teen 16-17,M,B,Raw,No,,,,,,,,70,,1995
1,Dmitro Khanov,Дмитро Ханов,82.3,115,125,-130,125,82.5,Pro Teen 16-17,M,B,Raw,No,,,,,,,,125,,1995
1,Ivan Tyutyunnik,Іван Тютюнник,85.2,120,-125,125,125,90,Pro Teen 16-17,M,B,Raw,No,,,,,,,,125,,1995
1,Pavlo Perevozchikov,Павло Перевозчиков,59.6,95,102.5,110,110,60,Pro Teen 18-19,M,B,Raw,No,,,,,,,,110,,1994
1,Mikita Kolomiza,Микита Коломиза,76.9,-95,-100,100,100,82.5,Pro Teen 18-19,M,B,Raw,No,,,,,,,,100,,1994
1,Igor Tkachuk,Ігор Ткачук,91.5,145,155,162.5,162.5,100,Pro Teen 18-19,M,B,Raw,No,,,,,,,,162.5,,1993
1,Oleksandr Krikun,Олександр Крикун,66.5,-150,150,-161,150,67.5,Pro Juniors 20-23,M,B,Raw,No,,,,,,,,150,,1990
1,Oleksiy Rubinov,Олексій Рубінов,74.4,-100,100,110,110,75,Pro Juniors 20-23,M,B,Raw,No,,,,,,,,110,,1992
1,Oleksiy Kurguzov,Олексій Кургузов,82.4,167.5,177.5,-183.5,177.5,82.5,Pro Juniors 20-23,M,B,Raw,No,,,,,,,,177.5,,1989
2,Sergiy Derevyaga,Сергій Дерев'Яга,80.1,150,155,-157.5,155,82.5,Pro Juniors 20-23,M,B,Raw,No,,,,,,,,155,,1992
1,Igor Topilin,Ігор Топілін,89.8,130,-140,-140,130,90,Pro Juniors 20-23,M,B,Raw,No,,,,,,,,130,,1992
1,Kyamran Lumedze,Кямран Лумедзе,94.3,180,190,-197.5,190,100,Pro Juniors 20-23,M,B,Raw,No,,,,,,,,190,,1990
2,Oleksandr Novik,Олександр Новік,94.4,165,175,185,185,100,Pro Juniors 20-23,M,B,Raw,No,,,,,,,,185,,1992
3,Evgen Marushchak,Євген Марущак,97.2,130,140,147.5,147.5,100,Pro Juniors 20-23,M,B,Raw,No,,,,,,,,147.5,,1992
1,Kirilo Paliyuk,Кирило Паліюк,104.5,175,185,192.5,192.5,110,Pro Juniors 20-23,M,B,Raw,No,,,,,,,,192.5,,1989
2,Mikhaylo Krotov,Михайло Кротов,101.7,165,,,165,110,Pro Juniors 20-23,M,B,Raw,No,,,,,,,,165,,1989
3,Andriy Potapenko,Андрій Потапенко,105.7,135,145,-152.5,145,110,Pro Juniors 20-23,M,B,Raw,No,,,,,,,,145,,1992
1,Oleksandr Krikun,Олександр Крикун,66.5,-150,150,-161,150,67.5,Pro Open,M,B,Raw,No,,,,,,,,150,,1990
2,Roman Kozhukhar,Роман Кожухарь,67.3,107.5,117.5,-125,117.5,67.5,Pro Open,M,B,Raw,No,,,,,,,,117.5,,1986
1,Sergiy Melnik,Сергій Мельник,74.1,157.5,-162.5,-162.5,157.5,75,Pro Open,M,B,Raw,No,,,,,,,,157.5,,1982
2,Dmitro Cherkay,Дмитро Черкай,74.9,155,-160,-160,155,75,Pro Open,M,B,Raw,No,,,,,,,,155,,1985
3,Vladislav Severin,Владислав Северин,75,-150,150,-155,150,75,Pro Open,M,B,Raw,No,,,,,,,,150,,1985
1,Yuriy Osadchenko,Юрій Осадченко,81.1,155,160,-165,160,82.5,Pro Open,M,B,Raw,No,,,,,,,,160,,1961
2,Sergiy Chereshnev,Сергій Черешнєв,80.3,150,-160,-160,150,82.5,Pro Open,M,B,Raw,No,,,,,,,,150,,1978
1,Oleksiy Bogatirov,Олексій Богатирьов,89.4,175,190,197.5,197.5,90,Pro Open,M,B,Raw,No,,,,,,,,197.5,,1988
2,Oleksandr Onishchenko,Олександр Оніщенко,89.3,180,190,-197.5,190,90,Pro Open,M,B,Raw,No,,,,,,,,190,,1980
3,Volodimir Galiga,Володимир Галига,89.2,170,-175,175,175,90,Pro Open,M,B,Raw,No,,,,,,,,175,,1983
4,Vadim Beredukh,Вадим Бередух,89.4,172.5,-177.5,-177.5,172.5,90,Pro Open,M,B,Raw,No,,,,,,,,172.5,,1988
5,Konstyantin Tamarali,Констянтин Тамарали,89.8,160,170,-185,170,90,Pro Open,M,B,Raw,No,,,,,,,,170,,1974
6,Vadim Chekhanyuk,Вадим Чеханюк,87.3,167.5,-175,-175,167.5,90,Pro Open,M,B,Raw,No,,,,,,,,167.5,,1970
7,Andriy Bagno,Андрій Багно,88.5,150,157.5,-160,157.5,90,Pro Open,M,B,Raw,No,,,,,,,,157.5,,1985
8,Oleksiy Fedorenko,Олексій Федоренко,90,152.5,157.5,-162.5,157.5,90,Pro Open,M,B,Raw,No,,,,,,,,157.5,,1986
1,Aleksandr Shcherbakov,Александр Щербаков,94.6,215,225,235,235,100,Pro Open,M,B,Raw,No,,,,,,,,235,,1966
2,Konstyantin Yanishevskiy,Констянтин Янішевський,98.3,170,185,190,190,100,Pro Open,M,B,Raw,No,,,,,,,,190,,1985
3,Oleksandr Izopolskiy,Олександр Ізопольський,98,175,185,,185,100,Pro Open,M,B,Raw,No,,,,,,,,185,,1983
4,Valeriy Shkurdalov,Валерій Шкурдалов,97.5,180,-190,-190,180,100,Pro Open,M,B,Raw,No,,,,,,,,180,,1974
5,Oleksandr Kalinichenko,Олександр Калініченко,96,150,155,162.5,162.5,100,Pro Open,M,B,Raw,No,,,,,,,,162.5,,1983
6,Leonid Matyukhin,Леонід Матюхін,93.5,130,-150,,130,100,Pro Open,M,B,Raw,No,,,,,,,,130,,1977
7,Sergiy Sorokin,Сергій Сорокін,93,115,-120,-120,115,100,Pro Open,M,B,Raw,No,,,,,,,,115,,1979
1,Oleg Palamarchuk,Олег Паламарчук,108.8,190,200,,200,110,Pro Open,M,B,Raw,No,,,,,,,,200,,1972
2,Andriy Lyudkevich,Андрій Людкевич,105.7,180,190,195,195,110,Pro Open,M,B,Raw,No,,,,,,,,195,,1985
3,Andriy Vinnik,Андрій Вінник,106.1,180,192.5,195,195,110,Pro Open,M,B,Raw,No,,,,,,,,195,,1983
4,Rostislav Shulga,Ростислав Шульга,109.8,182.5,187.5,195,195,110,Pro Open,M,B,Raw,No,,,,,,,,195,,1979
5,Dmitro Shtankov,Дмитро Штанков,109.8,190,-197.5,-197.5,190,110,Pro Open,M,B,Raw,No,,,,,,,,190,,1984
6,Oleg Izopolskiy,Олег Ізопольський,108.5,175,182.5,185,185,110,Pro Open,M,B,Raw,No,,,,,,,,185,,1977
7,Stanislav Sultanov,Станіслав Султанов,104.3,167.5,-180,-180,167.5,110,Pro Open,M,B,Raw,No,,,,,,,,167.5,,1983
8,Oleksiy Tsinda,Олексій Цинда,103.6,165,-170,-175,165,110,Pro Open,M,B,Raw,No,,,,,,,,165,,1979
DQ,Andriy Goncharuk,Андрій Гончарук,107,,,,,110,Pro Open,M,B,Raw,No,,,,,,,,,,1988
DQ,Maksim Gruzdyuk,Максим Груздюк,109,,,,,110,Pro Open,M,B,Raw,No,,,,,,,,,,1986
1,Oleksiy Sizonenko,Олексій Сізоненко,123.4,215,227.5,237.5,237.5,125,Pro Open,M,B,Raw,No,,,,,,,,237.5,,1988
2,Miroslav Reshetnikov,Мирослав Решетніков,112,200,210,215,215,125,Pro Open,M,B,Raw,No,,,,,,,,215,,1988
3,Dmitro Zhvaviy,Дмитро Жвавий,117.3,190,200,207.5,207.5,125,Pro Open,M,B,Raw,No,,,,,,,,207.5,,1978
4,Oleksandr Mokan,Олександр Мокан,121.3,190,200,-210,200,125,Pro Open,M,B,Raw,No,,,,,,,,200,,1987
5,Evgen Zadorozhniy,Євген Задорожний,120.8,130,137.5,142.5,142.5,125,Pro Open,M,B,Raw,No,,,,,,,,142.5,,1984
1,Andriy Grin,Андрій Гринь,130.5,180,190,200,200,140,Pro Open,M,B,Raw,No,,,,,,,,200,,1968
2,Oleksandr Kalkutin,Олександр Калкутін,133.1,-170,180,187.5,187.5,140,Pro Open,M,B,Raw,No,,,,,,,,187.5,,1965
3,Volodimir Gamanzhi,Володимир Гаманжи,134.8,150,-160,-160,150,140,Pro Open,M,B,Raw,No,,,,,,,,150,,1981
1,Oleg Izopolskiy,Олег Ізопольський,108.5,175,182.5,185,185,110,Pro Submasters 33-39,M,B,Raw,No,,,,,,,,185,,1977
2,Vadim Kopilov,Вадим Копилов,109.5,-180,180,-185,180,110,Pro Submasters 33-39,M,B,Raw,No,,,,,,,,180,,1974
3,Oleksiy Tsinda,Олексій Цинда,103.6,165,-170,-175,165,110,Pro Submasters 33-39,M,B,Raw,No,,,,,,,,165,,1979
1,Dmitro Zhvaviy,Дмитро Жвавий,117.3,190,200,207.5,207.5,125,Pro Submasters 33-39,M,B,Raw,No,,,,,,,,207.5,,1978
1,Vadim Aliev,Вадим Алієв,74.3,130,142.5,-150,142.5,75,Pro Masters 40-44,M,B,Raw,No,,,,,,,,142.5,,1970
1,Rostislav Bondarenko,Ростислав Бондаренко,87,170,177.5,180,180,90,Pro Masters 40-44,M,B,Raw,No,,,,,,,,180,,1972
2,Vadim Chekhanyuk,Вадим Чеханюк,87.3,167.5,-175,-175,167.5,90,Pro Masters 40-44,M,B,Raw,No,,,,,,,,167.5,,1970
1,Ruslan Evloev,Руслан Євлоєв,92.2,110,120,130,130,100,Pro Masters 40-44,M,B,Raw,No,,,,,,,,130,,1970
2,Roman Perevyazko,Роман Перевязко,91.8,-110,115,117.5,117.5,100,Pro Masters 40-44,M,B,Raw,No,,,,,,,,117.5,,1968
1,Oleg Palamarchuk,Олег Паламарчук,108,190,200,,200,110,Pro Masters 40-44,M,B,Raw,No,,,,,,,,200,,1972
2,Pavlo Kipnyak,Павло Кіпняк,103.7,140,147.5,-152.5,147.5,110,Pro Masters 40-44,M,B,Raw,No,,,,,,,,147.5,,1969
1,Mikhaylo Pitinov,Михайло Пітінов,117.9,-135,145,150,150,125,Pro Masters 40-44,M,B,Raw,No,,,,,,,,150,,1971
1,Andriy Grin,Андрій Гринь,130.5,180,190,200,200,140,Pro Masters 40-44,M,B,Raw,No,,,,,,,,200,,1968
1,Igor Paraskeva,Игорь Параскева,80.4,130,-140,145,145,82.5,Pro Masters 45-49,M,B,Raw,No,,,,,,,,145,,1964
1,Igor Chumak,Ігор Чумак,76,115,120,125,125,82.5,Pro Masters 45-49,M,B,Raw,No,,,,,,,,125,,1965
1,Anatoliy Pecherskiy,Анатолий Печерский,89.6,152.5,-155,,152.5,90,Pro Masters 45-49,M,B,Raw,No,,,,,,,,152.5,,1965
1,Aleksandr Shcherbakov,Александр Щербаков,94.6,215,225,235,235,100,Pro Masters 45-49,M,B,Raw,No,,,,,,,,235,,1966
1,Andriy Gimbarov,Андрій Гімбаров,107.5,150,160,167.5,167.5,110,Pro Masters 45-49,M,B,Raw,No,,,,,,,,167.5,,1966
DQ,Mikhaylo Geenko,Михайло Геєнко,108.4,-150,-160,-167.5,,110,Pro Masters 45-49,M,B,Raw,No,,,,,,,,,,1963
1,Oleksandr Kalkutin,Олександр Калкутін,133.1,-170,180,187.5,187.5,140,Pro Masters 45-49,M,B,Raw,No,,,,,,,,187.5,,1965
1,Yuriy Osadchenko,Юрій Осадченко,81.1,155,160,-165,160,82.5,Pro Masters 50-54,M,B,Raw,No,,,,,,,,160,,1961
2,Dmitro Cherevatenko,Дмитро Череватенко,82.4,110,115,120,120,82.5,Pro Masters 50-54,M,B,Raw,No,,,,,,,,120,,1960
1,Sergiy Denisov,Сергій Денисов,99.5,125,132.5,137.5,137.5,100,Pro Masters 55-59,M,B,Raw,No,,,,,,,,137.5,,1956
2,Oleksiy Khromenkov,Олексій Хроменков,97,105,,,105,100,Pro Masters 55-59,M,B,Raw,No,,,,,,,,105,,1957
1,Oleksandr Plotnik,Олександр Плотнік,105.9,145,-152.5,-152.5,145,110,Pro Masters 60-64,M,B,Raw,No,,,,,,,,145,,1952
DQ,Sergiy Miroshnichenko,Сергій Мірошніченко,101.5,-130,-135,-140,,110,Pro Masters 60-64,M,B,Raw,No,,,,,,,,,,1952
1,Viktor Glushenko,Віктор Глушенко,71.9,105,-110,112.5,112.5,75,Pro Masters 70-74,M,B,Raw,No,,,,,,,,112.5,,1942
1,Vyacheslav Tsiganok,Вячеслав Циганок,97.1,130,137.5,-142.5,137.5,100,Pro Masters 70-74,M,B,Raw,No,,,,,,,,137.5,,1938
1,Sergiy Chereshnev,Сергій Черешнєв,80.3,150,-160,-160,150,82.5,Pro Military/Fire/Police,M,B,Raw,No,,,,,,,,150,,1978
1,Oleksiy Tsinda,Олексій Цинда,103.6,165,-170,-175,165,110,Pro Military/Fire/Police,M,B,Raw,No,,,,,,,,165,,1979
1,Vladislav Bondarenko,Владислав Бондаренко,38,50,-55,-57.5,50,44,Pro Teen 13-15,M,B,Multi-ply,No,,,,,,,,50,,1999
1,Sergiy Pavlenko,Сергій Павленко,68.1,-80,85,-90,85,75,Pro Teen 16-17,M,B,Multi-ply,No,,,,,,,,85,,1995
1,Vitaliy Gayday,Віталій Гайдай,71.9,120,130,135,135,75,Pro Teen 18-19,M,B,Multi-ply,No,,,,,,,,135,,1994
1,Mikita Kolomiza,Микита Коломиза,76.9,105,-115,115,115,82.5,Pro Teen 18-19,M,B,Multi-ply,No,,,,,,,,115,,1994
1,Oleksiy Rubinov,Олексій Рубінов,74.4,120,135,150,150,75,Pro Juniors 20-23,M,B,Multi-ply,No,,,,,,,,150,,1992
1,Andriy Gurichev,Андрій Гурічев,81,170,-190,190,190,82.5,Pro Juniors 20-23,M,B,Multi-ply,No,,,,,,,,190,,1991
2,Sergiy Derevyaga,Сергій Дерев'Яга,80.1,160,-170,-170,160,82.5,Pro Juniors 20-23,M,B,Multi-ply,No,,,,,,,,160,,1992
1,Andriy Gurichev,Андрій Гурічев,81,170,-190,190,190,82.5,Pro Open,M,B,Multi-ply,No,,,,,,,,190,,1991
2,Oleksiy Uvarov,Олексій Уваров,78.9,170,175,-185,175,82.5,Pro Open,M,B,Multi-ply,No,,,,,,,,175,,1985
1,Dmitro Lomeyko,Дмитро Ломейко,87.8,-240,240,-245,240,90,Pro Open,M,B,Multi-ply,No,,,,,,,,240,,1983
2,Volodimir Galiga,Володимир Галига,89.2,230,-235,235,235,90,Pro Open,M,B,Multi-ply,No,,,,,,,,235,,1983
1,Oleksiy Andriyanov,Олексій Андріянов,99.3,200,210,220,220,100,Pro Open,M,B,Multi-ply,No,,,,,,,,220,,1987
2,Efim Stepatskiy,Єфим Степацький,99.8,-220,220,-240,220,100,Pro Open,M,B,Multi-ply,No,,,,,,,,220,,1987
DQ,Mikhaylo Gladiy,Михайло Гладій,98.4,-180,-180,-180,,100,Pro Open,M,B,Multi-ply,No,,,,,,,,,,1987
1,Stanislav Nikolaenko,Станіслав Ніколаєнко,110,260,-270,-270,260,110,Pro Open,M,B,Multi-ply,No,,,,,,,,260,,1978
2,Vladislav Fesun,Владислав Фесун,108.1,240,250,-260,250,110,Pro Open,M,B,Multi-ply,No,,,,,,,,250,,1967
3,Sergiy Borishanskiy,Сергій Боришанський,108.4,210,230,237.5,237.5,110,Pro Open,M,B,Multi-ply,No,,,,,,,,237.5,,1977
4,Volodimir Lizurchik,Володимир Лізурчик,108,215,-225,-230,215,110,Pro Open,M,B,Multi-ply,No,,,,,,,,215,,1958
5,Konstyantin Martinenko,Констянтин Мартиненко,106.4,192.5,-202.5,-202.5,192.5,110,Pro Open,M,B,Multi-ply,No,,,,,,,,192.5,,1984
1,Oleksiy Sizonenko,Олексій Сізоненко,123,270,-275,-275,270,125,Pro Open,M,B,Multi-ply,No,,,,,,,,270,,1988
1,Sergiy Borishanskiy,Сергій Боришанський,108.4,210,230,237.5,237.5,110,Pro Submasters 33-39,M,B,Multi-ply,No,,,,,,,,237.5,,1977
DQ,Vadim Kopilov,Вадим Копилов,111.2,-220,-240,,,125,Pro Submasters 33-39,M,B,Multi-ply,No,,,,,,,,,,1974
1,Rostislav Bondarenko,Ростислав Бондаренко,87,200,-210,-210,200,90,Pro Masters 40-44,M,B,Multi-ply,No,,,,,,,,200,,1972
DQ,Roman Perevyazko,Роман Перевязко,91.8,-145,-145,-145,,100,Pro Masters 40-44,M,B,Multi-ply,No,,,,,,,,,,1968
1,Yuriy Maligin,Юрій Малигін,100,-165,-165,165,165,100,Pro Masters 45-49,M,B,Multi-ply,No,,,,,,,,165,,1967
1,Vladislav Fesun,Владислав Фесун,108.1,240,250,-260,250,110,Pro Masters 45-49,M,B,Multi-ply,No,,,,,,,,250,,1967
1,Volodimir Lizurchik,Володимир Лізурчик,108,215,-225,-230,215,110,Pro Masters 55-59,M,B,Multi-ply,No,,,,,,,,215,,1958
1,Oleksandr Plotnik,Олександр Плотнік,105.9,150,155,-160,155,110,Pro Masters 60-64,M,B,Multi-ply,No,,,,,,,,155,,1952
1,Vyacheslav Tsiganok,Вячеслав Циганок,97.1,155,165,,165,100,Pro Masters 70-74,M,B,Multi-ply,No,,,,,,,,165,,1938
1,Olena Koroeva,Олена Короєва,59.5,67.5,-70,-70,302.5,60,Amateur Open,F,SBD,Multi-ply,Yes,107.5,115,122.5,110,112.5,-122.5,122.5,67.5,112.5,1983
1,Gennadiy Popov,Геннадій Попов,81.9,150,-160,160,555,82.5,Amateur Juniors 20-23,M,SBD,Multi-ply,Yes,200,210,-220,170,185,-195,210,160,185,1994
1,Andriy Dyatlov,Андрій Дятлов,80.9,180,190,,730,82.5,Amateur Open,M,SBD,Multi-ply,Yes,250,270,290,240,250,,290,190,250,1985
2,Igor Andrusik,Ігор Андрусик,81.1,150,-160,160,610,82.5,Amateur Open,M,SBD,Multi-ply,Yes,210,220,230,-220,220,-235,230,160,220,1988
1,Andriy Dyatlov,Андрій Дятлов,80.9,180,190,,730,82.5,Amateur Military/Fire/Police,M,SBD,Multi-ply,Yes,250,270,290,240,250,,290,190,250,1985
1,Yuliya Gamurar,Юлія Гамурар,62.8,45,52.5,-55,232.5,67.5,Amateur Teen 13-15,F,SBD,Raw,Yes,77.5,85,90,75,82.5,90,90,52.5,90,1998
1,Olga Petrenko,Ольга Петренко,67.3,55,60,-65,275,67.5,Amateur Teen 18-19,F,SBD,Raw,Yes,100,110,-115,95,-105,105,110,60,105,1995
1,Yuliya Shvetsova,Юлія Швецова,43.7,25,27.5,-30,142.5,44,Amateur Juniors 20-23,F,SBD,Raw,Yes,-45,45,55,50,-60,60,55,27.5,60,1989
1,Darya Kosenko,Дар'я Косенко,46.7,-40,42.5,45,225,48,Amateur Juniors 20-23,F,SBD,Raw,Yes,85,90,95,75,85,-90,95,45,85,1991
2,Karina Evtushenko,Карина Євтушенко,48,30,-35,-35,180,48,Amateur Juniors 20-23,F,SBD,Raw,Yes,-80,80,,65,70,-75,80,30,70,1991
1,Valeriya Pozdnyakova,Валерия Позднякова,49.9,55,-57.5,-57.5,285,52,Amateur Juniors 20-23,F,SBD,Raw,Yes,100,110,-115,110,120,-127.5,110,55,120,1991
2,Darina Kovalova,Дарина Ковальова,49.8,35,37.5,-42.5,207.5,52,Amateur Juniors 20-23,F,SBD,Raw,Yes,-85,-85,85,80,85,,85,37.5,85,1990
3,Marina Matvienko,Марина Матвієнко,50.1,30,35,37.5,182.5,52,Amateur Juniors 20-23,F,SBD,Raw,Yes,45,50,55,80,85,90,55,37.5,90,1989
1,Anastasiya Serdyuk,Анастасія Сердюк,62,47.5,52.5,-55,280,67.5,Amateur Juniors 20-23,F,SBD,Raw,Yes,90,-100,100,110,127.5,,100,52.5,127.5,1992
1,Karina Utenkova,Карина Утенкова,42.8,30,35,-37.5,190,44,Amateur Open,F,SBD,Raw,Yes,60,65,-70,85,90,-95,65,35,90,1988
1,Olena Pshenichna,Олена Пшенична,47.6,37.5,40,42.5,187.5,48,Amateur Open,F,SBD,Raw,Yes,-60,60,67.5,65,72.5,77.5,67.5,42.5,77.5,1977
1,Olena Grigor'Eva,Олена Григор'Єва,50.4,35,-40,-40,182.5,52,Amateur Open,F,SBD,Raw,Yes,62.5,67.5,70,67.5,72.5,77.5,70,35,77.5,1989
1,Mariya Markovich,Марія Маркович,55.8,45,47.5,-50,220,56,Amateur Open,F,SBD,Raw,Yes,70,75,80,80,87.5,92.5,80,47.5,92.5,1985
DQ,Nataliya Mileeva,Наталя Мілеєва,55.9,,,,,56,Amateur Open,F,SBD,Raw,Yes,-100,,,,,,,,,1981
1,Olga Morozova,Ольга Морозова,59.5,-35,35,-37.5,200,60,Amateur Open,F,SBD,Raw,Yes,75,-82.5,82.5,75,80,82.5,82.5,35,82.5,1976
1,Olga Petrenko,Ольга Петренко,67.3,55,60,-65,275,67.5,Amateur Open,F,SBD,Raw,Yes,100,110,-115,95,-105,105,110,60,105,1995
2,Tetyana Nemley,Тетяна Немлей,64.8,40,45,-47.5,247.5,67.5,Amateur Open,F,SBD,Raw,Yes,90,100,110,80,90,92.5,110,45,92.5,1986
3,Irina Kirichenko,Ірина Кириченко,61.4,42.5,47.5,-50,212.5,67.5,Amateur Open,F,SBD,Raw,Yes,75,80,-87.5,75,82.5,85,80,47.5,85,1984
DQ,Marina Dumina,Марина Думіна,61,,,,,67.5,Amateur Open,F,SBD,Raw,Yes,-80,,,,,,,,,1983
1,Olga Demakova,Ольга Демакова,72.7,50,55,60,275,75,Amateur Open,F,SBD,Raw,Yes,80,90,105,90,100,110,105,60,110,1978
1,Svitlana Dyagileva,Світлана Дягілева,57.3,45,50,-55,255,60,Amateur Submasters 33-39,F,SBD,Raw,Yes,90,-95,95,100,110,-115,95,50,110,1977
2,Olga Morozova,Ольга Морозова,59.5,-35,35,-37.5,200,60,Amateur Submasters 33-39,F,SBD,Raw,Yes,75,-82.5,82.5,75,80,82.5,82.5,35,82.5,1976
1,Olga Demakova,Ольга Демакова,72.7,50,55,60,275,75,Amateur Submasters 33-39,F,SBD,Raw,Yes,80,90,105,90,100,110,105,60,110,1978
1,Lyudmila Ishchenko,Людмила Іщенко,73.7,50,60,-65,300,75,Amateur Masters 50-54,F,SBD,Raw,Yes,100,115,120,100,110,120,120,60,120,1961
1,Nataliya Tsukanova,Наталія Цуканова,78,82.5,85,,380,82.5,Amateur Masters 55-59,F,SBD,Raw,Yes,130,145,-155,130,140,150,145,85,150,1956
1,Dmitro Zaets,Дмитро Заєць,31.2,30,-35,,172,44,Amateur Children 10,M,SBD,Raw,Yes,57,-65,-67.5,77.5,85,-90,57,30,85,2002
DQ,Andriy Yakovenko,Андрій Яковенко,44,,,,,44,Amateur Children 11-12,M,SBD,Raw,Yes,,,,,,,,,,2001
1,Bogdan Sushko,Богдан Сушко,63.7,55,60,-65,225,67.5,Amateur Children 11-12,M,SBD,Raw,Yes,60,65,75,70,80,90,75,60,90,2000
1,Mikita Kravets,Микита Кравець,44,50,55,,275,44,Amateur Teen 13-15,M,SBD,Raw,Yes,100,107.5,112.5,95,105,107.5,112.5,55,107.5,2000
1,Oleksandr Davidenko,Олександр Давиденко,59.2,60,65,-67.5,292.5,60,Amateur Teen 13-15,M,SBD,Raw,Yes,75,85,90,120,130,137.5,90,65,137.5,1997
1,Vladislav Sklyarov,Владислав Скляров,64.1,72.5,-80,-80,240,67.5,Amateur Teen 13-15,M,SBD,Raw,Yes,50,67.5,72.5,55,85,95,72.5,72.5,95,1998
1,Yaroslav Tarasenko,Ярослав Тарасенко,68.4,65,70,75,345,75,Amateur Teen 13-15,M,SBD,Raw,Yes,110,120,-130,130,140,150,120,75,150,1997
1,Dmitro Grigorev,Дмитро Григорьєв,82.7,80,87.5,-90,377.5,90,Amateur Teen 13-15,M,SBD,Raw,Yes,127.5,137.5,145,130,140,145,145,87.5,145,1997
DQ,Aleksandr Semerenko,Александр Семеренко,56,,,,,56,Amateur Teen 16-17,M,SBD,Raw,Yes,-122.5,-122.5,-122.5,,,,,,,1996
1,Oleksandr Rudakov,Олександр Рудаков,58.9,70,75,-80,330,60,Amateur Teen 16-17,M,SBD,Raw,Yes,110,120,-125,125,135,-140,120,75,135,1995
2,Volodimir Sherstyuk,Володимир Шерстюк,60,42.5,50,-55,300,60,Amateur Teen 16-17,M,SBD,Raw,Yes,90,100,110,120,130,140,110,50,140,1996
1,Glib Somkin,Гліб Сьомкін,66.3,90,95,-100,425,67.5,Amateur Teen 16-17,M,SBD,Raw,Yes,140,150,160,170,-180,,160,95,170,1995
2,Andriy Zakharchenko,Андрій Захарченко,65.6,75,80,-82.5,335,67.5,Amateur Teen 16-17,M,SBD,Raw,Yes,100,105,110,130,140,145,110,80,145,1996
1,Devid Friga,Девід Фріга,72.1,110,115,-120,477.5,75,Amateur Teen 16-17,M,SBD,Raw,Yes,160,170,-180,170,-192.5,192.5,170,115,192.5,1996
2,Oleksandr Moshchanets,Олександр Мощанець,73.7,100,-105,-105,465,75,Amateur Teen 16-17,M,SBD,Raw,Yes,170,-180,180,175,185,-192.5,180,100,185,1995
3,Oleksandr Tarasyuk,Олександр Тарасюк,74.6,110,120,-122.5,462.5,75,Amateur Teen 16-17,M,SBD,Raw,Yes,160,170,-177.5,160,167.5,172.5,170,120,172.5,1995
4,Andriy Kondrashov,Андрій Кондрашов,73.6,90,100,-107.5,435,75,Amateur Teen 16-17,M,SBD,Raw,Yes,160,-170,175,160,-175,-180,175,100,160,1995
5,Andriy Nikolaenko,Андрій Ніколаєнко,74.6,80,85,87.5,397.5,75,Amateur Teen 16-17,M,SBD,Raw,Yes,140,-155,-155,145,160,170,140,87.5,170,1996
6,Oleksiy Gorokholinskiy,Олексій Горохолинський,69.6,85,-90,-90,345,75,Amateur Teen 16-17,M,SBD,Raw,Yes,110,115,120,130,135,140,120,85,140,1995
1,Glib Bondarchuk,Гліб Бондарчук,79.2,-110,110,-115,460,82.5,Amateur Teen 16-17,M,SBD,Raw,Yes,160,-170,,180,190,-200,160,110,190,1995
2,Yaroslav Skakunov,Ярослав Скакунов,78,75,-80,82.5,352.5,82.5,Amateur Teen 16-17,M,SBD,Raw,Yes,130,140,-150,130,-140,-140,140,82.5,130,1995
3,Sergiy Yurskikh,Сергій Юрських,75.2,75,85,-90,345,82.5,Amateur Teen 16-17,M,SBD,Raw,Yes,120,-130,-130,130,-140,140,120,85,140,1995
1,Viktor Kondakov,Віктор Кондаков,84,90,97.5,-100,417.5,90,Amateur Teen 16-17,M,SBD,Raw,Yes,125,135,-142.5,170,185,,135,97.5,185,1996
1,Vitaliy Seredenko,Віталій Середенко,97.9,125,130,-132.5,600,100,Amateur Teen 16-17,M,SBD,Raw,Yes,210,220,225,225,237.5,245,225,130,245,1995
2,Andriy Karaban,Андрій Карабан,96.9,125,135,-140,550,100,Amateur Teen 16-17,M,SBD,Raw,Yes,170,-185,185,230,-240,-240,185,135,230,1997
1,Anatoliy Panasenko,Анатолій Панасенко,108.4,115,125,130,520,110,Amateur Teen 16-17,M,SBD,Raw,Yes,190,200,-205,175,190,-200,200,130,190,1996
2,Vladislav Gurtovenko,Владислав Гуртовенко,108.1,115,125,132.5,507.5,110,Amateur Teen 16-17,M,SBD,Raw,Yes,190,-200,-200,160,170,185,190,132.5,185,1995
1,Oleksiy Alisov,Олексій Алісов,60,85,90,95,430,60,Amateur Teen 18-19,M,SBD,Raw,Yes,-160,160,165,150,170,-175,165,95,170,1993
1,Viktor Geraskevich,Віктор Гераскевич,67,75,80,-85,380,67.5,Amateur Teen 18-19,M,SBD,Raw,Yes,-130,130,-140,-150,150,170,130,80,170,1994
1,Maksim Markevich,Максим Маркевич,70.2,90,97.5,102.5,407.5,75,Amateur Teen 18-19,M,SBD,Raw,Yes,-140,140,150,145,152.5,155,150,102.5,155,1994
DQ,Viktor Denisenko,Віктор Денісенко,73.7,,,,,75,Amateur Teen 18-19,M,SBD,Raw,Yes,-170,-170,-170,,,,,,,1993
1,Illya Korobov,Ілля Коробов,82.2,120,-127.5,-127.5,495,82.5,Amateur Teen 18-19,M,SBD,Raw,Yes,185,-200,-200,190,-205,,185,120,190,1993
2,Vladislav Veldyaev,Владислав Вельдяєв,82.1,115,-120,120,480,82.5,Amateur Teen 18-19,M,SBD,Raw,Yes,-150,150,-160,-190,190,210,150,120,210,1994
3,Vladislav Grigorash,Владислав Григораш,77.1,100,105,-110,457.5,82.5,Amateur Teen 18-19,M,SBD,Raw,Yes,170,-180,-180,175,182.5,-187.5,170,105,182.5,1994
4,Mikola Romanov,Микола Романов,77.8,-100,-100,100,415,82.5,Amateur Teen 18-19,M,SBD,Raw,Yes,150,-165,-165,150,165,-180,150,100,165,1994
5,Maksim Ribalka,Максим Рибалка,80.2,105,110,-112.5,405,82.5,Amateur Teen 18-19,M,SBD,Raw,Yes,-140,140,145,140,145,150,145,110,150,1993
DQ,Andriy Sivolobov,Андрій Сиволобов,78.6,-115,-115,-115,,82.5,Amateur Teen 18-19,M,SBD,Raw,Yes,130,-135,-140,,,,130,,,1994
1,Bogdan Komlev,Богдан Комлєв,84.8,142.5,150,,580,90,Amateur Teen 18-19,M,SBD,Raw,Yes,-215,225,,-205,205,,225,150,205,1993
2,Yuriy Masloyan,Юрій Маслоян,85.3,120,130,132.5,542.5,90,Amateur Teen 18-19,M,SBD,Raw,Yes,190,205,210,180,-200,200,210,132.5,200,1994
1,Oleg Omelyanenko,Олег Омельяненко,98.1,120,130,135,465,100,Amateur Teen 18-19,M,SBD,Raw,Yes,135,145,150,-160,160,180,150,135,180,1993
1,Andriy Serebrenikov,Андрій Серебреніков,65.5,-125,125,130,500,67.5,Amateur Juniors 20-23,M,SBD,Raw,Yes,160,170,175,175,185,195,175,130,195,1991
2,Dmitro Gumenyuk,Дмитро Гуменюк,67,90,95,97.5,437.5,67.5,Amateur Juniors 20-23,M,SBD,Raw,Yes,-165,170,-180,170,-175,-190,170,97.5,170,1989
1,Vadim Davidenko,Вадим Давиденко,75,-115,-115,115,472.5,75,Amateur Juniors 20-23,M,SBD,Raw,Yes,-140,140,150,190,200,207.5,150,115,207.5,1992
2,Stanislav Bazil,Станіслав Базіль,73.5,95,100,-102.5,415,75,Amateur Juniors 20-23,M,SBD,Raw,Yes,-135,135,-145,160,170,180,135,100,180,1992
3,Dmitro Nekhaenko,Дмитро Нехаєнко,72.5,100,-110,-110,385,75,Amateur Juniors 20-23,M,SBD,Raw,Yes,135,-145,-145,130,140,150,135,100,150,1991
1,Dmitro Gavrilyuk,Дмитро Гаврилюк,82.5,140,145,150,550,82.5,Amateur Juniors 20-23,M,SBD,Raw,Yes,185,200,-207.5,185,192.5,200,200,150,200,1989
2,Roman Orekhov,Роман Орєхов,82,95,100,-105,465,82.5,Amateur Juniors 20-23,M,SBD,Raw,Yes,140,150,165,185,200,-215,165,100,200,1991
3,Oleksandr Gladkikh,Олександр Гладких,79.3,100,110,-112.5,402.5,82.5,Amateur Juniors 20-23,M,SBD,Raw,Yes,-120,-120,120,150,-160,172.5,120,110,172.5,1989
DQ,Roman Dubina,Роман Дубіна,79.4,115,-122.5,-122.5,,82.5,Amateur Juniors 20-23,M,SBD,Raw,Yes,185,200,-207.5,-185,-185,-185,200,115,,1990
1,Andriy Shchetinin,Андрій Щетінін,89.3,130,135,-140,586,90,Amateur Juniors 20-23,M,SBD,Raw,Yes,195,206,-217.5,230,245,-257.5,206,135,245,1990
2,Maksim Mosinov,Максим Мосінов,88,140,-145,145,575,90,Amateur Juniors 20-23,M,SBD,Raw,Yes,190,200,202.5,222.5,227.5,-230,202.5,145,227.5,1991
3,Kirilo Matukhno,Кирило Матухно,87.8,125,135,-137.5,502.5,90,Amateur Juniors 20-23,M,SBD,Raw,Yes,-165,165,-175,175,185,202.5,165,135,202.5,1992
4,Artem Medvedev,Артем Медведєв,86.2,120,125,130,462.5,90,Amateur Juniors 20-23,M,SBD,Raw,Yes,135,140,150,160,175,182.5,150,130,182.5,1990
1,Konstyantin Platonov,Констянтин Платонов,95.9,120,130,-140,490,100,Amateur Juniors 20-23,M,SBD,Raw,Yes,150,-160,160,200,-220,,160,130,200,1989
2,Danilo Udovik,Данило Удовик,93.1,97.5,102.5,107.5,455,100,Amateur Juniors 20-23,M,SBD,Raw,Yes,160,-167.5,167.5,162.5,170,180,167.5,107.5,180,1992
DQ,Oleksandr Tarasov,Олександр Тарасов,98.2,,,,,100,Amateur Juniors 20-23,M,SBD,Raw,Yes,-180,-180,-180,,,,,,,1991
1,Anatoliy Kulchar,Анатолій Кульчар,107.1,140,147.5,152.5,580,110,Amateur Juniors 20-23,M,SBD,Raw,Yes,180,195,202.5,190,210,225,202.5,152.5,225,1990
1,Sergiy Toporen,Сергій Топорен,67.1,102.5,107.5,,387.5,67.5,Amateur Open,M,SBD,Raw,Yes,150,-165,-165,130,-140,-140,150,107.5,130,1987
1,Andriy Besedin,Андрій Беседін,74.5,115,122.5,-127.5,502.5,75,Amateur Open,M,SBD,Raw,Yes,165,180,-185,185,200,-212.5,180,122.5,200,1984
2,Mikola Semikin,Микола Семікін,73,120,125,-127.5,455,75,Amateur Open,M,SBD,Raw,Yes,-150,150,-160,160,170,180,150,125,180,1986
3,Oleg Ponomarenko,Олег Пономаренко,72.5,80,87.5,-97.5,392.5,75,Amateur Open,M,SBD,Raw,Yes,130,140,-150,150,160,165,140,87.5,165,1978
1,Vitaliy Dergachev,Віталій Дергачев,81.4,125,130,,550,82.5,Amateur Open,M,SBD,Raw,Yes,190,200,-210,210,220,-225,200,130,220,1987
2,Dmitro Gavrilyuk,Дмитро Гаврилюк,82.5,140,145,150,550,82.5,Amateur Open,M,SBD,Raw,Yes,185,200,-207.5,185,192.5,200,200,150,200,1989
3,Vyacheslav Perekhrest,Вячеслав Перехрест,81.5,135,140,-145,510,82.5,Amateur Open,M,SBD,Raw,Yes,170,-180,-180,-200,200,,170,140,200,1984
4,Viktor Matsenko,Віктор Маценко,79.8,135,140,-142.5,485,82.5,Amateur Open,M,SBD,Raw,Yes,160,-165,165,-180,-180,180,165,140,180,1988
5,Oleksandr Lisenko,Олександр Лисенко,81.3,110,-115,-115,480,82.5,Amateur Open,M,SBD,Raw,Yes,150,160,-170,200,210,,160,110,210,1988
6,Vladislav Grigorash,Владислав Григораш,77.1,100,105,-110,457.5,82.5,Amateur Open,M,SBD,Raw,Yes,170,-180,-180,175,182.5,-187.5,170,105,182.5,1994
7,Denis Gorbenko,Денис Горбенко,80.1,105,-110,-110,425,82.5,Amateur Open,M,SBD,Raw,Yes,150,-160,-170,160,-170,170,150,105,170,1984
DQ,Volodimir Bushtruk,Володимир Буштрук,80.8,,,,,82.5,Amateur Open,M,SBD,Raw,Yes,-210,-210,-210,,,,,,,1976
DQ,Sergiy Khomenko,Сергій Хоменко,82.4,,,,,82.5,Amateur Open,M,SBD,Raw,Yes,-200,-200,-200,,,,,,,1986
1,Dmitro Gak,Дмитро Гак,89.6,160,-165,-165,575,90,Amateur Open,M,SBD,Raw,Yes,180,190,-200,210,220,225,190,160,225,1983
2,Vyacheslav Glushpenko,Вячеслав Глушпенко,88.3,-130,130,-135,562.5,90,Amateur Open,M,SBD,Raw,Yes,-195,195,200,225,232.5,-240,200,130,232.5,1980
3,Roman Lyutiy,Роман Лютий,89.6,90,100,102.5,547.5,90,Amateur Open,M,SBD,Raw,Yes,190,210,-220,220,235,-240,210,102.5,235,1979
4,Anton Shopin,Антон Шопін,88.4,140,-145,145,515,90,Amateur Open,M,SBD,Raw,Yes,160,-170,-170,-200,-210,210,160,145,210,1986
1,Vitaliy Alekseev,Віталій Алексеєв,100,150,160,,700,100,Amateur Open,M,SBD,Raw,Yes,-250,-250,250,270,290,,250,160,290,1988
2,Roman Dmitrenko,Роман Дмитренко,97.6,145,155,165,645,100,Amateur Open,M,SBD,Raw,Yes,200,220,-230,240,250,260,220,165,260,1973
3,Anatoliy Shostatskyy,Анатолій Шостацький,97.9,125,130,135,622.5,100,Amateur Open,M,SBD,Raw,Yes,200,215,225,250,262.5,-270,225,135,262.5,1981
4,Sergiy Kovalov,Сергій Ковальов,95,140,147.5,-150,545,100,Amateur Open,M,SBD,Raw,Yes,205,-215,215,165,175,182.5,215,147.5,182.5,1988
5,Oleg Eletskiy,Олег Єлецький,98.9,102.5,107.5,-112.5,505,100,Amateur Open,M,SBD,Raw,Yes,165,180,-190,197.5,210,217.5,180,107.5,217.5,1980
DQ,Mikhaylo Gulin,Михайло Гулін,99,-90,-90,-90,,100,Amateur Open,M,SBD,Raw,Yes,130,140,-150,,,,140,,,1984
DD,Oleg Khmilyak,Олег Хмиляк,97.4,-150,-157.5,-160,,100,Amateur Open,M,SBD,Raw,Yes,-225,-240,-255,-245,-262.5,-270,,,,1988
DD,Ivan Badira,Іван Бадира,97.2,-125,-130,-135,,100,Amateur Open,M,SBD,Raw,Yes,-215,-220,-225,-242.5,-252.5,-257.5,,,,1984
1,Konstyantin Muntyan,Констянтин Мунтян,109.6,-175,-175,175,697.5,110,Amateur Open,M,SBD,Raw,Yes,240,252.5,260,-245,245,262.5,260,175,262.5,1978
2,Anatoliy Kulchar,Анатолій Кульчар,107.7,140,147.5,152.5,580,110,Amateur Open,M,SBD,Raw,Yes,180,195,202.5,190,210,225,202.5,152.5,225,1990
DQ,Artem Prisyazhniy,Артем Присяжний,105.7,,,,,110,Amateur Open,M,SBD,Raw,Yes,-240,-240,-240,,,,,,,1981
DD,Vyacheslav Tishchenko,Вячеслав Тищенко,109.1,-155,-165,-175,,110,Amateur Open,M,SBD,Raw,Yes,-240,-255,-260,-240,-260,-277.5,,,,1985
1,Ruslan Rudiy,Руслан Рудий,115,140,150,-160,660,125,Amateur Open,M,SBD,Raw,Yes,225,245,255,230,240,255,255,150,255,1978
1,Roman Lyutiy,Роман Лютий,89.6,90,100,102.5,547.5,90,Amateur Submasters 33-39,M,SBD,Raw,Yes,190,210,-220,220,235,-240,210,102.5,235,1979
1,Sergiy Yakubishin,Сергій Якубишин,96,110,115,-117.5,455,100,Amateur Submasters 33-39,M,SBD,Raw,Yes,140,150,160,150,170,180,160,115,180,1978
1,Konstyantin Muntyan,Констянтин Мунтян,109.6,-175,-175,175,697.5,110,Amateur Submasters 33-39,M,SBD,Raw,Yes,240,252.5,260,-245,245,262.5,260,175,262.5,1978
1,Ruslan Rudiy,Руслан Рудий,115,140,150,-160,660,125,Amateur Submasters 33-39,M,SBD,Raw,Yes,225,245,255,230,240,255,255,150,255,1978
1,Volodimir Zhitkov,Володимир Житков,106,90,100,105,475,110,Amateur Masters 40-44,M,SBD,Raw,Yes,-170,-170,170,170,190,200,170,105,200,1969
1,Viktor Shulyak,Віктор Шуляк,82.5,135,-142.5,,550,82.5,Amateur Masters 45-49,M,SBD,Raw,Yes,190,200,-210,200,210,215,200,135,215,1965
1,Oleksiy Sheychenko,Олексій Шейченко,89,102.5,-107.5,107.5,445,90,Amateur Masters 45-49,M,SBD,Raw,Yes,130,145,155,160,175,182.5,155,107.5,182.5,1965
1,Yuriy Khanov,Юрій Ханов,105.2,100,110,120,525,110,Amateur Masters 50-54,M,SBD,Raw,Yes,-195,195,205,200,-215,-215,205,120,200,1963
1,Vyacheslav Glushpenko,Вячеслав Глушпенко,88.3,-130,130,-135,562.5,90,Amateur Military/Fire/Police,M,SBD,Raw,Yes,-195,195,200,225,232.5,-240,200,130,232.5,1980
DQ,Oleksandr Tarasov,Олександр Тарасов,98.2,,,,,100,Amateur Military/Fire/Police,M,SBD,Raw,Yes,-180,-180,-180,,,,,,,1991
1,Tetyana Kalugina,Тетяна Калугіна,60,95,-100,100,425,60,Pro Open,F,SBD,Raw,No,160,167.5,175,140,150,-160,175,100,150,1980
1,Maksim Karasov,Максим Карасьов,73.7,80,85,-90,395,75,Pro Teen 13-15,M,SBD,Raw,No,120,130,140,160,170,-175,140,85,170,1997
1,Sergiy Kuzoma,Сергій Кузьома,67.5,90,100,-105,415,67.5,Pro Teen 18-19,M,SBD,Raw,No,125,135,-145,160,170,180,135,100,180,1993
1,Ivan Shalnov,Іван Шальнов,86.3,140,152.5,160,635,90,Pro Teen 18-19,M,SBD,Raw,No,230,245,-260,200,220,230,245,160,230,1994
2,Valeriy Stupin,Валерій Ступін,86.9,142.5,-147.5,-150,635,90,Pro Teen 18-19,M,SBD,Raw,No,230,240,247.5,227.5,235,245,247.5,142.5,245,1993
3,Oleksandr Noskov,Олександр Носков,85.4,110,117.5,125,525,90,Pro Teen 18-19,M,SBD,Raw,No,170,-185,185,190,200,215,185,125,215,1994
1,Oleksandr Miroshnichenko,Олександр Мирошніченко,66.2,105,-110,,430,67.5,Pro Juniors 20-23,M,SBD,Raw,No,135,-145,150,175,-180,-180,150,105,175,1992
1,Viktor Petrenko,Віктор Петренко,71.1,-105,110,115,415,75,Pro Juniors 20-23,M,SBD,Raw,No,-130,130,-160,140,160,170,130,115,170,1992
1,Evgen Zarvigorov,Євген Зарвигоров,89.4,140,150,160,600,90,Pro Juniors 20-23,M,SBD,Raw,No,200,-220,-220,220,235,240,200,160,240,1991
1,Evgen Nastenko,Євген Настенко,91.6,135,155,160,620,100,Pro Juniors 20-23,M,SBD,Raw,No,200,225,230,210,230,-240,230,160,230,1991
DQ,Vasil Lipa,Василь Липа,97.3,,,,,100,Pro Juniors 20-23,M,SBD,Raw,No,-200,-200,-200,,,,,,,1990
1,Artur Lamekin,Артур Ламєкін,123.7,160,170,-175,670,125,Pro Juniors 20-23,M,SBD,Raw,No,220,230,240,230,250,260,240,170,260,1990
1,Mikhaylo Shadrin,Михайло Шадрін,60,85,105,115,470,60,Pro Open,M,SBD,Raw,No,-185,200,-215,145,155,-170,200,115,155,1985
1,Volodimir Rudnichenko,Володимир Рудніченко,67.5,85,92.5,100,485,67.5,Pro Open,M,SBD,Raw,No,-170,170,185,200,-210,,185,100,200,1973
1,Dmitro Kistin,Дмитро Кістін,73,120,125,130,455,75,Pro Open,M,SBD,Raw,No,150,-160,-160,150,165,175,150,130,175,1983
1,Artur Dubinin,Артур Дубінін,77.7,140,150,155,625,82.5,Pro Open,M,SBD,Raw,No,210,225,230,240,-250,,230,155,240,1987
2,Pavlo Kovalchuk,Павло Ковальчук,78.3,140,147.5,-152.5,617.5,82.5,Pro Open,M,SBD,Raw,No,190,200,210,245,260,-270,210,147.5,260,1988
3,Andriy Avdeev,Андрій Авдеєв,81.5,130,140,145,590,82.5,Pro Open,M,SBD,Raw,No,190,210,215,200,220,230,215,145,230,1983
4,Vyacheslav Lazarenko,Вячеслав Лазаренко,79.2,125,135,140,532.5,82.5,Pro Open,M,SBD,Raw,No,180,-200,-200,180,200,212.5,180,140,212.5,1978
5,Nazariy Perkhulin,Назарій Перхулін,82.5,120,130,140,510,82.5,Pro Open,M,SBD,Raw,No,-180,-180,180,180,190,-200,180,140,190,1988
1,Oleksiy Fedorenko,Олексій Федоренко,90,150,157.5,-160,637.5,90,Pro Open,M,SBD,Raw,No,230,-245,245,220,232.5,235,245,157.5,235,1986
2,Ivan Shalnov,Іван Шальнов,86.3,140,152.5,160,635,90,Pro Open,M,SBD,Raw,No,230,245,-260,200,220,230,245,160,230,1994
3,Maksim Boyarskiy,Максим Боярський,86.1,115,120,-125,540,90,Pro Open,M,SBD,Raw,No,175,-190,190,215,225,230,190,120,230,1984
4,Dmitro Demakov,Дмитро Демаков,87.2,120,-130,130,530,90,Pro Open,M,SBD,Raw,No,170,190,200,185,200,-227.5,200,130,200,1975
DQ,Evgen Leushin,Євген Леушин,88,,,,,90,Pro Open,M,SBD,Raw,No,-260,-260,-270,,,,,,,1988
DQ,Vyacheslav Zdorovenko,Вячеслав Здоровенко,90,,,,,90,Pro Open,M,SBD,Raw,No,,,,,,,,,,1983
DQ,Oleksandr Zikov,Олександр Зиков,90,,,,,90,Pro Open,M,SBD,Raw,No,-200,,,,,,,,,1975
1,Oleg Khristoforov,Олег Христофоров,99.7,-180,180,-190,755,100,Pro Open,M,SBD,Raw,No,300,310,-315,250,265,-270,310,180,265,1975
2,Genadiy Zotov,Генадій Зотов,97.7,170,177.5,182.5,672.5,100,Pro Open,M,SBD,Raw,No,-225,-225,225,265,-292.5,-292.5,225,182.5,265,1985
3,Vladislav Migida,Владислав Мігіда,99.3,165,175,-177.5,662.5,100,Pro Open,M,SBD,Raw,No,230,-240,-240,230,250,257.5,230,175,257.5,1988
4,Mikola Matvienko,Микола Матвієнко,97.5,160,170,-175,650,100,Pro Open,M,SBD,Raw,No,230,250,-255,230,-242.5,-242.5,250,170,230,1984
5,Kirilo Potapov,Кирило Потапов,99.3,130,-140,-140,615,100,Pro Open,M,SBD,Raw,No,220,230,240,230,245,-255,240,130,245,1982
6,Sergiy Palienko,Сергій Палієнко,95.4,135,140,145,592.5,100,Pro Open,M,SBD,Raw,No,200,210,-217.5,225,237.5,,210,145,237.5,1987
7,Vitaliy Savelev,Віталій Савельєв,94.2,135,145,-155,550,100,Pro Open,M,SBD,Raw,No,170,-190,190,190,200,215,190,145,215,1979
1,Konstantin Vradiy,Константин Врадий,106.4,135,140,-145,570,110,Pro Open,M,SBD,Raw,No,-190,190,200,210,217.5,230,200,140,230,1983
2,Vitaliy Prishchenko,Віталій Прищенко,101,145,155,-160,567.5,110,Pro Open,M,SBD,Raw,No,185,-200,210,180,190,202.5,210,155,202.5,1988
DQ,Rostislav Lisnyak,Ростислав Лісняк,108.1,,,,,110,Pro Open,M,SBD,Raw,No,-225,-225,,,,,,,,1984
1,Dmitro Putin,Дмитро Путін,122,130,140,,730,125,Pro Open,M,SBD,Raw,No,260,275,290,270,290,300,290,140,300,1988
2,Oleksandr Navratyuk,Олександр Навратюк,117,160,170,-180,670,125,Pro Open,M,SBD,Raw,No,230,245,250,230,250,-270,250,170,250,1989
3,Artur Lamekin,Артур Ламєкін,123.7,160,170,-175,670,125,Pro Open,M,SBD,Raw,No,220,230,240,230,250,260,240,170,260,1990
1,Volodimir Rudnichenko,Володимир Рудніченко,67.5,85,92.5,100,485,67.5,Pro Submasters 33-39,M,SBD,Raw,No,-170,170,185,200,-210,,185,100,200,1973
1,Dmitro Demakov,Дмитро Демаков,87.2,120,-130,130,530,90,Pro Submasters 33-39,M,SBD,Raw,No,170,190,200,185,200,-227.5,200,130,200,1975
DQ,Oleksandr Zikov,Олександр Зиков,90,,,,,90,Pro Submasters 33-39,M,SBD,Raw,No,-200,,,-230,,,,,,1975
1,Oleg Khristoforov,Олег Христофоров,99.7,-180,180,-190,755,100,Pro Submasters 33-39,M,SBD,Raw,No,300,310,-315,250,265,-270,310,180,265,1975
2,Vitaliy Savelev,Віталій Савельєв,94.2,135,145,-155,550,100,Pro Submasters 33-39,M,SBD,Raw,No,170,-190,190,190,200,215,190,145,215,1979
1,Vadim Aliev,Вадим Алієв,74.3,135,145,-150,570,75,Pro Masters 40-44,M,SBD,Raw,No,200,-220,-220,200,225,-240,200,145,225,1970
1,Vyacheslav Kravchenko,Вячеслав Кравченко,89.7,-130,130,,675,90,Pro Masters 40-44,M,SBD,Raw,No,250,265,275,255,270,,275,130,270,1969
1,Andriy Karnaukh,Андрій Карнаух,98.3,110,115,122.5,417.5,100,Pro Masters 40-44,M,SBD,Raw,No,120,130,,140,155,165,130,122.5,165,1970
1,Genadiy Kuzmenko,Генадій Кузьменко,123,65,,,605,125,Pro Masters 40-44,M,SBD,Raw,No,-210,220,240,280,300,,240,65,300,1972
2,Oleksandr Shendrik,Олександр Шендрик,115.3,135,140,150,580,125,Pro Masters 40-44,M,SBD,Raw,No,-200,200,,200,220,230,200,150,230,1972
1,Dmitro Kabakov,Дмитро Кабаков,85,115,120,-122.5,463.5,90,Pro Masters 45-49,M,SBD,Raw,No,167.5,-175,-175,155,165,176,167.5,120,176,1963
DQ,Sergiy Denisov,Сергій Денисов,99.5,,,,,100,Pro Masters 55-59,M,SBD,Raw,No,,,,,,,,,,1956
1,Genadiy Zotov,Генадій Зотов,97.7,170,177.5,182.5,672.5,100,Pro Military/Fire/Police,M,SBD,Raw,No,-225,-225,225,265,-292.5,-292.5,225,182.5,265,1985
2,Kirilo Potapov,Кирило Потапов,99.3,130,-140,-140,615,100,Pro Military/Fire/Police,M,SBD,Raw,No,220,230,240,230,245,-255,240,130,245,1982
1,Vitaliy Prishchenko,Віталій Прищенко,101,145,155,-160,567.5,110,Pro Military/Fire/Police,M,SBD,Raw,No,185,-200,210,180,190,202.5,210,155,202.5,1988
1,Dmitro Putin,Дмитро Путін,122,130,140,,730,125,Pro Military/Fire/Police,M,SBD,Raw,No,260,275,290,270,290,300,290,140,300,1988
1,Andriy Voznyuk,Андрій Вознюк,73.6,130,142.5,150,590,75,Pro Juniors 20-23,M,SBD,Multi-ply,No,200,-230,230,190,210,-225,230,150,210,1993
1,Sergiy Lasitsin,Сергій Ласіцин,82.4,165,175,-185,680,82.5,Pro Open,M,SBD,Multi-ply,No,240,-260,270,220,235,-250,270,175,235,1989
1,Volodimir Grammatik,Володимир Грамматик,90,210,-215,215,825,90,Pro Open,M,SBD,Multi-ply,No,300,320,330,280,-300,,330,215,280,1982
2,Sergiy Sokolovskiy,Сергій Соколовський,88.5,145,155,,715,90,Pro Open,M,SBD,Multi-ply,No,-260,260,-280,260,280,300,260,155,300,1976
1,Roman Saliy,Роман Салій,92.8,-180,180,192.5,732.5,100,Pro Open,M,SBD,Multi-ply,No,-260,260,270,250,270,,270,192.5,270,1980
2,Anatoliy Bolyukh,Анатолій Болюх,95.4,145,155,165,615,100,Pro Open,M,SBD,Multi-ply,No,-230,230,240,190,200,210,240,165,210,1950
3,Dmitro Illyashenko,Дмитро Ілляшенко,95.6,-145,145,155,607.5,100,Pro Open,M,SBD,Multi-ply,No,220,-235,-235,215,225,232.5,220,155,232.5,1984
4,Sergiy Palienko,Сергій Палієнко,95.4,100,,,300,100,Pro Open,M,SBD,Multi-ply,No,100,,,100,,,100,100,100,1987
1,Volodimir Lebedev,Володимир Лебєдєв,105.6,-175,175,180,725,110,Pro Open,M,SBD,Multi-ply,No,-275,275,290,240,255,,290,180,255,1961
1,Volodimir Samusev,Володимир Самусев,111.1,180,190,200,670,125,Pro Open,M,SBD,Multi-ply,No,250,-260,-260,220,,,250,200,220,1976
1,Sergiy Sokolovskiy,Сергій Соколовський,88.5,145,155,,715,90,Pro Submasters 33-39,M,SBD,Multi-ply,No,-260,260,-280,260,280,300,260,155,300,1976
1,Yuriy Maligin,Юрій Малигін,100,140,-150,150,530,100,Pro Masters 45-49,M,SBD,Multi-ply,No,-180,180,-200,180,-200,200,180,150,200,1967
1,Volodimir Lebedev,Володимир Лебєдєв,105.6,-175,175,180,725,110,Pro Masters 50-54,M,SBD,Multi-ply,No,-275,275,290,240,255,,290,180,255,1961
1,Anatoliy Bolyukh,Анатолій Болюх,95.4,145,155,165,615,100,Pro Masters 60-64,M,SBD,Multi-ply,No,-230,230,240,190,200,210,240,165,210,1950
