Division,WeightClassKg,Place,Name,Team,BodyweightKg,Best3SquatKg,Best3BenchKg,Best3DeadliftKg,TotalKg,Equipment,Event,Sex
Boys,51.71,1,Wylie Brown,Nacogdoches,49.35,136.08,74.84,145.15,356.07,Single-ply,SBD,M
Boys,51.71,2,DeAnthony Lane,Ennis,46.36,102.06,56.7,122.47,281.23,Single-ply,SBD,M
Boys,51.71,3,Jose Mancia,Greenville,47.72,104.33,58.97,117.93,281.23,Single-ply,SBD,M
Boys,51.71,4,Jacyrin Coats,Marshall,51.17,108.86,45.36,127.01,281.23,Single-ply,SBD,M
Boys,51.71,5,Junior Chavez,Waxahachie,47.63,99.79,49.9,111.13,260.82,Single-ply,SBD,M
Boys,51.71,6,Jonathan McWhorter,Lindale,45.99,86.18,31.75,90.72,208.65,Single-ply,SBD,M
Boys,51.71,7,Pablo Gutierrez,Mount Pleasant,46.72,97.52,54.43,,151.95,Single-ply,SB,M
Boys,55.79,DQ,John Magbanua,Texarkana Texas,51.89,115.67,,,,Single-ply,SB,M
Boys,51.71,DQ,Ross Cowart,Huntsville,49.44,,,,,Single-ply,SB,M
Boys,51.71,DQ,Nick Henderson,Waxahachie,51.44,122.47,,,,Single-ply,SB,M
Boys,55.79,1,Joseph Rico,Forney,55.79,174.63,104.33,167.83,446.79,Single-ply,SBD,M
Boys,55.79,2,Riley Slocum,Longview Pine Tree,55.25,147.42,86.18,170.1,403.7,Single-ply,SBD,M
Boys,55.79,3,Jonathan Alvarez,Sulphur Springs,55.43,154.22,70.31,149.69,374.21,Single-ply,SBD,M
Boys,55.79,4,Chris Dixon,Longview,54.79,136.08,68.04,156.49,360.61,Single-ply,SBD,M
Boys,55.79,5,Juan Ottino,Mount Pleasant,54.61,133.81,72.57,136.08,342.46,Single-ply,SBD,M
Boys,55.79,6,Colton Lewis,Lindale,55.61,108.86,83.91,142.88,335.66,Single-ply,SBD,M
Boys,59.87,7,Bobby Jackson,Jacksonville,56.02,115.67,54.43,113.4,283.5,Single-ply,SBD,M
Boys,55.79,8,Dustin Crabtree,Sulphur Springs,53.16,111.13,45.36,120.2,276.69,Single-ply,SBD,M
Boys,55.79,9,Holden Bailey,North Forney,52.53,106.59,52.16,92.99,251.74,Single-ply,SBD,M
Boys,59.87,1,Camron King,Marshall,59.42,183.7,83.91,190.51,458.13,Single-ply,SBD,M
Boys,59.87,2,JaCorey Mitchell,Marshall,59.69,163.29,88.45,170.1,421.84,Single-ply,SBD,M
Boys,59.87,3,Jeffery Cuellar,Corsicana,59.51,136.08,88.45,174.63,399.16,Single-ply,SBD,M
Boys,59.87,4,Tramaine Butler,Marshall,58.15,138.35,77.11,156.49,371.95,Single-ply,SBD,M
Boys,59.87,5,Jesus Perez,Mount Pleasant,57.52,140.61,70.31,156.49,367.41,Single-ply,SBD,M
Boys,67.13,6,Kristopher-Dale Cooper,Longview,60.1,127.01,72.57,154.22,353.8,Single-ply,SBD,M
Boys,59.87,DQ,Edgar Carrera,Ennis,59.42,165.56,,,,Single-ply,SBD,M
Boys,67.13,1,Ja'Vontay Williams,Nacogdoches,66.68,226.8,99.79,231.33,557.92,Single-ply,SBD,M
Boys,74.84,2,Tommy Martinez,Midlothian,67.22,195.04,124.74,188.24,508.02,Single-ply,SBD,M
Boys,67.13,3,Marcus Piroutek,Longview,67.13,190.51,108.86,181.44,480.81,Single-ply,SBD,M
Boys,67.13,4,Mark Vasquez,Ennis,64.77,165.56,97.52,185.97,449.06,Single-ply,SBD,M
Boys,67.13,5,Cody Bargerhuff,Greenville,64.95,179.17,83.91,181.44,444.52,Single-ply,SBD,M
Boys,67.13,6,Luke Elkins,Corsicana,62.32,172.37,92.99,174.63,439.98,Single-ply,SBD,M
Boys,67.13,7,Gilberto Torres,Forney,67.13,158.76,92.99,172.37,424.11,Single-ply,SBD,M
Boys,67.13,DQ,Ike Montemayor,Ennis,63.87,,,,,Single-ply,SBD,M
Boys,67.13,DQ,Darius Campbell,Red Oak,66.77,158.76,108.86,,,Single-ply,SBD,M
Boys,74.84,1,Angel Perez,Red Oak,74.03,208.65,188.24,213.19,610.08,Single-ply,SBD,M
Boys,74.84,2,Chavis Mills,Marshall,74.48,226.8,108.86,224.53,560.19,Single-ply,SBD,M
Boys,74.84,3,Garrett David,Waxahachie,71.12,204.12,104.33,217.72,526.17,Single-ply,SBD,M
Boys,74.84,4,Elvin Martinez,Huntsville,72.85,197.31,102.06,222.26,521.63,Single-ply,SBD,M
Boys,74.84,5,Gavin Pringle,Waxahachie,74.03,204.12,115.67,188.24,508.02,Single-ply,SBD,M
Boys,74.84,6,D'Crayvan Polk,Longview,70.22,192.78,108.86,195.04,496.68,Single-ply,SBD,M
Boys,74.84,7,Hayden Dees,Lindale,71.94,190.51,99.79,204.12,494.42,Single-ply,SBD,M
Boys,74.84,8,Tim Caradine,Terrell,74.39,170.1,104.33,215.46,489.88,Single-ply,SBD,M
Boys,74.84,9,DeMarr Henry,Corsicana,71.67,172.37,113.4,195.04,480.81,Single-ply,SBD,M
Boys,74.84,10,Pierce Adams,Nacogdoches,71.4,195.04,92.99,190.51,478.54,Single-ply,SBD,M
Boys,82.1,1,AJ Rose,Hallsville,81.1,240.4,181.44,204.12,625.96,Single-ply,SBD,M
Boys,82.1,2,Michael Hansen,Lindale,80.1,222.26,136.08,219.99,578.33,Single-ply,SBD,M
Boys,82.1,3,Chris Clark,Waxahachie,82.01,201.85,111.13,247.21,560.19,Single-ply,SBD,M
Boys,89.81,4,Mason Walker,Midlothian,82.19,215.46,131.54,213.19,560.19,Single-ply,SBD,M
Boys,82.1,5,Mitchell Butler,Texarkana Texas,82.01,210.92,124.74,217.72,553.38,Single-ply,SBD,M
Boys,82.1,6,Ryan Taylor,Lindale,76.93,222.26,115.67,213.19,551.11,Single-ply,SBD,M
Boys,82.1,7,Anthony Chaney,Huntsville,80.56,201.85,124.74,210.92,537.51,Single-ply,SBD,M
Boys,82.1,8,Quay Ward,Longview Pine Tree,77.93,192.78,138.35,197.31,528.44,Single-ply,SBD,M
Boys,82.1,DQ,Daniel Salguero,Red Oak,77.56,208.65,,,,Single-ply,SBD,M
Boys,82.1,DQ,Blair Fernandez,Hallsville,78.65,,,,,Single-ply,SBD,M
Boys,89.81,1,James Seekford,Lindale,87.09,278.96,181.44,213.19,673.58,Single-ply,SBD,M
Boys,89.81,2,Crandal Hale,Greenville,88.63,260.82,138.35,229.06,628.23,Single-ply,SBD,M
Boys,89.81,3,Micahh Smith,Marshall,84.91,231.33,113.4,251.74,596.47,Single-ply,SBD,M
Boys,89.81,4,Bryan Gilliland,Longview,88.72,244.94,122.47,226.8,594.21,Single-ply,SBD,M
Boys,89.81,5,Drake Murry,Marshall,87.72,240.4,122.47,226.8,589.67,Single-ply,SBD,M
Boys,89.81,6,Caleb High,Waxahachie,85.37,233.6,124.74,204.12,562.45,Single-ply,SBD,M
Boys,99.79,7,Dj Jefferson,Waxahachie,89.99,199.58,129.27,217.72,546.58,Single-ply,SBD,M
Boys,89.81,8,Leonardo Zavala,Waxahachie,85.37,210.92,111.13,204.12,526.17,Single-ply,SBD,M
Boys,89.81,9,Jackson Maxey,Hallsville,87.09,190.51,127.01,195.04,512.56,Single-ply,SBD,M
Boys,99.79,10,Steven Largent,Huntsville,89.99,181.44,106.59,201.85,489.88,Single-ply,SBD,M
Boys,99.79,1,Adam Arredondo,Waxahachie,99.43,285.76,158.76,233.6,678.12,Single-ply,SBD,M
Boys,99.79,2,Najee Mustafaa,Midlothian,95.98,274.42,156.49,235.87,666.78,Single-ply,SBD,M
Boys,99.79,3,Austin Cooper,Greenville,99.25,263.08,145.15,226.8,635.03,Single-ply,SBD,M
Boys,99.79,4,Kerrian Goree,Greenville,97.7,238.14,158.76,219.99,616.89,Single-ply,SBD,M
Boys,99.79,5,Karbohn McAdoo,Longview,93.53,226.8,131.54,244.94,603.28,Single-ply,SBD,M
Boys,99.79,6,Anthony Washington,Marshall,98.07,238.14,117.93,238.14,594.21,Single-ply,SBD,M
Boys,99.79,7,Alex Gamez,Sulphur Springs,94.89,224.53,124.74,206.38,555.65,Single-ply,SBD,M
Boys,99.79,8,Wilfredo Valladares,Tyler,94.26,215.46,138.35,195.04,548.85,Single-ply,SBD,M
Boys,99.79,9,Henry Hernandez #2,Jacksonville,98.7,204.12,111.13,199.58,514.83,Single-ply,SBD,M
Boys,109.77,1,Rick Marshall,Huntsville,108.23,258.55,188.24,249.48,696.26,Single-ply,SBD,M
Boys,109.77,2,Tyler Segrest,Lindale,106.05,244.94,138.35,251.74,635.03,Single-ply,SBD,M
Boys,109.77,3,Jassavia Reese,Tyler,108.95,235.87,133.81,256.28,625.96,Single-ply,SBD,M
Boys,109.77,4,Stacey Nelson,Longview,106.68,256.28,111.13,244.94,612.35,Single-ply,SBD,M
Boys,109.77,5,Kj Mohl,Hallsville,105.6,231.33,145.15,201.85,578.33,Single-ply,SBD,M
Boys,109.77,6,Dustin Nicholas,Huntsville,102.42,213.19,113.4,231.33,557.92,Single-ply,SBD,M
Boys,109.77,7,Dacorian Blaylock,Tyler,104.42,217.72,120.2,208.65,546.58,Single-ply,SBD,M
Boys,109.77,8,Julian Oliver,Marshall,108.05,219.99,115.67,206.38,542.04,Single-ply,SBD,M
Boys,124.74,1,Parker Blount,Huntsville,115.39,303.91,170.1,272.16,746.16,Single-ply,SBD,M
Boys,124.74,2,Antonio Washington,Marshall,116.12,267.62,147.42,272.16,687.19,Single-ply,SBD,M
Boys,124.74,3,Jerry Villela,Tyler Lee,116.75,238.14,151.95,249.48,639.57,Single-ply,SBD,M
Boys,124.74,4,Hayden Mahone,Ennis,119.57,283.5,127.01,217.72,628.23,Single-ply,SBD,M
Boys,124.74,5,Ja'Coby Paul,Terrell,118.93,249.48,165.56,208.65,623.69,Single-ply,SBD,M
Boys,124.74,6,Armando Martinez,Red Oak,120.93,238.14,138.35,217.72,594.21,Single-ply,SBD,M
Boys,124.74,7,John Samples,Tyler Lee,111.67,226.8,136.08,219.99,582.87,Single-ply,SBD,M
Boys,124.74,DQ,Dawson Smith,Huntsville,120.29,249.48,,,,Single-ply,SBD,M
Boys,124.74+,1,Eric Roberts,Terrell,142.7,281.23,158.76,233.6,673.58,Single-ply,SBD,M
Boys,124.74+,2,Ahmad Turner,Longview,150.59,244.94,145.15,251.74,641.83,Single-ply,SBD,M
Boys,124.74+,3,Kevin Ramirez,Nacogdoches,148.14,294.84,122.47,222.26,639.57,Single-ply,SBD,M
Boys,124.74+,4,Norris Floyd,North Forney,128.55,242.67,124.74,247.21,614.62,Single-ply,SBD,M
Boys,124.74+,5,Cj Powell,Marshall,140.25,272.16,131.54,210.92,614.62,Single-ply,SBD,M
Boys,124.74+,6,Jordan Jones,Marshall,138.98,256.28,129.27,224.53,610.08,Single-ply,SBD,M
Boys,124.74+,7,Colby Harris,Tyler,145.69,254.01,140.61,215.46,610.08,Single-ply,SBD,M
Boys,124.74+,8,Nolynn Riley,Red Oak,127.46,233.6,122.47,240.4,596.47,Single-ply,SBD,M
Boys,124.74+,9,Devin Collins,Ennis,142.7,240.4,115.67,226.8,582.87,Single-ply,SBD,M
Boys,124.74+,10,Cameron Kennaley,Midlothian,135.62,222.26,131.54,226.8,580.6,Single-ply,SBD,M
